{
  "data": {
    "componentType": "accordion",
    "clientSideRendering": false,
    "KEY_IS_AUTHOR_MODE": true,
    "isContainer": false,
    "jsonNameSpace": "accordion",
    "path": "content/whitelabel/en_gb/home/flexible/_jcr_content/flexi_hero_par/accordion",
    "viewType": "defaultView",
    "randomNumber": [
      "32",
      "908"
    ],
    "accordionV2": {
      "multipleOpenItems": null,
      "componentVariation": "defaultView",
      "componentPosition": 2,
      "componentName": "Accordian V2",
      "panelList": [
        {
          "panelHeading": "Dressing",
          "expandedByDefault": null,
          "randomNumber": "32",
          "content": "<div data-role='product-listing' data-path='data/product-listing-mayonnaise.json' class='product-listing js-product-listing__loaded' id='product-listing-292' style='opacity: 1;'> <div class='container'> <div class='row'> <div class='col-sm-12 col-xs-12 u-center'><h2 class='o-text__heading-2'>Dressing</h2></div></div></div><div class='container c-product-listing__container' data-sticky-nav-id='' data-sticky-nav-label='default' data-componentname='product listing mayonnaise' data-component-variants='' data-component-positions=''> <div class='row c-product-listing__product-list is-product-listing__quick' itemtype='http://schema.org/ItemList'><div itemprop='itemListElement' itemscope='' itemtype='http://schema.org/Product' class='js-product-listing__list-item' data-list-position=''> <div class='col-sm-4 c-product-listing__product-wrap short' data-anim='product' style='opacity: 1;'> <div class='c-product-listing__product-item'> <a class='c-product-listing__image-wrap' href='product-detail.html' title='Real Mayonnaise' data-ct-action='productClick' data-product-id='8711700728607' data-product-name='Pure &amp; Sensitive Beauty Bar' data-product-category='Skin Cleansing' data-product-variant='Pure &amp; Sensitive Beauty Bar' data-product-quantity='2x100g' data-product-price='1.84' data-product-brand='white-label' itemprop='url'> <picture><source srcset='images-cms/product-listing/real-mayonnaise.ulenscale.320x320.jpg' media='screen and (min-width: 1200px)'><source srcset='images-cms/product-listing/real-mayonnaise.ulenscale.320x320.jpg, images-cms/product-listing/real-mayonnaise.ulenscale.320x320.jpg 2x' media='screen and (min-width: 992px) and (max-width: 1199px)'><source srcset='images-cms/product-listing/real-mayonnaise.ulenscale.310x310.jpg, images-cms/product-listing/real-mayonnaise.ulenscale.620x620.jpg 2x' media='screen and (min-width: 768px) and (max-width: 991px)'><source srcset='images-cms/product-listing/real-mayonnaise.ulenscale.220x220.jpg, images-cms/product-listing/real-mayonnaise.ulenscale.440x440.jpg 2x' media='screen and (min-width: 480px) and (max-width: 767px)'><img class='sddf' src='images-cms/product-listing/real-mayonnaise.ulenscale.220x220.jpg' title='' alt=''></picture> <meta itemprop='image' content=''> </a> <a class='c-product-listing__title u-center o-text__tight' href='product-detail.html' title='Real Mayonnaise' data-ct-action='productClick' data-product-id='8711700728607' data-product-name='Pure &amp; Sensitive Beauty Bar' data-product-category='Skin Cleansing' data-product-variant='Pure &amp; Sensitive Beauty Bar' data-product-quantity='2x100g' data-product-price='1.84' data-product-brand='white-label'> <span itemprop='name'>Real Mayonnaise</span> </a> <div class='o-rating c-inline-review'> <div class='o-rating c-inline-review'> <div class='rr-widget-container rr-container rr-star-percentage product_17935 inlineSummaryDiv' data-summary-template='inline' data-entity-type='product' dataidentifier-value='8711700927598' data-identifier-type='EAN' data-unique-id='17935' title='Real Mayonnaise' data-dividentifier-id='17935' data-dividentifier-type=''><div class='aggregateRating'><div class='agRatingDeSelect'><img title='review' alt=' review ' src='http://eu-stage.kritique.io/Widget/resources/images/rating-disabled.png'></div><div class='agRatingSelect' style='width:0px;'><img title=' review ' alt=' review ' src='http://eu-stage.kritique.io/Widget/resources/images/rating-selected.png'></div></div><span class='aggRtng'><img id='rrRatingLoader' title='' alt='' src='//apac.kritique.io/widget/resources/images/loader.gif'></span><span class='tRtng'> </span><a href='javascript:void(0)' title='Write a Review' class='wRtng'></a></div></div></div></div><div class='c-product-overview__awards'><div class='c-product-awards' data-index='0'> <p class='c-award-img'><a href='' class='js-award-img'> <img src='' alt='' title=''> </a> <span class='c-award-name'></span> <span> <a class='btn btn-primary js-awardBtn' href=''></a> </span> </p><p class='c-award-date-range'> - </p></div></div><div class='c-product-listing__product-wrap-arrow'></div></div><div class='c-product-listing__quick-panel-wrap'> <div class='c-product-listing__quick-panel'> <div class='container'> <div class='row'> <div class='c-product-listing__quick-cta-panel'> <div class='col-sm-5 col-sm-offset-1 c-product-listing__bottom'> <a class='c-product-listing__image-wrap' href='product-detail.html'> <picture><source srcset='images-cms/product-listing/real-mayonnaise.ulenscale.320x320.jpg' media='screen and (min-width: 1200px)'><source srcset='images-cms/product-listing/real-mayonnaise.ulenscale.320x320.jpg, images-cms/product-listing/real-mayonnaise.ulenscale.320x320.jpg 2x' media='screen and (min-width: 992px) and (max-width: 1199px)'><source srcset='images-cms/product-listing/real-mayonnaise.ulenscale.310x310.jpg, images-cms/product-listing/real-mayonnaise.ulenscale.620x620.jpg 2x' media='screen and (min-width: 768px) and (max-width: 991px)'><source srcset='images-cms/product-listing/real-mayonnaise.ulenscale.220x220.jpg, images-cms/product-listing/real-mayonnaise.ulenscale.440x440.jpg 2x' media='screen and (min-width: 480px) and (max-width: 767px)'><img class='sddf' src='images-cms/product-listing/real-mayonnaise.ulenscale.220x220.jpg' title='' alt=''></picture> </a> </div><div class='col-sm-5 c-product-listing__middle'> <div class=''> <h3 class='o-text__heading-2 hidden-xs' itemprop='name'>Real Mayonnaise</h3> <div class='c-product-listing__description o-text__tight' itemprop='description'></div><div class='o-rating c-inline-review'> <div class='rr-widget-container rr-container rr-star-percentage product_17935 inlineSummaryDiv' data-summary-template='inline' data-entity-type='product' dataidentifier-value='8711700927598' data-identifier-type='EAN' data-unique-id='17935' title='Real Mayonnaise' data-dividentifier-id='17935' data-dividentifier-type=''><div class='aggregateRating'><div class='agRatingDeSelect'><img title='review' alt=' review ' src='http://eu-stage.kritique.io/Widget/resources/images/rating-disabled.png'></div><div class='agRatingSelect' style='width:0px;'><img title=' review ' alt=' review ' src='http://eu-stage.kritique.io/Widget/resources/images/rating-selected.png'></div></div><span class='aggRtng'><img id='rrRatingLoader' title='' alt='' src='//apac.kritique.io/widget/resources/images/loader.gif'></span><span class='tRtng'> </span><a href='javascript:void(0)' title='Write a Review' class='wRtng'></a></div></div><div class=''> <div class='c-dropdown'> <div class='c-product-listing__price o-text__heading-4' itemprop='offers' itemscope='' itemtype='http://schema.org/Offer'> <span class='o-text__body'>250mL</span> <b itemprop='price'>£2.77</b> <span class='o-text__body'> RRP</span> </div></div><a class='o-btn o-btn--primary c-product-listing__link o-text__body' data-ct-action='productClick' title='Real Mayonnaise' href='product-detail.html' data-anim='button' data-anim-effect='ripple1' data-info='true' data-product-id='8711700728607' data-product-name='Pure &amp; Sensitive Beauty Bar' data-product-category='Skin Cleansing' data-product-variant='Pure &amp; Sensitive Beauty Bar' data-product-quantity='2x100g' data-product-price='1.84' data-product-brand='white-label'></a> </div></div></div></div><div class='js-btn__info-panel'> <div class='c-product-listing__info'> <div class='container c-product-listing__info-list'> <div class='c-product-listing__top-new'> <h2 class='o-text__heading-2 test'> Mini Double Caramel1 &amp; Double Chocolate1 </h2> </div><div class='c-product-listing__info--nav'> <ul class='c-product-listing__info--nav__list'> <li class='c-product-listing__info--nav__item'> <a class='c-product-listing__info--nav__link c-product-listing__info--nav__link-1' href='#producInfoAllergy-1'> Allergy1 </a> </li><li class='c-product-listing__info--nav__item'> <a class='c-product-listing__info--nav__link c-product-listing__info--nav__link-1' href='#producInfoNutrition-1'> Nutritions1 </a> </li><li class='c-product-listing__info--nav__item'> <a class='c-product-listing__info--nav__link c-product-listing__info--nav__link-1' href='#producInfoIngredients-1'> Ingredients1 </a> </li></ul> </div><div class='c-product-listing__info-item c-product-listing__info-item-1' id='producInfoAllergy-1'> <div class='c-product-listing__ni-itemWrap'> <h3 class='o-text__heading-3' itemprop='text'>Allergy1 (Lorem Ipsum 9)</h3> <div class='c-product-listing__desc o-desc' itemprop='description'> allergy description </div></div><div class='c-product-listing__ni-itemWrap'> <h3 class='o-text__heading-3' itemprop='text'>Allergy1 (Allergy)</h3> <div class='c-product-listing__desc o-desc' itemprop='description'> allergy description </div></div></div><div class='c-product-listing__info-item c-product-listing__info-item-1' id='producInfoNutrition-1'> <div class='c-product-listing__info-item__wrap'> <h3 class='o-text__heading-3' itemprop='name'>Nutritions1 (Nutrition Facts)</h3> <div class='c-product-listing__info__desc o-desc' itemprop='description'> </div><div class='c-product-listing__info__desc o-desc' itemprop='description'> </div><div class='c-product-listing__info-item__ni'> <table width='100%' class='c-product-info__table'> <tbody><tr> <th class='ni-facts-head-0'></th> <th class='ni-facts-head-1'>Per 100 g</th> <th class='ni-facts-head-2'>Per 100 ml</th> <th class='ni-facts-head-3'>Per *</th> </tr><tr> <td class='ni-facts-0'>Calories</td><td class='ni-facts-1'>150kj/359Kcal</td><td class='ni-facts-2'>1187kj/283Kcal</td><td class='ni-facts-3'>12%</td></tr><tr> <td class='ni-facts-0'>Calories</td><td class='ni-facts-1'>150kj/359Kcal</td><td class='ni-facts-2'>1187kj/283Kcal</td><td class='ni-facts-3'>12%</td></tr><tr> <td class='ni-facts-0'>Calories</td><td class='ni-facts-1'>150kj/359Kcal</td><td class='ni-facts-2'>1187kj/283Kcal</td><td class='ni-facts-3'>12%</td></tr><tr> <td class='ni-facts-0'>Calories</td><td class='ni-facts-1'>150kj/359Kcal</td><td class='ni-facts-2'>1187kj/283Kcal</td><td class='ni-facts-3'>12%</td></tr><tr> <td class='ni-facts-0'>Calories</td><td class='ni-facts-1'>150kj/359Kcal</td><td class='ni-facts-2'>1187kj/283Kcal</td><td class='ni-facts-3'>12%</td></tr><tr> <td class='ni-facts-0'>Calories</td><td class='ni-facts-1'>150kj/359Kcal</td><td class='ni-facts-2'>1187kj/283Kcal</td><td class='ni-facts-3'>12%</td></tr><tr> <td class='ni-facts-0'>Calories</td><td class='ni-facts-1'>150kj/359Kcal</td><td class='ni-facts-2'>1187kj/283Kcal</td><td class='ni-facts-3'>12%</td></tr><tr> <td class='ni-facts-0'>Calories</td><td class='ni-facts-1'>150kj/359Kcal</td><td class='ni-facts-2'>1187kj/283Kcal</td><td class='ni-facts-3'>12%</td></tr><tr> <td class='ni-facts-0'>Calories</td><td class='ni-facts-1'>150kj/359Kcal</td><td class='ni-facts-2'>1187kj/283Kcal</td><td class='ni-facts-3'>12%</td></tr><tr> <td class='ni-facts-0'>Calories</td><td class='ni-facts-1'>150kj/359Kcal</td><td class='ni-facts-2'>1187kj/283Kcal</td><td class='ni-facts-3'>12%</td></tr><tr> <td class='ni-facts-0'>Calories</td><td class='ni-facts-1'>150kj/359Kcal</td><td class='ni-facts-2'>1187kj/283Kcal</td><td class='ni-facts-3'>12%</td></tr><tr> <td class='ni-facts-0'>Calories</td><td class='ni-facts-1'>150kj/359Kcal</td><td class='ni-facts-2'>1187kj/283Kcal</td><td class='ni-facts-3'>12%</td></tr><tr> <td class='ni-facts-0'>Calories</td><td class='ni-facts-1'>150kj/359Kcal</td><td class='ni-facts-2'>1187kj/283Kcal</td><td class='ni-facts-3'>12%</td></tr></tbody></table> </div><span class='c-copyright-label'>* of reference intake of an average adult</span> </div></div><div class='c-product-listing__info-item c-product-listing__info-item-1' id='producInfoIngredients-1'> <div class='c-product-listing__info-item__wrap'> <div class='c-product-listing__ni-itemWrap'> <h3 class='o-text__heading-3' itemprop='name'>Ingredients1 (Ingredients1)</h3> <div class='c-product-listing__desc o-desc' itemprop='description'>Ingredients description</div></div><div class='c-product-listing__ni-itemWrap'> <h3 class='o-text__heading-3' itemprop='name'>Ingredients1 (Ingredients)</h3> <div class='c-product-listing__desc o-desc' itemprop='description'>Ingredients description</div></div></div></div></div></div></div><div class='c-product-listing__quick-close'></div></div></div></div></div></div><div itemprop='itemListElement' itemscope='' itemtype='http://schema.org/Product' class='js-product-listing__list-item' data-list-position=''><div class='col-sm-4 c-product-listing__product-wrap short' data-anim='product' style='opacity: 1;'> <div class='c-product-listing__product-item'> <a class='c-product-listing__image-wrap' href='product-detail.html' title='Lighter than Light Mayonnaise' data-ct-action='productClick' data-product-id='8711700728607' data-product-name='Pure &amp; Sensitive Beauty Bar' data-product-category='Skin Cleansing' data-product-variant='Pure &amp; Sensitive Beauty Bar' data-product-quantity='2x100g' data-product-price='1.84' data-product-brand='white-label' itemprop='url'> <picture><source srcset='images-cms/product-listing/lighter-than-light-mayonnaise.ulenscale.320x320.jpg' media='screen and (min-width: 1200px)'><source srcset='images-cms/product-listing/lighter-than-light-mayonnaise.ulenscale.320x320.jpg, images-cms/product-listing/lighter-than-light-mayonnaise.ulenscale.320x320.jpg 2x' media='screen and (min-width: 992px) and (max-width: 1199px)'><source srcset='images-cms/product-listing/lighter-than-light-mayonnaise.ulenscale.310x310.jpg, images-cms/product-listing/lighter-than-light-mayonnaise.ulenscale.620x620.jpg 2x' media='screen and (min-width: 768px) and (max-width: 991px)'><source srcset='images-cms/product-listing/lighter-than-light-mayonnaise.ulenscale.220x220.jpg, images-cms/product-listing/lighter-than-light-mayonnaise.ulenscale.440x440.jpg 2x' media='screen and (min-width: 480px) and (max-width: 767px)'><img class='sddf' src='images-cms/product-listing/lighter-than-light-mayonnaise.ulenscale.220x220.jpg' title='' alt=''></picture> <meta itemprop='image' content=''> </a> <a class='c-product-listing__title u-center o-text__tight' href='product-detail.html' title='Lighter than Light Mayonnaise' data-ct-action='productClick' data-product-id='8711700728607' data-product-name='Pure &amp; Sensitive Beauty Bar' data-product-category='Skin Cleansing' data-product-variant='Pure &amp; Sensitive Beauty Bar' data-product-quantity='2x100g' data-product-price='1.84' data-product-brand='white-label'> <span itemprop='name'>Lighter than Light Mayonnaise</span> </a> <div class='o-rating c-inline-review'> <div class='o-rating c-inline-review'> <div class='rr-widget-container rr-container rr-star-percentage product_17935 inlineSummaryDiv' data-summary-template='inline' data-entity-type='product' dataidentifier-value='8711700927598' data-identifier-type='EAN' data-unique-id='17935' title='Lighter than Light Mayonnaise' data-dividentifier-id='17935' data-dividentifier-type=''><div class='aggregateRating'><div class='agRatingDeSelect'><img title='review' alt=' review ' src='http://eu-stage.kritique.io/Widget/resources/images/rating-disabled.png'></div><div class='agRatingSelect' style='width:0px;'><img title=' review ' alt=' review ' src='http://eu-stage.kritique.io/Widget/resources/images/rating-selected.png'></div></div><span class='aggRtng'><img id='rrRatingLoader' title='' alt='' src='//apac.kritique.io/widget/resources/images/loader.gif'></span><span class='tRtng'> </span><a href='javascript:void(0)' title='Write a Review' class='wRtng'></a></div></div></div></div><div class='c-product-overview__awards'><div class='c-product-awards' data-index='0'> <p class='c-award-img'><a href='' class='js-award-img'> <img src='' alt='' title=''> </a> <span class='c-award-name'></span> <span> <a class='btn btn-primary js-awardBtn' href=''></a> </span> </p><p class='c-award-date-range'> - </p></div></div><div class='c-product-listing__product-wrap-arrow'></div></div><div class='c-product-listing__quick-panel-wrap'> <div class='c-product-listing__quick-panel'> <div class='container'> <div class='row'> <div class='c-product-listing__quick-cta-panel'> <div class='col-sm-5 col-sm-offset-1 c-product-listing__bottom'> <a class='c-product-listing__image-wrap' href='product-detail.html'> <picture><source srcset='images-cms/product-listing/lighter-than-light-mayonnaise.ulenscale.320x320.jpg' media='screen and (min-width: 1200px)'><source srcset='images-cms/product-listing/lighter-than-light-mayonnaise.ulenscale.320x320.jpg, images-cms/product-listing/lighter-than-light-mayonnaise.ulenscale.320x320.jpg 2x' media='screen and (min-width: 992px) and (max-width: 1199px)'><source srcset='images-cms/product-listing/lighter-than-light-mayonnaise.ulenscale.310x310.jpg, images-cms/product-listing/lighter-than-light-mayonnaise.ulenscale.620x620.jpg 2x' media='screen and (min-width: 768px) and (max-width: 991px)'><source srcset='images-cms/product-listing/lighter-than-light-mayonnaise.ulenscale.220x220.jpg, images-cms/product-listing/lighter-than-light-mayonnaise.ulenscale.440x440.jpg 2x' media='screen and (min-width: 480px) and (max-width: 767px)'><img class='sddf' src='images-cms/product-listing/lighter-than-light-mayonnaise.ulenscale.220x220.jpg' title='' alt=''></picture> </a> </div><div class='col-sm-5 c-product-listing__middle'> <div class=''> <h3 class='o-text__heading-2 hidden-xs' itemprop='name'>Lighter than Light Mayonnaise</h3> <div class='c-product-listing__description o-text__tight' itemprop='description'></div><div class='o-rating c-inline-review'> <div class='rr-widget-container rr-container rr-star-percentage product_17935 inlineSummaryDiv' data-summary-template='inline' data-entity-type='product' dataidentifier-value='8711700927598' data-identifier-type='EAN' data-unique-id='17935' title='Lighter than Light Mayonnaise' data-dividentifier-id='17935' data-dividentifier-type=''><div class='aggregateRating'><div class='agRatingDeSelect'><img title='review' alt=' review ' src='http://eu-stage.kritique.io/Widget/resources/images/rating-disabled.png'></div><div class='agRatingSelect' style='width:0px;'><img title=' review ' alt=' review ' src='http://eu-stage.kritique.io/Widget/resources/images/rating-selected.png'></div></div><span class='aggRtng'><img id='rrRatingLoader' title='' alt='' src='//apac.kritique.io/widget/resources/images/loader.gif'></span><span class='tRtng'> </span><a href='javascript:void(0)' title='Write a Review' class='wRtng'></a></div></div><div class=''> <div class='c-dropdown'> <div class='c-product-listing__price o-text__heading-4' itemprop='offers' itemscope='' itemtype='http://schema.org/Offer'> <span class='o-text__body'>250mL</span> <b itemprop='price'>£2.77</b> <span class='o-text__body'> RRP</span> </div></div><a class='o-btn o-btn--primary c-product-listing__link o-text__body' data-ct-action='productClick' title='Lighter than Light Mayonnaise' href='product-detail.html' data-anim='button' data-anim-effect='ripple1' data-info='true' data-product-id='8711700728607' data-product-name='Pure &amp; Sensitive Beauty Bar' data-product-category='Skin Cleansing' data-product-variant='Pure &amp; Sensitive Beauty Bar' data-product-quantity='2x100g' data-product-price='1.84' data-product-brand='white-label'></a> </div></div></div></div><div class='js-btn__info-panel'> <div class='c-product-listing__info'> <div class='container c-product-listing__info-list'> <div class='c-product-listing__top-new'> <h2 class='o-text__heading-2 test'> Mini Double Caramel1 &amp; Double Chocolate1 </h2> </div><div class='c-product-listing__info--nav'> <ul class='c-product-listing__info--nav__list'> <li class='c-product-listing__info--nav__item'> <a class='c-product-listing__info--nav__link c-product-listing__info--nav__link-1' href='#producInfoAllergy-1'> Allergy1 </a> </li><li class='c-product-listing__info--nav__item'> <a class='c-product-listing__info--nav__link c-product-listing__info--nav__link-1' href='#producInfoNutrition-1'> Nutritions1 </a> </li><li class='c-product-listing__info--nav__item'> <a class='c-product-listing__info--nav__link c-product-listing__info--nav__link-1' href='#producInfoIngredients-1'> Ingredients1 </a> </li></ul> </div><div class='c-product-listing__info-item c-product-listing__info-item-1' id='producInfoAllergy-1'> <div class='c-product-listing__ni-itemWrap'> <h3 class='o-text__heading-3' itemprop='text'>Allergy1 (Lorem Ipsum 9)</h3> <div class='c-product-listing__desc o-desc' itemprop='description'> allergy description </div></div><div class='c-product-listing__ni-itemWrap'> <h3 class='o-text__heading-3' itemprop='text'>Allergy1 (Allergy)</h3> <div class='c-product-listing__desc o-desc' itemprop='description'> allergy description </div></div></div><div class='c-product-listing__info-item c-product-listing__info-item-1' id='producInfoNutrition-1'> <div class='c-product-listing__info-item__wrap'> <h3 class='o-text__heading-3' itemprop='name'>Nutritions1 (Nutrition Facts)</h3> <div class='c-product-listing__info__desc o-desc' itemprop='description'> </div><div class='c-product-listing__info__desc o-desc' itemprop='description'> </div><div class='c-product-listing__info-item__ni'> <table width='100%' class='c-product-info__table'> <tbody><tr> <th class='ni-facts-head-0'></th> <th class='ni-facts-head-1'>Per 100 g</th> <th class='ni-facts-head-2'>Per 100 ml</th> <th class='ni-facts-head-3'>Per *</th> </tr><tr> <td class='ni-facts-0'>Calories</td><td class='ni-facts-1'>150kj/359Kcal</td><td class='ni-facts-2'>1187kj/283Kcal</td><td class='ni-facts-3'>12%</td></tr><tr> <td class='ni-facts-0'>Calories</td><td class='ni-facts-1'>150kj/359Kcal</td><td class='ni-facts-2'>1187kj/283Kcal</td><td class='ni-facts-3'>12%</td></tr><tr> <td class='ni-facts-0'>Calories</td><td class='ni-facts-1'>150kj/359Kcal</td><td class='ni-facts-2'>1187kj/283Kcal</td><td class='ni-facts-3'>12%</td></tr><tr> <td class='ni-facts-0'>Calories</td><td class='ni-facts-1'>150kj/359Kcal</td><td class='ni-facts-2'>1187kj/283Kcal</td><td class='ni-facts-3'>12%</td></tr><tr> <td class='ni-facts-0'>Calories</td><td class='ni-facts-1'>150kj/359Kcal</td><td class='ni-facts-2'>1187kj/283Kcal</td><td class='ni-facts-3'>12%</td></tr><tr> <td class='ni-facts-0'>Calories</td><td class='ni-facts-1'>150kj/359Kcal</td><td class='ni-facts-2'>1187kj/283Kcal</td><td class='ni-facts-3'>12%</td></tr><tr> <td class='ni-facts-0'>Calories</td><td class='ni-facts-1'>150kj/359Kcal</td><td class='ni-facts-2'>1187kj/283Kcal</td><td class='ni-facts-3'>12%</td></tr><tr> <td class='ni-facts-0'>Calories</td><td class='ni-facts-1'>150kj/359Kcal</td><td class='ni-facts-2'>1187kj/283Kcal</td><td class='ni-facts-3'>12%</td></tr><tr> <td class='ni-facts-0'>Calories</td><td class='ni-facts-1'>150kj/359Kcal</td><td class='ni-facts-2'>1187kj/283Kcal</td><td class='ni-facts-3'>12%</td></tr><tr> <td class='ni-facts-0'>Calories</td><td class='ni-facts-1'>150kj/359Kcal</td><td class='ni-facts-2'>1187kj/283Kcal</td><td class='ni-facts-3'>12%</td></tr><tr> <td class='ni-facts-0'>Calories</td><td class='ni-facts-1'>150kj/359Kcal</td><td class='ni-facts-2'>1187kj/283Kcal</td><td class='ni-facts-3'>12%</td></tr><tr> <td class='ni-facts-0'>Calories</td><td class='ni-facts-1'>150kj/359Kcal</td><td class='ni-facts-2'>1187kj/283Kcal</td><td class='ni-facts-3'>12%</td></tr><tr> <td class='ni-facts-0'>Calories</td><td class='ni-facts-1'>150kj/359Kcal</td><td class='ni-facts-2'>1187kj/283Kcal</td><td class='ni-facts-3'>12%</td></tr></tbody></table> </div><span class='c-copyright-label'>* of reference intake of an average adult</span> </div></div><div class='c-product-listing__info-item c-product-listing__info-item-1' id='producInfoIngredients-1'> <div class='c-product-listing__info-item__wrap'> <div class='c-product-listing__ni-itemWrap'> <h3 class='o-text__heading-3' itemprop='name'>Ingredients1 (Ingredients1)</h3> <div class='c-product-listing__desc o-desc' itemprop='description'>Ingredients description</div></div><div class='c-product-listing__ni-itemWrap'> <h3 class='o-text__heading-3' itemprop='name'>Ingredients1 (Ingredients)</h3> <div class='c-product-listing__desc o-desc' itemprop='description'>Ingredients description</div></div></div></div></div></div></div><div class='c-product-listing__quick-close'></div></div></div></div></div></div><div itemprop='itemListElement' itemscope='' itemtype='http://schema.org/Product' class='js-product-listing__list-item' data-list-position=''><div class='col-sm-4 c-product-listing__product-wrap short' data-anim='product' style='opacity: 1;'> <div class='c-product-listing__product-item'> <a class='c-product-listing__image-wrap' href='product-detail.html' title='Mayonnaise with Olive Oil' data-ct-action='productClick' data-product-id='8711700728607' data-product-name='Pure &amp; Sensitive Beauty Bar' data-product-category='Skin Cleansing' data-product-variant='Pure &amp; Sensitive Beauty Bar' data-product-quantity='2x100g' data-product-price='1.84' data-product-brand='white-label' itemprop='url'> <picture><source srcset='images-cms/product-listing/mayonnaise-with-olive-oil.ulenscale.320x320.jpg' media='screen and (min-width: 1200px)'><source srcset='images-cms/product-listing/mayonnaise-with-olive-oil.ulenscale.320x320.jpg, images-cms/product-listing/mayonnaise-with-olive-oil.ulenscale.320x320.jpg 2x' media='screen and (min-width: 992px) and (max-width: 1199px)'><source srcset='images-cms/product-listing/mayonnaise-with-olive-oil.ulenscale.310x310.jpg, images-cms/product-listing/mayonnaise-with-olive-oil.ulenscale.620x620.jpg 2x' media='screen and (min-width: 768px) and (max-width: 991px)'><source srcset='images-cms/product-listing/mayonnaise-with-olive-oil.ulenscale.220x220.jpg, images-cms/product-listing/mayonnaise-with-olive-oil.ulenscale.440x440.jpg 2x' media='screen and (min-width: 480px) and (max-width: 767px)'><img class='sddf' src='images-cms/product-listing/mayonnaise-with-olive-oil.ulenscale.220x220.jpg' title='' alt=''></picture> <meta itemprop='image' content=''> </a> <a class='c-product-listing__title u-center o-text__tight' href='product-detail.html' title='Mayonnaise with Olive Oil' data-ct-action='productClick' data-product-id='8711700728607' data-product-name='Pure &amp; Sensitive Beauty Bar' data-product-category='Skin Cleansing' data-product-variant='Pure &amp; Sensitive Beauty Bar' data-product-quantity='2x100g' data-product-price='1.84' data-product-brand='white-label'> <span itemprop='name'>Mayonnaise with Olive Oil</span> </a> <div class='o-rating c-inline-review'> <div class='o-rating c-inline-review'> <div class='rr-widget-container rr-container rr-star-percentage product_17935 inlineSummaryDiv' data-summary-template='inline' data-entity-type='product' dataidentifier-value='8711700927598' data-identifier-type='EAN' data-unique-id='17935' title='Mayonnaise with Olive Oil' data-dividentifier-id='17935' data-dividentifier-type=''><div class='aggregateRating'><div class='agRatingDeSelect'><img title='review' alt=' review ' src='http://eu-stage.kritique.io/Widget/resources/images/rating-disabled.png'></div><div class='agRatingSelect' style='width:0px;'><img title=' review ' alt=' review ' src='http://eu-stage.kritique.io/Widget/resources/images/rating-selected.png'></div></div><span class='aggRtng'><img id='rrRatingLoader' title='' alt='' src='//apac.kritique.io/widget/resources/images/loader.gif'></span><span class='tRtng'> </span><a href='javascript:void(0)' title='Write a Review' class='wRtng'></a></div></div></div></div><div class='c-product-overview__awards'><div class='c-product-awards' data-index='0'> <p class='c-award-img'><a href='' class='js-award-img'> <img src='' alt='' title=''> </a> <span class='c-award-name'></span> <span> <a class='btn btn-primary js-awardBtn' href=''></a> </span> </p><p class='c-award-date-range'> - </p></div></div><div class='c-product-listing__product-wrap-arrow'></div></div><div class='c-product-listing__quick-panel-wrap'> <div class='c-product-listing__quick-panel'> <div class='container'> <div class='row'> <div class='c-product-listing__quick-cta-panel'> <div class='col-sm-5 col-sm-offset-1 c-product-listing__bottom'> <a class='c-product-listing__image-wrap' href='product-detail.html'> <picture><source srcset='images-cms/product-listing/mayonnaise-with-olive-oil.ulenscale.320x320.jpg' media='screen and (min-width: 1200px)'><source srcset='images-cms/product-listing/mayonnaise-with-olive-oil.ulenscale.320x320.jpg, images-cms/product-listing/mayonnaise-with-olive-oil.ulenscale.320x320.jpg 2x' media='screen and (min-width: 992px) and (max-width: 1199px)'><source srcset='images-cms/product-listing/mayonnaise-with-olive-oil.ulenscale.310x310.jpg, images-cms/product-listing/mayonnaise-with-olive-oil.ulenscale.620x620.jpg 2x' media='screen and (min-width: 768px) and (max-width: 991px)'><source srcset='images-cms/product-listing/mayonnaise-with-olive-oil.ulenscale.220x220.jpg, images-cms/product-listing/mayonnaise-with-olive-oil.ulenscale.440x440.jpg 2x' media='screen and (min-width: 480px) and (max-width: 767px)'><img class='sddf' src='images-cms/product-listing/mayonnaise-with-olive-oil.ulenscale.220x220.jpg' title='' alt=''></picture> </a> </div><div class='col-sm-5 c-product-listing__middle'> <div class=''> <h3 class='o-text__heading-2 hidden-xs' itemprop='name'>Mayonnaise with Olive Oil</h3> <div class='c-product-listing__description o-text__tight' itemprop='description'></div><div class='o-rating c-inline-review'> <div class='rr-widget-container rr-container rr-star-percentage product_17935 inlineSummaryDiv' data-summary-template='inline' data-entity-type='product' dataidentifier-value='8711700927598' data-identifier-type='EAN' data-unique-id='17935' title='Mayonnaise with Olive Oil' data-dividentifier-id='17935' data-dividentifier-type=''><div class='aggregateRating'><div class='agRatingDeSelect'><img title='review' alt=' review ' src='http://eu-stage.kritique.io/Widget/resources/images/rating-disabled.png'></div><div class='agRatingSelect' style='width:0px;'><img title=' review ' alt=' review ' src='http://eu-stage.kritique.io/Widget/resources/images/rating-selected.png'></div></div><span class='aggRtng'><img id='rrRatingLoader' title='' alt='' src='//apac.kritique.io/widget/resources/images/loader.gif'></span><span class='tRtng'> </span><a href='javascript:void(0)' title='Write a Review' class='wRtng'></a></div></div><div class=''> <div class='c-dropdown'> <div class='c-product-listing__price o-text__heading-4' itemprop='offers' itemscope='' itemtype='http://schema.org/Offer'> <span class='o-text__body'>250mL</span> <b itemprop='price'>£2.77</b> <span class='o-text__body'> RRP</span> </div></div><a class='o-btn o-btn--primary c-product-listing__link o-text__body' data-ct-action='productClick' title='Mayonnaise with Olive Oil' href='product-detail.html' data-anim='button' data-anim-effect='ripple1' data-info='true' data-product-id='8711700728607' data-product-name='Pure &amp; Sensitive Beauty Bar' data-product-category='Skin Cleansing' data-product-variant='Pure &amp; Sensitive Beauty Bar' data-product-quantity='2x100g' data-product-price='1.84' data-product-brand='white-label'></a> </div></div></div></div><div class='js-btn__info-panel'> <div class='c-product-listing__info'> <div class='container c-product-listing__info-list'> <div class='c-product-listing__top-new'> <h2 class='o-text__heading-2 test'> Mini Double Caramel1 &amp; Double Chocolate1 </h2> </div><div class='c-product-listing__info--nav'> <ul class='c-product-listing__info--nav__list'> <li class='c-product-listing__info--nav__item'> <a class='c-product-listing__info--nav__link c-product-listing__info--nav__link-1' href='#producInfoAllergy-1'> Allergy1 </a> </li><li class='c-product-listing__info--nav__item'> <a class='c-product-listing__info--nav__link c-product-listing__info--nav__link-1' href='#producInfoNutrition-1'> Nutritions1 </a> </li><li class='c-product-listing__info--nav__item'> <a class='c-product-listing__info--nav__link c-product-listing__info--nav__link-1' href='#producInfoIngredients-1'> Ingredients1 </a> </li></ul> </div><div class='c-product-listing__info-item c-product-listing__info-item-1' id='producInfoAllergy-1'> <div class='c-product-listing__ni-itemWrap'> <h3 class='o-text__heading-3' itemprop='text'>Allergy1 (Lorem Ipsum 9)</h3> <div class='c-product-listing__desc o-desc' itemprop='description'> allergy description </div></div><div class='c-product-listing__ni-itemWrap'> <h3 class='o-text__heading-3' itemprop='text'>Allergy1 (Allergy)</h3> <div class='c-product-listing__desc o-desc' itemprop='description'> allergy description </div></div></div><div class='c-product-listing__info-item c-product-listing__info-item-1' id='producInfoNutrition-1'> <div class='c-product-listing__info-item__wrap'> <h3 class='o-text__heading-3' itemprop='name'>Nutritions1 (Nutrition Facts)</h3> <div class='c-product-listing__info__desc o-desc' itemprop='description'> </div><div class='c-product-listing__info__desc o-desc' itemprop='description'> </div><div class='c-product-listing__info-item__ni'> <table width='100%' class='c-product-info__table'> <tbody><tr> <th class='ni-facts-head-0'></th> <th class='ni-facts-head-1'>Per 100 g</th> <th class='ni-facts-head-2'>Per 100 ml</th> <th class='ni-facts-head-3'>Per *</th> </tr><tr> <td class='ni-facts-0'>Calories</td><td class='ni-facts-1'>150kj/359Kcal</td><td class='ni-facts-2'>1187kj/283Kcal</td><td class='ni-facts-3'>12%</td></tr><tr> <td class='ni-facts-0'>Calories</td><td class='ni-facts-1'>150kj/359Kcal</td><td class='ni-facts-2'>1187kj/283Kcal</td><td class='ni-facts-3'>12%</td></tr><tr> <td class='ni-facts-0'>Calories</td><td class='ni-facts-1'>150kj/359Kcal</td><td class='ni-facts-2'>1187kj/283Kcal</td><td class='ni-facts-3'>12%</td></tr><tr> <td class='ni-facts-0'>Calories</td><td class='ni-facts-1'>150kj/359Kcal</td><td class='ni-facts-2'>1187kj/283Kcal</td><td class='ni-facts-3'>12%</td></tr><tr> <td class='ni-facts-0'>Calories</td><td class='ni-facts-1'>150kj/359Kcal</td><td class='ni-facts-2'>1187kj/283Kcal</td><td class='ni-facts-3'>12%</td></tr><tr> <td class='ni-facts-0'>Calories</td><td class='ni-facts-1'>150kj/359Kcal</td><td class='ni-facts-2'>1187kj/283Kcal</td><td class='ni-facts-3'>12%</td></tr><tr> <td class='ni-facts-0'>Calories</td><td class='ni-facts-1'>150kj/359Kcal</td><td class='ni-facts-2'>1187kj/283Kcal</td><td class='ni-facts-3'>12%</td></tr><tr> <td class='ni-facts-0'>Calories</td><td class='ni-facts-1'>150kj/359Kcal</td><td class='ni-facts-2'>1187kj/283Kcal</td><td class='ni-facts-3'>12%</td></tr><tr> <td class='ni-facts-0'>Calories</td><td class='ni-facts-1'>150kj/359Kcal</td><td class='ni-facts-2'>1187kj/283Kcal</td><td class='ni-facts-3'>12%</td></tr><tr> <td class='ni-facts-0'>Calories</td><td class='ni-facts-1'>150kj/359Kcal</td><td class='ni-facts-2'>1187kj/283Kcal</td><td class='ni-facts-3'>12%</td></tr><tr> <td class='ni-facts-0'>Calories</td><td class='ni-facts-1'>150kj/359Kcal</td><td class='ni-facts-2'>1187kj/283Kcal</td><td class='ni-facts-3'>12%</td></tr><tr> <td class='ni-facts-0'>Calories</td><td class='ni-facts-1'>150kj/359Kcal</td><td class='ni-facts-2'>1187kj/283Kcal</td><td class='ni-facts-3'>12%</td></tr><tr> <td class='ni-facts-0'>Calories</td><td class='ni-facts-1'>150kj/359Kcal</td><td class='ni-facts-2'>1187kj/283Kcal</td><td class='ni-facts-3'>12%</td></tr></tbody></table> </div><span class='c-copyright-label'>* of reference intake of an average adult</span> </div></div><div class='c-product-listing__info-item c-product-listing__info-item-1' id='producInfoIngredients-1'> <div class='c-product-listing__info-item__wrap'> <div class='c-product-listing__ni-itemWrap'> <h3 class='o-text__heading-3' itemprop='name'>Ingredients1 (Ingredients1)</h3> <div class='c-product-listing__desc o-desc' itemprop='description'>Ingredients description</div></div><div class='c-product-listing__ni-itemWrap'> <h3 class='o-text__heading-3' itemprop='name'>Ingredients1 (Ingredients)</h3> <div class='c-product-listing__desc o-desc' itemprop='description'>Ingredients description</div></div></div></div></div></div></div><div class='c-product-listing__quick-close'></div></div></div></div></div></div><div itemprop='itemListElement' itemscope='' itemtype='http://schema.org/Product' class='js-product-listing__list-item' data-list-position=''><div class='col-sm-4 c-product-listing__product-wrap short' data-anim='product' style='opacity: 1;'> <div class='c-product-listing__product-item'> <a class='c-product-listing__image-wrap' href='product-detail.html' title='Mayonnaise with a Zing of Lemon' data-ct-action='productClick' data-product-id='8711700728607' data-product-name='Pure &amp; Sensitive Beauty Bar' data-product-category='Skin Cleansing' data-product-variant='Pure &amp; Sensitive Beauty Bar' data-product-quantity='2x100g' data-product-price='1.84' data-product-brand='white-label' itemprop='url'> <picture><source srcset='images-cms/product-listing/mayonnaise-with-a-zing-of-lemon.ulenscale.320x320.jpg' media='screen and (min-width: 1200px)'><source srcset='images-cms/product-listing/mayonnaise-with-a-zing-of-lemon.ulenscale.320x320.jpg, images-cms/product-listing/mayonnaise-with-a-zing-of-lemon.ulenscale.320x320.jpg 2x' media='screen and (min-width: 992px) and (max-width: 1199px)'><source srcset='images-cms/product-listing/mayonnaise-with-a-zing-of-lemon.ulenscale.310x310.jpg, images-cms/product-listing/mayonnaise-with-a-zing-of-lemon.ulenscale.620x620.jpg 2x' media='screen and (min-width: 768px) and (max-width: 991px)'><source srcset='images-cms/product-listing/mayonnaise-with-a-zing-of-lemon.ulenscale.220x220.jpg, images-cms/product-listing/mayonnaise-with-a-zing-of-lemon.ulenscale.440x440.jpg 2x' media='screen and (min-width: 480px) and (max-width: 767px)'><img class='sddf' src='images-cms/product-listing/mayonnaise-with-a-zing-of-lemon.ulenscale.220x220.jpg' title='' alt=''></picture> <meta itemprop='image' content=''> </a> <a class='c-product-listing__title u-center o-text__tight' href='product-detail.html' title='Mayonnaise with a Zing of Lemon' data-ct-action='productClick' data-product-id='8711700728607' data-product-name='Pure &amp; Sensitive Beauty Bar' data-product-category='Skin Cleansing' data-product-variant='Pure &amp; Sensitive Beauty Bar' data-product-quantity='2x100g' data-product-price='1.84' data-product-brand='white-label'> <span itemprop='name'>Mayonnaise with a Zing of Lemon</span> </a> <div class='o-rating c-inline-review'> <div class='o-rating c-inline-review'> <div class='rr-widget-container rr-container rr-star-percentage product_17935 inlineSummaryDiv' data-summary-template='inline' data-entity-type='product' dataidentifier-value='8711700927598' data-identifier-type='EAN' data-unique-id='17935' title='Mayonnaise with a Zing of Lemon' data-dividentifier-id='17935' data-dividentifier-type=''><div class='aggregateRating'><div class='agRatingDeSelect'><img title='review' alt=' review ' src='http://eu-stage.kritique.io/Widget/resources/images/rating-disabled.png'></div><div class='agRatingSelect' style='width:0px;'><img title=' review ' alt=' review ' src='http://eu-stage.kritique.io/Widget/resources/images/rating-selected.png'></div></div><span class='aggRtng'><img id='rrRatingLoader' title='' alt='' src='//apac.kritique.io/widget/resources/images/loader.gif'></span><span class='tRtng'> </span><a href='javascript:void(0)' title='Write a Review' class='wRtng'></a></div></div></div></div><div class='c-product-overview__awards'><div class='c-product-awards' data-index='0'> <p class='c-award-img'><a href='' class='js-award-img'> <img src='' alt='' title=''> </a> <span class='c-award-name'></span> <span> <a class='btn btn-primary js-awardBtn' href=''></a> </span> </p><p class='c-award-date-range'> - </p></div></div><div class='c-product-listing__product-wrap-arrow'></div></div><div class='c-product-listing__quick-panel-wrap'> <div class='c-product-listing__quick-panel'> <div class='container'> <div class='row'> <div class='c-product-listing__quick-cta-panel'> <div class='col-sm-5 col-sm-offset-1 c-product-listing__bottom'> <a class='c-product-listing__image-wrap' href='product-detail.html'> <picture><source srcset='images-cms/product-listing/mayonnaise-with-a-zing-of-lemon.ulenscale.320x320.jpg' media='screen and (min-width: 1200px)'><source srcset='images-cms/product-listing/mayonnaise-with-a-zing-of-lemon.ulenscale.320x320.jpg, images-cms/product-listing/mayonnaise-with-a-zing-of-lemon.ulenscale.320x320.jpg 2x' media='screen and (min-width: 992px) and (max-width: 1199px)'><source srcset='images-cms/product-listing/mayonnaise-with-a-zing-of-lemon.ulenscale.310x310.jpg, images-cms/product-listing/mayonnaise-with-a-zing-of-lemon.ulenscale.620x620.jpg 2x' media='screen and (min-width: 768px) and (max-width: 991px)'><source srcset='images-cms/product-listing/mayonnaise-with-a-zing-of-lemon.ulenscale.220x220.jpg, images-cms/product-listing/mayonnaise-with-a-zing-of-lemon.ulenscale.440x440.jpg 2x' media='screen and (min-width: 480px) and (max-width: 767px)'><img class='sddf' src='images-cms/product-listing/mayonnaise-with-a-zing-of-lemon.ulenscale.220x220.jpg' title='' alt=''></picture> </a> </div><div class='col-sm-5 c-product-listing__middle'> <div class=''> <h3 class='o-text__heading-2 hidden-xs' itemprop='name'>Mayonnaise with a Zing of Lemon</h3> <div class='c-product-listing__description o-text__tight' itemprop='description'></div><div class='o-rating c-inline-review'> <div class='rr-widget-container rr-container rr-star-percentage product_17935 inlineSummaryDiv' data-summary-template='inline' data-entity-type='product' dataidentifier-value='8711700927598' data-identifier-type='EAN' data-unique-id='17935' title='Mayonnaise with a Zing of Lemon' data-dividentifier-id='17935' data-dividentifier-type=''><div class='aggregateRating'><div class='agRatingDeSelect'><img title='review' alt=' review ' src='http://eu-stage.kritique.io/Widget/resources/images/rating-disabled.png'></div><div class='agRatingSelect' style='width:0px;'><img title=' review ' alt=' review ' src='http://eu-stage.kritique.io/Widget/resources/images/rating-selected.png'></div></div><span class='aggRtng'><img id='rrRatingLoader' title='' alt='' src='//apac.kritique.io/widget/resources/images/loader.gif'></span><span class='tRtng'> </span><a href='javascript:void(0)' title='Write a Review' class='wRtng'></a></div></div><div class=''> <div class='c-dropdown'> <div class='c-product-listing__price o-text__heading-4' itemprop='offers' itemscope='' itemtype='http://schema.org/Offer'> <span class='o-text__body'>250mL</span> <b itemprop='price'>£2.77</b> <span class='o-text__body'> RRP</span> </div></div><a class='o-btn o-btn--primary c-product-listing__link o-text__body' data-ct-action='productClick' title='Mayonnaise with a Zing of Lemon' href='product-detail.html' data-anim='button' data-anim-effect='ripple1' data-info='true' data-product-id='8711700728607' data-product-name='Pure &amp; Sensitive Beauty Bar' data-product-category='Skin Cleansing' data-product-variant='Pure &amp; Sensitive Beauty Bar' data-product-quantity='2x100g' data-product-price='1.84' data-product-brand='white-label'></a> </div></div></div></div><div class='js-btn__info-panel'> <div class='c-product-listing__info'> <div class='container c-product-listing__info-list'> <div class='c-product-listing__top-new'> <h2 class='o-text__heading-2 test'> Mini Double Caramel1 &amp; Double Chocolate1 </h2> </div><div class='c-product-listing__info--nav'> <ul class='c-product-listing__info--nav__list'> <li class='c-product-listing__info--nav__item'> <a class='c-product-listing__info--nav__link c-product-listing__info--nav__link-1' href='#producInfoAllergy-1'> Allergy1 </a> </li><li class='c-product-listing__info--nav__item'> <a class='c-product-listing__info--nav__link c-product-listing__info--nav__link-1' href='#producInfoNutrition-1'> Nutritions1 </a> </li><li class='c-product-listing__info--nav__item'> <a class='c-product-listing__info--nav__link c-product-listing__info--nav__link-1' href='#producInfoIngredients-1'> Ingredients1 </a> </li></ul> </div><div class='c-product-listing__info-item c-product-listing__info-item-1' id='producInfoAllergy-1'> <div class='c-product-listing__ni-itemWrap'> <h3 class='o-text__heading-3' itemprop='text'>Allergy1 (Lorem Ipsum 9)</h3> <div class='c-product-listing__desc o-desc' itemprop='description'> allergy description </div></div><div class='c-product-listing__ni-itemWrap'> <h3 class='o-text__heading-3' itemprop='text'>Allergy1 (Allergy)</h3> <div class='c-product-listing__desc o-desc' itemprop='description'> allergy description </div></div></div><div class='c-product-listing__info-item c-product-listing__info-item-1' id='producInfoNutrition-1'> <div class='c-product-listing__info-item__wrap'> <h3 class='o-text__heading-3' itemprop='name'>Nutritions1 (Nutrition Facts)</h3> <div class='c-product-listing__info__desc o-desc' itemprop='description'> </div><div class='c-product-listing__info__desc o-desc' itemprop='description'> </div><div class='c-product-listing__info-item__ni'> <table width='100%' class='c-product-info__table'> <tbody><tr> <th class='ni-facts-head-0'></th> <th class='ni-facts-head-1'>Per 100 g</th> <th class='ni-facts-head-2'>Per 100 ml</th> <th class='ni-facts-head-3'>Per *</th> </tr><tr> <td class='ni-facts-0'>Calories</td><td class='ni-facts-1'>150kj/359Kcal</td><td class='ni-facts-2'>1187kj/283Kcal</td><td class='ni-facts-3'>12%</td></tr><tr> <td class='ni-facts-0'>Calories</td><td class='ni-facts-1'>150kj/359Kcal</td><td class='ni-facts-2'>1187kj/283Kcal</td><td class='ni-facts-3'>12%</td></tr><tr> <td class='ni-facts-0'>Calories</td><td class='ni-facts-1'>150kj/359Kcal</td><td class='ni-facts-2'>1187kj/283Kcal</td><td class='ni-facts-3'>12%</td></tr><tr> <td class='ni-facts-0'>Calories</td><td class='ni-facts-1'>150kj/359Kcal</td><td class='ni-facts-2'>1187kj/283Kcal</td><td class='ni-facts-3'>12%</td></tr><tr> <td class='ni-facts-0'>Calories</td><td class='ni-facts-1'>150kj/359Kcal</td><td class='ni-facts-2'>1187kj/283Kcal</td><td class='ni-facts-3'>12%</td></tr><tr> <td class='ni-facts-0'>Calories</td><td class='ni-facts-1'>150kj/359Kcal</td><td class='ni-facts-2'>1187kj/283Kcal</td><td class='ni-facts-3'>12%</td></tr><tr> <td class='ni-facts-0'>Calories</td><td class='ni-facts-1'>150kj/359Kcal</td><td class='ni-facts-2'>1187kj/283Kcal</td><td class='ni-facts-3'>12%</td></tr><tr> <td class='ni-facts-0'>Calories</td><td class='ni-facts-1'>150kj/359Kcal</td><td class='ni-facts-2'>1187kj/283Kcal</td><td class='ni-facts-3'>12%</td></tr><tr> <td class='ni-facts-0'>Calories</td><td class='ni-facts-1'>150kj/359Kcal</td><td class='ni-facts-2'>1187kj/283Kcal</td><td class='ni-facts-3'>12%</td></tr><tr> <td class='ni-facts-0'>Calories</td><td class='ni-facts-1'>150kj/359Kcal</td><td class='ni-facts-2'>1187kj/283Kcal</td><td class='ni-facts-3'>12%</td></tr><tr> <td class='ni-facts-0'>Calories</td><td class='ni-facts-1'>150kj/359Kcal</td><td class='ni-facts-2'>1187kj/283Kcal</td><td class='ni-facts-3'>12%</td></tr><tr> <td class='ni-facts-0'>Calories</td><td class='ni-facts-1'>150kj/359Kcal</td><td class='ni-facts-2'>1187kj/283Kcal</td><td class='ni-facts-3'>12%</td></tr><tr> <td class='ni-facts-0'>Calories</td><td class='ni-facts-1'>150kj/359Kcal</td><td class='ni-facts-2'>1187kj/283Kcal</td><td class='ni-facts-3'>12%</td></tr></tbody></table> </div><span class='c-copyright-label'>* of reference intake of an average adult</span> </div></div><div class='c-product-listing__info-item c-product-listing__info-item-1' id='producInfoIngredients-1'> <div class='c-product-listing__info-item__wrap'> <div class='c-product-listing__ni-itemWrap'> <h3 class='o-text__heading-3' itemprop='name'>Ingredients1 (Ingredients1)</h3> <div class='c-product-listing__desc o-desc' itemprop='description'>Ingredients description</div></div><div class='c-product-listing__ni-itemWrap'> <h3 class='o-text__heading-3' itemprop='name'>Ingredients1 (Ingredients)</h3> <div class='c-product-listing__desc o-desc' itemprop='description'>Ingredients description</div></div></div></div></div></div></div><div class='c-product-listing__quick-close'></div></div></div></div></div></div><div itemprop='itemListElement' itemscope='' itemtype='http://schema.org/Product' class='js-product-listing__list-item' data-list-position=''><div class='col-sm-4 c-product-listing__product-wrap short' data-anim='product' style='opacity: 1;'> <div class='c-product-listing__product-item'> <a class='c-product-listing__image-wrap' href='product-detail.html' title='Real Mayonnaise' data-ct-action='productClick' data-product-id='8711700728607' data-product-name='Pure &amp; Sensitive Beauty Bar' data-product-category='Skin Cleansing' data-product-variant='Pure &amp; Sensitive Beauty Bar' data-product-quantity='2x100g' data-product-price='1.84' data-product-brand='white-label' itemprop='url'> <picture><source srcset='images-cms/product-listing/real-mayonnaise.ulenscale.320x320.jpg' media='screen and (min-width: 1200px)'><source srcset='images-cms/product-listing/real-mayonnaise.ulenscale.320x320.jpg, images-cms/product-listing/real-mayonnaise.ulenscale.320x320.jpg 2x' media='screen and (min-width: 992px) and (max-width: 1199px)'><source srcset='images-cms/product-listing/real-mayonnaise.ulenscale.310x310.jpg, images-cms/product-listing/real-mayonnaise.ulenscale.620x620.jpg 2x' media='screen and (min-width: 768px) and (max-width: 991px)'><source srcset='images-cms/product-listing/real-mayonnaise.ulenscale.220x220.jpg, images-cms/product-listing/real-mayonnaise.ulenscale.440x440.jpg 2x' media='screen and (min-width: 480px) and (max-width: 767px)'><img class='sddf' src='images-cms/product-listing/real-mayonnaise.ulenscale.220x220.jpg' title='' alt=''></picture> <meta itemprop='image' content=''> </a> <a class='c-product-listing__title u-center o-text__tight' href='product-detail.html' title='Real Mayonnaise' data-ct-action='productClick' data-product-id='8711700728607' data-product-name='Pure &amp; Sensitive Beauty Bar' data-product-category='Skin Cleansing' data-product-variant='Pure &amp; Sensitive Beauty Bar' data-product-quantity='2x100g' data-product-price='1.84' data-product-brand='white-label'> <span itemprop='name'>Real Mayonnaise</span> </a> <div class='o-rating c-inline-review'> <div class='o-rating c-inline-review'> <div class='rr-widget-container rr-container rr-star-percentage product_17935 inlineSummaryDiv' data-summary-template='inline' data-entity-type='product' dataidentifier-value='8711700927598' data-identifier-type='EAN' data-unique-id='17935' title='Real Mayonnaise' data-dividentifier-id='17935' data-dividentifier-type=''><div class='aggregateRating'><div class='agRatingDeSelect'><img title='review' alt=' review ' src='http://eu-stage.kritique.io/Widget/resources/images/rating-disabled.png'></div><div class='agRatingSelect' style='width:0px;'><img title=' review ' alt=' review ' src='http://eu-stage.kritique.io/Widget/resources/images/rating-selected.png'></div></div><span class='aggRtng'><img id='rrRatingLoader' title='' alt='' src='//apac.kritique.io/widget/resources/images/loader.gif'></span><span class='tRtng'> </span><a href='javascript:void(0)' title='Write a Review' class='wRtng'></a></div></div></div></div><div class='c-product-overview__awards'><div class='c-product-awards' data-index='0'> <p class='c-award-img'><a href='' class='js-award-img'> <img src='' alt='' title=''> </a> <span class='c-award-name'></span> <span> <a class='btn btn-primary js-awardBtn' href=''></a> </span> </p><p class='c-award-date-range'> - </p></div></div><div class='c-product-listing__product-wrap-arrow'></div></div><div class='c-product-listing__quick-panel-wrap'> <div class='c-product-listing__quick-panel'> <div class='container'> <div class='row'> <div class='c-product-listing__quick-cta-panel'> <div class='col-sm-5 col-sm-offset-1 c-product-listing__bottom'> <a class='c-product-listing__image-wrap' href='product-detail.html'> <picture><source srcset='images-cms/product-listing/real-mayonnaise.ulenscale.320x320.jpg' media='screen and (min-width: 1200px)'><source srcset='images-cms/product-listing/real-mayonnaise.ulenscale.320x320.jpg, images-cms/product-listing/real-mayonnaise.ulenscale.320x320.jpg 2x' media='screen and (min-width: 992px) and (max-width: 1199px)'><source srcset='images-cms/product-listing/real-mayonnaise.ulenscale.310x310.jpg, images-cms/product-listing/real-mayonnaise.ulenscale.620x620.jpg 2x' media='screen and (min-width: 768px) and (max-width: 991px)'><source srcset='images-cms/product-listing/real-mayonnaise.ulenscale.220x220.jpg, images-cms/product-listing/real-mayonnaise.ulenscale.440x440.jpg 2x' media='screen and (min-width: 480px) and (max-width: 767px)'><img class='sddf' src='images-cms/product-listing/real-mayonnaise.ulenscale.220x220.jpg' title='' alt=''></picture> </a> </div><div class='col-sm-5 c-product-listing__middle'> <div class=''> <h3 class='o-text__heading-2 hidden-xs' itemprop='name'>Real Mayonnaise</h3> <div class='c-product-listing__description o-text__tight' itemprop='description'></div><div class='o-rating c-inline-review'> <div class='rr-widget-container rr-container rr-star-percentage product_17935 inlineSummaryDiv' data-summary-template='inline' data-entity-type='product' dataidentifier-value='8711700927598' data-identifier-type='EAN' data-unique-id='17935' title='Real Mayonnaise' data-dividentifier-id='17935' data-dividentifier-type=''><div class='aggregateRating'><div class='agRatingDeSelect'><img title='review' alt=' review ' src='http://eu-stage.kritique.io/Widget/resources/images/rating-disabled.png'></div><div class='agRatingSelect' style='width:0px;'><img title=' review ' alt=' review ' src='http://eu-stage.kritique.io/Widget/resources/images/rating-selected.png'></div></div><span class='aggRtng'><img id='rrRatingLoader' title='' alt='' src='//apac.kritique.io/widget/resources/images/loader.gif'></span><span class='tRtng'> </span><a href='javascript:void(0)' title='Write a Review' class='wRtng'></a></div></div><div class=''> <div class='c-dropdown'> <div class='c-product-listing__price o-text__heading-4' itemprop='offers' itemscope='' itemtype='http://schema.org/Offer'> <span class='o-text__body'>250mL</span> <b itemprop='price'>£2.77</b> <span class='o-text__body'> RRP</span> </div></div><a class='o-btn o-btn--primary c-product-listing__link o-text__body' data-ct-action='productClick' title='Real Mayonnaise' href='product-detail.html' data-anim='button' data-anim-effect='ripple1' data-info='true' data-product-id='8711700728607' data-product-name='Pure &amp; Sensitive Beauty Bar' data-product-category='Skin Cleansing' data-product-variant='Pure &amp; Sensitive Beauty Bar' data-product-quantity='2x100g' data-product-price='1.84' data-product-brand='white-label'></a> </div></div></div></div><div class='js-btn__info-panel'> <div class='c-product-listing__info'> <div class='container c-product-listing__info-list'> <div class='c-product-listing__top-new'> <h2 class='o-text__heading-2 test'> Mini Double Caramel1 &amp; Double Chocolate1 </h2> </div><div class='c-product-listing__info--nav'> <ul class='c-product-listing__info--nav__list'> <li class='c-product-listing__info--nav__item'> <a class='c-product-listing__info--nav__link c-product-listing__info--nav__link-1' href='#producInfoAllergy-1'> Allergy1 </a> </li><li class='c-product-listing__info--nav__item'> <a class='c-product-listing__info--nav__link c-product-listing__info--nav__link-1' href='#producInfoNutrition-1'> Nutritions1 </a> </li><li class='c-product-listing__info--nav__item'> <a class='c-product-listing__info--nav__link c-product-listing__info--nav__link-1' href='#producInfoIngredients-1'> Ingredients1 </a> </li></ul> </div><div class='c-product-listing__info-item c-product-listing__info-item-1' id='producInfoAllergy-1'> <div class='c-product-listing__ni-itemWrap'> <h3 class='o-text__heading-3' itemprop='text'>Allergy1 (Lorem Ipsum 9)</h3> <div class='c-product-listing__desc o-desc' itemprop='description'> allergy description </div></div><div class='c-product-listing__ni-itemWrap'> <h3 class='o-text__heading-3' itemprop='text'>Allergy1 (Allergy)</h3> <div class='c-product-listing__desc o-desc' itemprop='description'> allergy description </div></div></div><div class='c-product-listing__info-item c-product-listing__info-item-1' id='producInfoNutrition-1'> <div class='c-product-listing__info-item__wrap'> <h3 class='o-text__heading-3' itemprop='name'>Nutritions1 (Nutrition Facts)</h3> <div class='c-product-listing__info__desc o-desc' itemprop='description'> </div><div class='c-product-listing__info__desc o-desc' itemprop='description'> </div><div class='c-product-listing__info-item__ni'> <table width='100%' class='c-product-info__table'> <tbody><tr> <th class='ni-facts-head-0'></th> <th class='ni-facts-head-1'>Per 100 g</th> <th class='ni-facts-head-2'>Per 100 ml</th> <th class='ni-facts-head-3'>Per *</th> </tr><tr> <td class='ni-facts-0'>Calories</td><td class='ni-facts-1'>150kj/359Kcal</td><td class='ni-facts-2'>1187kj/283Kcal</td><td class='ni-facts-3'>12%</td></tr><tr> <td class='ni-facts-0'>Calories</td><td class='ni-facts-1'>150kj/359Kcal</td><td class='ni-facts-2'>1187kj/283Kcal</td><td class='ni-facts-3'>12%</td></tr><tr> <td class='ni-facts-0'>Calories</td><td class='ni-facts-1'>150kj/359Kcal</td><td class='ni-facts-2'>1187kj/283Kcal</td><td class='ni-facts-3'>12%</td></tr><tr> <td class='ni-facts-0'>Calories</td><td class='ni-facts-1'>150kj/359Kcal</td><td class='ni-facts-2'>1187kj/283Kcal</td><td class='ni-facts-3'>12%</td></tr><tr> <td class='ni-facts-0'>Calories</td><td class='ni-facts-1'>150kj/359Kcal</td><td class='ni-facts-2'>1187kj/283Kcal</td><td class='ni-facts-3'>12%</td></tr><tr> <td class='ni-facts-0'>Calories</td><td class='ni-facts-1'>150kj/359Kcal</td><td class='ni-facts-2'>1187kj/283Kcal</td><td class='ni-facts-3'>12%</td></tr><tr> <td class='ni-facts-0'>Calories</td><td class='ni-facts-1'>150kj/359Kcal</td><td class='ni-facts-2'>1187kj/283Kcal</td><td class='ni-facts-3'>12%</td></tr><tr> <td class='ni-facts-0'>Calories</td><td class='ni-facts-1'>150kj/359Kcal</td><td class='ni-facts-2'>1187kj/283Kcal</td><td class='ni-facts-3'>12%</td></tr><tr> <td class='ni-facts-0'>Calories</td><td class='ni-facts-1'>150kj/359Kcal</td><td class='ni-facts-2'>1187kj/283Kcal</td><td class='ni-facts-3'>12%</td></tr><tr> <td class='ni-facts-0'>Calories</td><td class='ni-facts-1'>150kj/359Kcal</td><td class='ni-facts-2'>1187kj/283Kcal</td><td class='ni-facts-3'>12%</td></tr><tr> <td class='ni-facts-0'>Calories</td><td class='ni-facts-1'>150kj/359Kcal</td><td class='ni-facts-2'>1187kj/283Kcal</td><td class='ni-facts-3'>12%</td></tr><tr> <td class='ni-facts-0'>Calories</td><td class='ni-facts-1'>150kj/359Kcal</td><td class='ni-facts-2'>1187kj/283Kcal</td><td class='ni-facts-3'>12%</td></tr><tr> <td class='ni-facts-0'>Calories</td><td class='ni-facts-1'>150kj/359Kcal</td><td class='ni-facts-2'>1187kj/283Kcal</td><td class='ni-facts-3'>12%</td></tr></tbody></table> </div><span class='c-copyright-label'>* of reference intake of an average adult</span> </div></div><div class='c-product-listing__info-item c-product-listing__info-item-1' id='producInfoIngredients-1'> <div class='c-product-listing__info-item__wrap'> <div class='c-product-listing__ni-itemWrap'> <h3 class='o-text__heading-3' itemprop='name'>Ingredients1 (Ingredients1)</h3> <div class='c-product-listing__desc o-desc' itemprop='description'>Ingredients description</div></div><div class='c-product-listing__ni-itemWrap'> <h3 class='o-text__heading-3' itemprop='name'>Ingredients1 (Ingredients)</h3> <div class='c-product-listing__desc o-desc' itemprop='description'>Ingredients description</div></div></div></div></div></div></div><div class='c-product-listing__quick-close'></div></div></div></div></div></div><div itemprop='itemListElement' itemscope='' itemtype='http://schema.org/Product' class='js-product-listing__list-item' data-list-position=''><div class='col-sm-4 c-product-listing__product-wrap short' data-anim='product' style='opacity: 1;'> <div class='c-product-listing__product-item'> <a class='c-product-listing__image-wrap' href='product-detail.html' title='Lighter than Light Mayonnaise' data-ct-action='productClick' data-product-id='8711700728607' data-product-name='Pure &amp; Sensitive Beauty Bar' data-product-category='Skin Cleansing' data-product-variant='Pure &amp; Sensitive Beauty Bar' data-product-quantity='2x100g' data-product-price='1.84' data-product-brand='white-label' itemprop='url'> <picture><source srcset='images-cms/product-listing/lighter-than-light-mayonnaise.ulenscale.320x320.jpg' media='screen and (min-width: 1200px)'><source srcset='images-cms/product-listing/lighter-than-light-mayonnaise.ulenscale.320x320.jpg, images-cms/product-listing/lighter-than-light-mayonnaise.ulenscale.320x320.jpg 2x' media='screen and (min-width: 992px) and (max-width: 1199px)'><source srcset='images-cms/product-listing/lighter-than-light-mayonnaise.ulenscale.310x310.jpg, images-cms/product-listing/lighter-than-light-mayonnaise.ulenscale.620x620.jpg 2x' media='screen and (min-width: 768px) and (max-width: 991px)'><source srcset='images-cms/product-listing/lighter-than-light-mayonnaise.ulenscale.220x220.jpg, images-cms/product-listing/lighter-than-light-mayonnaise.ulenscale.440x440.jpg 2x' media='screen and (min-width: 480px) and (max-width: 767px)'><img class='sddf' src='images-cms/product-listing/lighter-than-light-mayonnaise.ulenscale.220x220.jpg' title='' alt=''></picture> <meta itemprop='image' content=''> </a> <a class='c-product-listing__title u-center o-text__tight' href='product-detail.html' title='Lighter than Light Mayonnaise' data-ct-action='productClick' data-product-id='8711700728607' data-product-name='Pure &amp; Sensitive Beauty Bar' data-product-category='Skin Cleansing' data-product-variant='Pure &amp; Sensitive Beauty Bar' data-product-quantity='2x100g' data-product-price='1.84' data-product-brand='white-label'> <span itemprop='name'>Lighter than Light Mayonnaise</span> </a> <div class='o-rating c-inline-review'> <div class='o-rating c-inline-review'> <div class='rr-widget-container rr-container rr-star-percentage product_17935 inlineSummaryDiv' data-summary-template='inline' data-entity-type='product' dataidentifier-value='8711700927598' data-identifier-type='EAN' data-unique-id='17935' title='Lighter than Light Mayonnaise' data-dividentifier-id='17935' data-dividentifier-type=''><div class='aggregateRating'><div class='agRatingDeSelect'><img title='review' alt=' review ' src='http://eu-stage.kritique.io/Widget/resources/images/rating-disabled.png'></div><div class='agRatingSelect' style='width:0px;'><img title=' review ' alt=' review ' src='http://eu-stage.kritique.io/Widget/resources/images/rating-selected.png'></div></div><span class='aggRtng'><img id='rrRatingLoader' title='' alt='' src='//apac.kritique.io/widget/resources/images/loader.gif'></span><span class='tRtng'> </span><a href='javascript:void(0)' title='Write a Review' class='wRtng'></a></div></div></div></div><div class='c-product-overview__awards'><div class='c-product-awards' data-index='0'> <p class='c-award-img'><a href='' class='js-award-img'> <img src='' alt='' title=''> </a> <span class='c-award-name'></span> <span> <a class='btn btn-primary js-awardBtn' href=''></a> </span> </p><p class='c-award-date-range'> - </p></div></div><div class='c-product-listing__product-wrap-arrow'></div></div><div class='c-product-listing__quick-panel-wrap'> <div class='c-product-listing__quick-panel'> <div class='container'> <div class='row'> <div class='c-product-listing__quick-cta-panel'> <div class='col-sm-5 col-sm-offset-1 c-product-listing__bottom'> <a class='c-product-listing__image-wrap' href='product-detail.html'> <picture><source srcset='images-cms/product-listing/lighter-than-light-mayonnaise.ulenscale.320x320.jpg' media='screen and (min-width: 1200px)'><source srcset='images-cms/product-listing/lighter-than-light-mayonnaise.ulenscale.320x320.jpg, images-cms/product-listing/lighter-than-light-mayonnaise.ulenscale.320x320.jpg 2x' media='screen and (min-width: 992px) and (max-width: 1199px)'><source srcset='images-cms/product-listing/lighter-than-light-mayonnaise.ulenscale.310x310.jpg, images-cms/product-listing/lighter-than-light-mayonnaise.ulenscale.620x620.jpg 2x' media='screen and (min-width: 768px) and (max-width: 991px)'><source srcset='images-cms/product-listing/lighter-than-light-mayonnaise.ulenscale.220x220.jpg, images-cms/product-listing/lighter-than-light-mayonnaise.ulenscale.440x440.jpg 2x' media='screen and (min-width: 480px) and (max-width: 767px)'><img class='sddf' src='images-cms/product-listing/lighter-than-light-mayonnaise.ulenscale.220x220.jpg' title='' alt=''></picture> </a> </div><div class='col-sm-5 c-product-listing__middle'> <div class=''> <h3 class='o-text__heading-2 hidden-xs' itemprop='name'>Lighter than Light Mayonnaise</h3> <div class='c-product-listing__description o-text__tight' itemprop='description'></div><div class='o-rating c-inline-review'> <div class='rr-widget-container rr-container rr-star-percentage product_17935 inlineSummaryDiv' data-summary-template='inline' data-entity-type='product' dataidentifier-value='8711700927598' data-identifier-type='EAN' data-unique-id='17935' title='Lighter than Light Mayonnaise' data-dividentifier-id='17935' data-dividentifier-type=''><div class='aggregateRating'><div class='agRatingDeSelect'><img title='review' alt=' review ' src='http://eu-stage.kritique.io/Widget/resources/images/rating-disabled.png'></div><div class='agRatingSelect' style='width:0px;'><img title=' review ' alt=' review ' src='http://eu-stage.kritique.io/Widget/resources/images/rating-selected.png'></div></div><span class='aggRtng'><img id='rrRatingLoader' title='' alt='' src='//apac.kritique.io/widget/resources/images/loader.gif'></span><span class='tRtng'> </span><a href='javascript:void(0)' title='Write a Review' class='wRtng'></a></div></div><div class=''> <div class='c-dropdown'> <div class='c-product-listing__price o-text__heading-4' itemprop='offers' itemscope='' itemtype='http://schema.org/Offer'> <span class='o-text__body'>250mL</span> <b itemprop='price'>£2.77</b> <span class='o-text__body'> RRP</span> </div></div><a class='o-btn o-btn--primary c-product-listing__link o-text__body' data-ct-action='productClick' title='Lighter than Light Mayonnaise' href='product-detail.html' data-anim='button' data-anim-effect='ripple1' data-info='true' data-product-id='8711700728607' data-product-name='Pure &amp; Sensitive Beauty Bar' data-product-category='Skin Cleansing' data-product-variant='Pure &amp; Sensitive Beauty Bar' data-product-quantity='2x100g' data-product-price='1.84' data-product-brand='white-label'></a> </div></div></div></div><div class='js-btn__info-panel'> <div class='c-product-listing__info'> <div class='container c-product-listing__info-list'> <div class='c-product-listing__top-new'> <h2 class='o-text__heading-2 test'> Mini Double Caramel1 &amp; Double Chocolate1 </h2> </div><div class='c-product-listing__info--nav'> <ul class='c-product-listing__info--nav__list'> <li class='c-product-listing__info--nav__item'> <a class='c-product-listing__info--nav__link c-product-listing__info--nav__link-1' href='#producInfoAllergy-1'> Allergy1 </a> </li><li class='c-product-listing__info--nav__item'> <a class='c-product-listing__info--nav__link c-product-listing__info--nav__link-1' href='#producInfoNutrition-1'> Nutritions1 </a> </li><li class='c-product-listing__info--nav__item'> <a class='c-product-listing__info--nav__link c-product-listing__info--nav__link-1' href='#producInfoIngredients-1'> Ingredients1 </a> </li></ul> </div><div class='c-product-listing__info-item c-product-listing__info-item-1' id='producInfoAllergy-1'> <div class='c-product-listing__ni-itemWrap'> <h3 class='o-text__heading-3' itemprop='text'>Allergy1 (Lorem Ipsum 9)</h3> <div class='c-product-listing__desc o-desc' itemprop='description'> allergy description </div></div><div class='c-product-listing__ni-itemWrap'> <h3 class='o-text__heading-3' itemprop='text'>Allergy1 (Allergy)</h3> <div class='c-product-listing__desc o-desc' itemprop='description'> allergy description </div></div></div><div class='c-product-listing__info-item c-product-listing__info-item-1' id='producInfoNutrition-1'> <div class='c-product-listing__info-item__wrap'> <h3 class='o-text__heading-3' itemprop='name'>Nutritions1 (Nutrition Facts)</h3> <div class='c-product-listing__info__desc o-desc' itemprop='description'> </div><div class='c-product-listing__info__desc o-desc' itemprop='description'> </div><div class='c-product-listing__info-item__ni'> <table width='100%' class='c-product-info__table'> <tbody><tr> <th class='ni-facts-head-0'></th> <th class='ni-facts-head-1'>Per 100 g</th> <th class='ni-facts-head-2'>Per 100 ml</th> <th class='ni-facts-head-3'>Per *</th> </tr><tr> <td class='ni-facts-0'>Calories</td><td class='ni-facts-1'>150kj/359Kcal</td><td class='ni-facts-2'>1187kj/283Kcal</td><td class='ni-facts-3'>12%</td></tr><tr> <td class='ni-facts-0'>Calories</td><td class='ni-facts-1'>150kj/359Kcal</td><td class='ni-facts-2'>1187kj/283Kcal</td><td class='ni-facts-3'>12%</td></tr><tr> <td class='ni-facts-0'>Calories</td><td class='ni-facts-1'>150kj/359Kcal</td><td class='ni-facts-2'>1187kj/283Kcal</td><td class='ni-facts-3'>12%</td></tr><tr> <td class='ni-facts-0'>Calories</td><td class='ni-facts-1'>150kj/359Kcal</td><td class='ni-facts-2'>1187kj/283Kcal</td><td class='ni-facts-3'>12%</td></tr><tr> <td class='ni-facts-0'>Calories</td><td class='ni-facts-1'>150kj/359Kcal</td><td class='ni-facts-2'>1187kj/283Kcal</td><td class='ni-facts-3'>12%</td></tr><tr> <td class='ni-facts-0'>Calories</td><td class='ni-facts-1'>150kj/359Kcal</td><td class='ni-facts-2'>1187kj/283Kcal</td><td class='ni-facts-3'>12%</td></tr><tr> <td class='ni-facts-0'>Calories</td><td class='ni-facts-1'>150kj/359Kcal</td><td class='ni-facts-2'>1187kj/283Kcal</td><td class='ni-facts-3'>12%</td></tr><tr> <td class='ni-facts-0'>Calories</td><td class='ni-facts-1'>150kj/359Kcal</td><td class='ni-facts-2'>1187kj/283Kcal</td><td class='ni-facts-3'>12%</td></tr><tr> <td class='ni-facts-0'>Calories</td><td class='ni-facts-1'>150kj/359Kcal</td><td class='ni-facts-2'>1187kj/283Kcal</td><td class='ni-facts-3'>12%</td></tr><tr> <td class='ni-facts-0'>Calories</td><td class='ni-facts-1'>150kj/359Kcal</td><td class='ni-facts-2'>1187kj/283Kcal</td><td class='ni-facts-3'>12%</td></tr><tr> <td class='ni-facts-0'>Calories</td><td class='ni-facts-1'>150kj/359Kcal</td><td class='ni-facts-2'>1187kj/283Kcal</td><td class='ni-facts-3'>12%</td></tr><tr> <td class='ni-facts-0'>Calories</td><td class='ni-facts-1'>150kj/359Kcal</td><td class='ni-facts-2'>1187kj/283Kcal</td><td class='ni-facts-3'>12%</td></tr><tr> <td class='ni-facts-0'>Calories</td><td class='ni-facts-1'>150kj/359Kcal</td><td class='ni-facts-2'>1187kj/283Kcal</td><td class='ni-facts-3'>12%</td></tr></tbody></table> </div><span class='c-copyright-label'>* of reference intake of an average adult</span> </div></div><div class='c-product-listing__info-item c-product-listing__info-item-1' id='producInfoIngredients-1'> <div class='c-product-listing__info-item__wrap'> <div class='c-product-listing__ni-itemWrap'> <h3 class='o-text__heading-3' itemprop='name'>Ingredients1 (Ingredients1)</h3> <div class='c-product-listing__desc o-desc' itemprop='description'>Ingredients description</div></div><div class='c-product-listing__ni-itemWrap'> <h3 class='o-text__heading-3' itemprop='name'>Ingredients1 (Ingredients)</h3> <div class='c-product-listing__desc o-desc' itemprop='description'>Ingredients description</div></div></div></div></div></div></div><div class='c-product-listing__quick-close'></div></div></div></div></div></div><div itemprop='itemListElement' itemscope='' itemtype='http://schema.org/Product' class='js-product-listing__list-item' data-list-position=''><div class='col-sm-4 c-product-listing__product-wrap short' data-anim='product' style='opacity: 1;'> <div class='c-product-listing__product-item'> <a class='c-product-listing__image-wrap' href='product-detail.html' title='Mayonnaise with Olive Oil' data-ct-action='productClick' data-product-id='8711700728607' data-product-name='Pure &amp; Sensitive Beauty Bar' data-product-category='Skin Cleansing' data-product-variant='Pure &amp; Sensitive Beauty Bar' data-product-quantity='2x100g' data-product-price='1.84' data-product-brand='white-label' itemprop='url'> <picture><source srcset='images-cms/product-listing/mayonnaise-with-olive-oil.ulenscale.320x320.jpg' media='screen and (min-width: 1200px)'><source srcset='images-cms/product-listing/mayonnaise-with-olive-oil.ulenscale.320x320.jpg, images-cms/product-listing/mayonnaise-with-olive-oil.ulenscale.320x320.jpg 2x' media='screen and (min-width: 992px) and (max-width: 1199px)'><source srcset='images-cms/product-listing/mayonnaise-with-olive-oil.ulenscale.310x310.jpg, images-cms/product-listing/mayonnaise-with-olive-oil.ulenscale.620x620.jpg 2x' media='screen and (min-width: 768px) and (max-width: 991px)'><source srcset='images-cms/product-listing/mayonnaise-with-olive-oil.ulenscale.220x220.jpg, images-cms/product-listing/mayonnaise-with-olive-oil.ulenscale.440x440.jpg 2x' media='screen and (min-width: 480px) and (max-width: 767px)'><img class='sddf' src='images-cms/product-listing/mayonnaise-with-olive-oil.ulenscale.220x220.jpg' title='' alt=''></picture> <meta itemprop='image' content=''> </a> <a class='c-product-listing__title u-center o-text__tight' href='product-detail.html' title='Mayonnaise with Olive Oil' data-ct-action='productClick' data-product-id='8711700728607' data-product-name='Pure &amp; Sensitive Beauty Bar' data-product-category='Skin Cleansing' data-product-variant='Pure &amp; Sensitive Beauty Bar' data-product-quantity='2x100g' data-product-price='1.84' data-product-brand='white-label'> <span itemprop='name'>Mayonnaise with Olive Oil</span> </a> <div class='o-rating c-inline-review'> <div class='o-rating c-inline-review'> <div class='rr-widget-container rr-container rr-star-percentage product_17935 inlineSummaryDiv' data-summary-template='inline' data-entity-type='product' dataidentifier-value='8711700927598' data-identifier-type='EAN' data-unique-id='17935' title='Mayonnaise with Olive Oil' data-dividentifier-id='17935' data-dividentifier-type=''><div class='aggregateRating'><div class='agRatingDeSelect'><img title='review' alt=' review ' src='http://eu-stage.kritique.io/Widget/resources/images/rating-disabled.png'></div><div class='agRatingSelect' style='width:0px;'><img title=' review ' alt=' review ' src='http://eu-stage.kritique.io/Widget/resources/images/rating-selected.png'></div></div><span class='aggRtng'><img id='rrRatingLoader' title='' alt='' src='//apac.kritique.io/widget/resources/images/loader.gif'></span><span class='tRtng'> </span><a href='javascript:void(0)' title='Write a Review' class='wRtng'></a></div></div></div></div><div class='c-product-overview__awards'><div class='c-product-awards' data-index='0'> <p class='c-award-img'><a href='' class='js-award-img'> <img src='' alt='' title=''> </a> <span class='c-award-name'></span> <span> <a class='btn btn-primary js-awardBtn' href=''></a> </span> </p><p class='c-award-date-range'> - </p></div></div><div class='c-product-listing__product-wrap-arrow'></div></div><div class='c-product-listing__quick-panel-wrap'> <div class='c-product-listing__quick-panel'> <div class='container'> <div class='row'> <div class='c-product-listing__quick-cta-panel'> <div class='col-sm-5 col-sm-offset-1 c-product-listing__bottom'> <a class='c-product-listing__image-wrap' href='product-detail.html'> <picture><source srcset='images-cms/product-listing/mayonnaise-with-olive-oil.ulenscale.320x320.jpg' media='screen and (min-width: 1200px)'><source srcset='images-cms/product-listing/mayonnaise-with-olive-oil.ulenscale.320x320.jpg, images-cms/product-listing/mayonnaise-with-olive-oil.ulenscale.320x320.jpg 2x' media='screen and (min-width: 992px) and (max-width: 1199px)'><source srcset='images-cms/product-listing/mayonnaise-with-olive-oil.ulenscale.310x310.jpg, images-cms/product-listing/mayonnaise-with-olive-oil.ulenscale.620x620.jpg 2x' media='screen and (min-width: 768px) and (max-width: 991px)'><source srcset='images-cms/product-listing/mayonnaise-with-olive-oil.ulenscale.220x220.jpg, images-cms/product-listing/mayonnaise-with-olive-oil.ulenscale.440x440.jpg 2x' media='screen and (min-width: 480px) and (max-width: 767px)'><img class='sddf' src='images-cms/product-listing/mayonnaise-with-olive-oil.ulenscale.220x220.jpg' title='' alt=''></picture> </a> </div><div class='col-sm-5 c-product-listing__middle'> <div class=''> <h3 class='o-text__heading-2 hidden-xs' itemprop='name'>Mayonnaise with Olive Oil</h3> <div class='c-product-listing__description o-text__tight' itemprop='description'></div><div class='o-rating c-inline-review'> <div class='rr-widget-container rr-container rr-star-percentage product_17935 inlineSummaryDiv' data-summary-template='inline' data-entity-type='product' dataidentifier-value='8711700927598' data-identifier-type='EAN' data-unique-id='17935' title='Mayonnaise with Olive Oil' data-dividentifier-id='17935' data-dividentifier-type=''><div class='aggregateRating'><div class='agRatingDeSelect'><img title='review' alt=' review ' src='http://eu-stage.kritique.io/Widget/resources/images/rating-disabled.png'></div><div class='agRatingSelect' style='width:0px;'><img title=' review ' alt=' review ' src='http://eu-stage.kritique.io/Widget/resources/images/rating-selected.png'></div></div><span class='aggRtng'><img id='rrRatingLoader' title='' alt='' src='//apac.kritique.io/widget/resources/images/loader.gif'></span><span class='tRtng'> </span><a href='javascript:void(0)' title='Write a Review' class='wRtng'></a></div></div><div class=''> <div class='c-dropdown'> <div class='c-product-listing__price o-text__heading-4' itemprop='offers' itemscope='' itemtype='http://schema.org/Offer'> <span class='o-text__body'>250mL</span> <b itemprop='price'>£2.77</b> <span class='o-text__body'> RRP</span> </div></div><a class='o-btn o-btn--primary c-product-listing__link o-text__body' data-ct-action='productClick' title='Mayonnaise with Olive Oil' href='product-detail.html' data-anim='button' data-anim-effect='ripple1' data-info='true' data-product-id='8711700728607' data-product-name='Pure &amp; Sensitive Beauty Bar' data-product-category='Skin Cleansing' data-product-variant='Pure &amp; Sensitive Beauty Bar' data-product-quantity='2x100g' data-product-price='1.84' data-product-brand='white-label'></a> </div></div></div></div><div class='js-btn__info-panel'> <div class='c-product-listing__info'> <div class='container c-product-listing__info-list'> <div class='c-product-listing__top-new'> <h2 class='o-text__heading-2 test'> Mini Double Caramel1 &amp; Double Chocolate1 </h2> </div><div class='c-product-listing__info--nav'> <ul class='c-product-listing__info--nav__list'> <li class='c-product-listing__info--nav__item'> <a class='c-product-listing__info--nav__link c-product-listing__info--nav__link-1' href='#producInfoAllergy-1'> Allergy1 </a> </li><li class='c-product-listing__info--nav__item'> <a class='c-product-listing__info--nav__link c-product-listing__info--nav__link-1' href='#producInfoNutrition-1'> Nutritions1 </a> </li><li class='c-product-listing__info--nav__item'> <a class='c-product-listing__info--nav__link c-product-listing__info--nav__link-1' href='#producInfoIngredients-1'> Ingredients1 </a> </li></ul> </div><div class='c-product-listing__info-item c-product-listing__info-item-1' id='producInfoAllergy-1'> <div class='c-product-listing__ni-itemWrap'> <h3 class='o-text__heading-3' itemprop='text'>Allergy1 (Lorem Ipsum 9)</h3> <div class='c-product-listing__desc o-desc' itemprop='description'> allergy description </div></div><div class='c-product-listing__ni-itemWrap'> <h3 class='o-text__heading-3' itemprop='text'>Allergy1 (Allergy)</h3> <div class='c-product-listing__desc o-desc' itemprop='description'> allergy description </div></div></div><div class='c-product-listing__info-item c-product-listing__info-item-1' id='producInfoNutrition-1'> <div class='c-product-listing__info-item__wrap'> <h3 class='o-text__heading-3' itemprop='name'>Nutritions1 (Nutrition Facts)</h3> <div class='c-product-listing__info__desc o-desc' itemprop='description'> </div><div class='c-product-listing__info__desc o-desc' itemprop='description'> </div><div class='c-product-listing__info-item__ni'> <table width='100%' class='c-product-info__table'> <tbody><tr> <th class='ni-facts-head-0'></th> <th class='ni-facts-head-1'>Per 100 g</th> <th class='ni-facts-head-2'>Per 100 ml</th> <th class='ni-facts-head-3'>Per *</th> </tr><tr> <td class='ni-facts-0'>Calories</td><td class='ni-facts-1'>150kj/359Kcal</td><td class='ni-facts-2'>1187kj/283Kcal</td><td class='ni-facts-3'>12%</td></tr><tr> <td class='ni-facts-0'>Calories</td><td class='ni-facts-1'>150kj/359Kcal</td><td class='ni-facts-2'>1187kj/283Kcal</td><td class='ni-facts-3'>12%</td></tr><tr> <td class='ni-facts-0'>Calories</td><td class='ni-facts-1'>150kj/359Kcal</td><td class='ni-facts-2'>1187kj/283Kcal</td><td class='ni-facts-3'>12%</td></tr><tr> <td class='ni-facts-0'>Calories</td><td class='ni-facts-1'>150kj/359Kcal</td><td class='ni-facts-2'>1187kj/283Kcal</td><td class='ni-facts-3'>12%</td></tr><tr> <td class='ni-facts-0'>Calories</td><td class='ni-facts-1'>150kj/359Kcal</td><td class='ni-facts-2'>1187kj/283Kcal</td><td class='ni-facts-3'>12%</td></tr><tr> <td class='ni-facts-0'>Calories</td><td class='ni-facts-1'>150kj/359Kcal</td><td class='ni-facts-2'>1187kj/283Kcal</td><td class='ni-facts-3'>12%</td></tr><tr> <td class='ni-facts-0'>Calories</td><td class='ni-facts-1'>150kj/359Kcal</td><td class='ni-facts-2'>1187kj/283Kcal</td><td class='ni-facts-3'>12%</td></tr><tr> <td class='ni-facts-0'>Calories</td><td class='ni-facts-1'>150kj/359Kcal</td><td class='ni-facts-2'>1187kj/283Kcal</td><td class='ni-facts-3'>12%</td></tr><tr> <td class='ni-facts-0'>Calories</td><td class='ni-facts-1'>150kj/359Kcal</td><td class='ni-facts-2'>1187kj/283Kcal</td><td class='ni-facts-3'>12%</td></tr><tr> <td class='ni-facts-0'>Calories</td><td class='ni-facts-1'>150kj/359Kcal</td><td class='ni-facts-2'>1187kj/283Kcal</td><td class='ni-facts-3'>12%</td></tr><tr> <td class='ni-facts-0'>Calories</td><td class='ni-facts-1'>150kj/359Kcal</td><td class='ni-facts-2'>1187kj/283Kcal</td><td class='ni-facts-3'>12%</td></tr><tr> <td class='ni-facts-0'>Calories</td><td class='ni-facts-1'>150kj/359Kcal</td><td class='ni-facts-2'>1187kj/283Kcal</td><td class='ni-facts-3'>12%</td></tr><tr> <td class='ni-facts-0'>Calories</td><td class='ni-facts-1'>150kj/359Kcal</td><td class='ni-facts-2'>1187kj/283Kcal</td><td class='ni-facts-3'>12%</td></tr></tbody></table> </div><span class='c-copyright-label'>* of reference intake of an average adult</span> </div></div><div class='c-product-listing__info-item c-product-listing__info-item-1' id='producInfoIngredients-1'> <div class='c-product-listing__info-item__wrap'> <div class='c-product-listing__ni-itemWrap'> <h3 class='o-text__heading-3' itemprop='name'>Ingredients1 (Ingredients1)</h3> <div class='c-product-listing__desc o-desc' itemprop='description'>Ingredients description</div></div><div class='c-product-listing__ni-itemWrap'> <h3 class='o-text__heading-3' itemprop='name'>Ingredients1 (Ingredients)</h3> <div class='c-product-listing__desc o-desc' itemprop='description'>Ingredients description</div></div></div></div></div></div></div><div class='c-product-listing__quick-close'></div></div></div></div></div></div><div itemprop='itemListElement' itemscope='' itemtype='http://schema.org/Product' class='js-product-listing__list-item' data-list-position=''><div class='col-sm-4 c-product-listing__product-wrap short' data-anim='product' style='opacity: 1;'> <div class='c-product-listing__product-item'> <a class='c-product-listing__image-wrap' href='product-detail.html' title='Mayonnaise with a Zing of Lemon' data-ct-action='productClick' data-product-id='8711700728607' data-product-name='Pure &amp; Sensitive Beauty Bar' data-product-category='Skin Cleansing' data-product-variant='Pure &amp; Sensitive Beauty Bar' data-product-quantity='2x100g' data-product-price='1.84' data-product-brand='white-label' itemprop='url'> <picture><source srcset='images-cms/product-listing/mayonnaise-with-a-zing-of-lemon.ulenscale.320x320.jpg' media='screen and (min-width: 1200px)'><source srcset='images-cms/product-listing/mayonnaise-with-a-zing-of-lemon.ulenscale.320x320.jpg, images-cms/product-listing/mayonnaise-with-a-zing-of-lemon.ulenscale.320x320.jpg 2x' media='screen and (min-width: 992px) and (max-width: 1199px)'><source srcset='images-cms/product-listing/mayonnaise-with-a-zing-of-lemon.ulenscale.310x310.jpg, images-cms/product-listing/mayonnaise-with-a-zing-of-lemon.ulenscale.620x620.jpg 2x' media='screen and (min-width: 768px) and (max-width: 991px)'><source srcset='images-cms/product-listing/mayonnaise-with-a-zing-of-lemon.ulenscale.220x220.jpg, images-cms/product-listing/mayonnaise-with-a-zing-of-lemon.ulenscale.440x440.jpg 2x' media='screen and (min-width: 480px) and (max-width: 767px)'><img class='sddf' src='images-cms/product-listing/mayonnaise-with-a-zing-of-lemon.ulenscale.220x220.jpg' title='' alt=''></picture> <meta itemprop='image' content=''> </a> <a class='c-product-listing__title u-center o-text__tight' href='product-detail.html' title='Mayonnaise with a Zing of Lemon' data-ct-action='productClick' data-product-id='8711700728607' data-product-name='Pure &amp; Sensitive Beauty Bar' data-product-category='Skin Cleansing' data-product-variant='Pure &amp; Sensitive Beauty Bar' data-product-quantity='2x100g' data-product-price='1.84' data-product-brand='white-label'> <span itemprop='name'>Mayonnaise with a Zing of Lemon</span> </a> <div class='o-rating c-inline-review'> <div class='o-rating c-inline-review'> <div class='rr-widget-container rr-container rr-star-percentage product_17935 inlineSummaryDiv' data-summary-template='inline' data-entity-type='product' dataidentifier-value='8711700927598' data-identifier-type='EAN' data-unique-id='17935' title='Mayonnaise with a Zing of Lemon' data-dividentifier-id='17935' data-dividentifier-type=''><div class='aggregateRating'><div class='agRatingDeSelect'><img title='review' alt=' review ' src='http://eu-stage.kritique.io/Widget/resources/images/rating-disabled.png'></div><div class='agRatingSelect' style='width:0px;'><img title=' review ' alt=' review ' src='http://eu-stage.kritique.io/Widget/resources/images/rating-selected.png'></div></div><span class='aggRtng'><img id='rrRatingLoader' title='' alt='' src='//apac.kritique.io/widget/resources/images/loader.gif'></span><span class='tRtng'> </span><a href='javascript:void(0)' title='Write a Review' class='wRtng'></a></div></div></div></div><div class='c-product-overview__awards'><div class='c-product-awards' data-index='0'> <p class='c-award-img'><a href='' class='js-award-img'> <img src='' alt='' title=''> </a> <span class='c-award-name'></span> <span> <a class='btn btn-primary js-awardBtn' href=''></a> </span> </p><p class='c-award-date-range'> - </p></div></div><div class='c-product-listing__product-wrap-arrow'></div></div><div class='c-product-listing__quick-panel-wrap'> <div class='c-product-listing__quick-panel'> <div class='container'> <div class='row'> <div class='c-product-listing__quick-cta-panel'> <div class='col-sm-5 col-sm-offset-1 c-product-listing__bottom'> <a class='c-product-listing__image-wrap' href='product-detail.html'> <picture><source srcset='images-cms/product-listing/mayonnaise-with-a-zing-of-lemon.ulenscale.320x320.jpg' media='screen and (min-width: 1200px)'><source srcset='images-cms/product-listing/mayonnaise-with-a-zing-of-lemon.ulenscale.320x320.jpg, images-cms/product-listing/mayonnaise-with-a-zing-of-lemon.ulenscale.320x320.jpg 2x' media='screen and (min-width: 992px) and (max-width: 1199px)'><source srcset='images-cms/product-listing/mayonnaise-with-a-zing-of-lemon.ulenscale.310x310.jpg, images-cms/product-listing/mayonnaise-with-a-zing-of-lemon.ulenscale.620x620.jpg 2x' media='screen and (min-width: 768px) and (max-width: 991px)'><source srcset='images-cms/product-listing/mayonnaise-with-a-zing-of-lemon.ulenscale.220x220.jpg, images-cms/product-listing/mayonnaise-with-a-zing-of-lemon.ulenscale.440x440.jpg 2x' media='screen and (min-width: 480px) and (max-width: 767px)'><img class='sddf' src='images-cms/product-listing/mayonnaise-with-a-zing-of-lemon.ulenscale.220x220.jpg' title='' alt=''></picture> </a> </div><div class='col-sm-5 c-product-listing__middle'> <div class=''> <h3 class='o-text__heading-2 hidden-xs' itemprop='name'>Mayonnaise with a Zing of Lemon</h3> <div class='c-product-listing__description o-text__tight' itemprop='description'></div><div class='o-rating c-inline-review'> <div class='rr-widget-container rr-container rr-star-percentage product_17935 inlineSummaryDiv' data-summary-template='inline' data-entity-type='product' dataidentifier-value='8711700927598' data-identifier-type='EAN' data-unique-id='17935' title='Mayonnaise with a Zing of Lemon' data-dividentifier-id='17935' data-dividentifier-type=''><div class='aggregateRating'><div class='agRatingDeSelect'><img title='review' alt=' review ' src='http://eu-stage.kritique.io/Widget/resources/images/rating-disabled.png'></div><div class='agRatingSelect' style='width:0px;'><img title=' review ' alt=' review ' src='http://eu-stage.kritique.io/Widget/resources/images/rating-selected.png'></div></div><span class='aggRtng'><img id='rrRatingLoader' title='' alt='' src='//apac.kritique.io/widget/resources/images/loader.gif'></span><span class='tRtng'> </span><a href='javascript:void(0)' title='Write a Review' class='wRtng'></a></div></div><div class=''> <div class='c-dropdown'> <div class='c-product-listing__price o-text__heading-4' itemprop='offers' itemscope='' itemtype='http://schema.org/Offer'> <span class='o-text__body'>250mL</span> <b itemprop='price'>£2.77</b> <span class='o-text__body'> RRP</span> </div></div><a class='o-btn o-btn--primary c-product-listing__link o-text__body' data-ct-action='productClick' title='Mayonnaise with a Zing of Lemon' href='product-detail.html' data-anim='button' data-anim-effect='ripple1' data-info='true' data-product-id='8711700728607' data-product-name='Pure &amp; Sensitive Beauty Bar' data-product-category='Skin Cleansing' data-product-variant='Pure &amp; Sensitive Beauty Bar' data-product-quantity='2x100g' data-product-price='1.84' data-product-brand='white-label'></a> </div></div></div></div><div class='js-btn__info-panel'> <div class='c-product-listing__info'> <div class='container c-product-listing__info-list'> <div class='c-product-listing__top-new'> <h2 class='o-text__heading-2 test'> Mini Double Caramel1 &amp; Double Chocolate1 </h2> </div><div class='c-product-listing__info--nav'> <ul class='c-product-listing__info--nav__list'> <li class='c-product-listing__info--nav__item'> <a class='c-product-listing__info--nav__link c-product-listing__info--nav__link-1' href='#producInfoAllergy-1'> Allergy1 </a> </li><li class='c-product-listing__info--nav__item'> <a class='c-product-listing__info--nav__link c-product-listing__info--nav__link-1' href='#producInfoNutrition-1'> Nutritions1 </a> </li><li class='c-product-listing__info--nav__item'> <a class='c-product-listing__info--nav__link c-product-listing__info--nav__link-1' href='#producInfoIngredients-1'> Ingredients1 </a> </li></ul> </div><div class='c-product-listing__info-item c-product-listing__info-item-1' id='producInfoAllergy-1'> <div class='c-product-listing__ni-itemWrap'> <h3 class='o-text__heading-3' itemprop='text'>Allergy1 (Lorem Ipsum 9)</h3> <div class='c-product-listing__desc o-desc' itemprop='description'> allergy description </div></div><div class='c-product-listing__ni-itemWrap'> <h3 class='o-text__heading-3' itemprop='text'>Allergy1 (Allergy)</h3> <div class='c-product-listing__desc o-desc' itemprop='description'> allergy description </div></div></div><div class='c-product-listing__info-item c-product-listing__info-item-1' id='producInfoNutrition-1'> <div class='c-product-listing__info-item__wrap'> <h3 class='o-text__heading-3' itemprop='name'>Nutritions1 (Nutrition Facts)</h3> <div class='c-product-listing__info__desc o-desc' itemprop='description'> </div><div class='c-product-listing__info__desc o-desc' itemprop='description'> </div><div class='c-product-listing__info-item__ni'> <table width='100%' class='c-product-info__table'> <tbody><tr> <th class='ni-facts-head-0'></th> <th class='ni-facts-head-1'>Per 100 g</th> <th class='ni-facts-head-2'>Per 100 ml</th> <th class='ni-facts-head-3'>Per *</th> </tr><tr> <td class='ni-facts-0'>Calories</td><td class='ni-facts-1'>150kj/359Kcal</td><td class='ni-facts-2'>1187kj/283Kcal</td><td class='ni-facts-3'>12%</td></tr><tr> <td class='ni-facts-0'>Calories</td><td class='ni-facts-1'>150kj/359Kcal</td><td class='ni-facts-2'>1187kj/283Kcal</td><td class='ni-facts-3'>12%</td></tr><tr> <td class='ni-facts-0'>Calories</td><td class='ni-facts-1'>150kj/359Kcal</td><td class='ni-facts-2'>1187kj/283Kcal</td><td class='ni-facts-3'>12%</td></tr><tr> <td class='ni-facts-0'>Calories</td><td class='ni-facts-1'>150kj/359Kcal</td><td class='ni-facts-2'>1187kj/283Kcal</td><td class='ni-facts-3'>12%</td></tr><tr> <td class='ni-facts-0'>Calories</td><td class='ni-facts-1'>150kj/359Kcal</td><td class='ni-facts-2'>1187kj/283Kcal</td><td class='ni-facts-3'>12%</td></tr><tr> <td class='ni-facts-0'>Calories</td><td class='ni-facts-1'>150kj/359Kcal</td><td class='ni-facts-2'>1187kj/283Kcal</td><td class='ni-facts-3'>12%</td></tr><tr> <td class='ni-facts-0'>Calories</td><td class='ni-facts-1'>150kj/359Kcal</td><td class='ni-facts-2'>1187kj/283Kcal</td><td class='ni-facts-3'>12%</td></tr><tr> <td class='ni-facts-0'>Calories</td><td class='ni-facts-1'>150kj/359Kcal</td><td class='ni-facts-2'>1187kj/283Kcal</td><td class='ni-facts-3'>12%</td></tr><tr> <td class='ni-facts-0'>Calories</td><td class='ni-facts-1'>150kj/359Kcal</td><td class='ni-facts-2'>1187kj/283Kcal</td><td class='ni-facts-3'>12%</td></tr><tr> <td class='ni-facts-0'>Calories</td><td class='ni-facts-1'>150kj/359Kcal</td><td class='ni-facts-2'>1187kj/283Kcal</td><td class='ni-facts-3'>12%</td></tr><tr> <td class='ni-facts-0'>Calories</td><td class='ni-facts-1'>150kj/359Kcal</td><td class='ni-facts-2'>1187kj/283Kcal</td><td class='ni-facts-3'>12%</td></tr><tr> <td class='ni-facts-0'>Calories</td><td class='ni-facts-1'>150kj/359Kcal</td><td class='ni-facts-2'>1187kj/283Kcal</td><td class='ni-facts-3'>12%</td></tr><tr> <td class='ni-facts-0'>Calories</td><td class='ni-facts-1'>150kj/359Kcal</td><td class='ni-facts-2'>1187kj/283Kcal</td><td class='ni-facts-3'>12%</td></tr></tbody></table> </div><span class='c-copyright-label'>* of reference intake of an average adult</span> </div></div><div class='c-product-listing__info-item c-product-listing__info-item-1' id='producInfoIngredients-1'> <div class='c-product-listing__info-item__wrap'> <div class='c-product-listing__ni-itemWrap'> <h3 class='o-text__heading-3' itemprop='name'>Ingredients1 (Ingredients1)</h3> <div class='c-product-listing__desc o-desc' itemprop='description'>Ingredients description</div></div><div class='c-product-listing__ni-itemWrap'> <h3 class='o-text__heading-3' itemprop='name'>Ingredients1 (Ingredients)</h3> <div class='c-product-listing__desc o-desc' itemprop='description'>Ingredients description</div></div></div></div></div></div></div><div class='c-product-listing__quick-close'></div></div></div></div></div></div></div></div></div>",
          "style": {
            "class": "accordion-v2-products",
            "type": "partial-custom-class"
          }
        }
      ]
    },
    "resourceType": "unilever/components/accordion"
  }
}