{
	"responseHeader": {
		"status": "200",
		"messages": []
	},
	"data": {
		"randomNumber": "778",
		"articleListing": {
			"brandName": "whitelabel",
			"title": "Title",
			"seeAllLabel": "Show all",
			"cta": "Call to action",
			"Mode": "manual",
			"context": "context-text",
			"description": "description text",
			"pattern": "C",
			"isCategoryTitle": "true",
			"maxMobileCount": "3",
			"seeMore": {
				"label": "Read more",
				"url": "http://localhost:4502/uk/home/stories/campaigns.html"
			},
			"displayCount": "8",
			"articles": [{
				"title": "Teaser Title",
				"url": "#ArticleUrl",
				"copyText": "Teaser Copy",
				"contentType": "Article",
				"author": "author name",
				"flags": [{
					"name": "need",
					"title": "need"
				}],
				"image": {
					"url": "/images-cms/article-listing/girl_nose_cream.enscale.full.high.jpg",
					"fileName": "",
					"isNotAdaptiveImage": false,
					"extension": "jpg",
					"altImage": "How often to wash hair",
					"title": "How often to wash hair",
					"path": "/images-cms/article-listing/girl_nose_cream"
				},
				"parent": {
					"title": "Parent Title",
					"url": "#ParentURL"
				},
				"articleCopy": "<p>Body Copy<br>\n</p>\n",
				"publishDate": "20-jan-2016",
				"containertag": {
					"articleClick": {
						"action": "articleClick",
						"label": "How often to wash hair",
						"category": "other",
						"type": "trackEvent"
					},
					"relatedArticle": {
						"action": "relatedArticle",
						"label": "How often to wash hair",
						"category": "custom",
						"type": "trackEvent"
					},
					"mayLike": {
						"action": "mayLike",
						"label": "How often to wash hair",
						"category": "custom",
						"type": "trackEvent"
					}
				}
			}, {
				"title": "Teaser Title",
				"url": "#ArticleUrl",
				"copyText": "Teaser Copy",
				"contentType": "Article",
				"author": "author name",
				"flags": [{
					"name": "need",
					"title": "need"
				}],
				"image": {
					"url": "/images-cms/article-listing/girl_nose_cream.enscale.full.high.jpg",
					"fileName": "",
					"isNotAdaptiveImage": false,
					"extension": "jpg",
					"altImage": "How often to wash hair",
					"title": "How often to wash hair",
					"path": "/images-cms/article-listing/girl_nose_cream"
				},
				"parent": {
					"title": "Parent Title",
					"url": "#ParentURL"
				},
				"articleCopy": "<p>Body Copy<br>\n</p>\n",
				"publishDate": "20-jan-2016",
				"containertag": {
					"articleClick": {
						"action": "articleClick",
						"label": "How often to wash hair",
						"category": "other",
						"type": "trackEvent"
					},
					"relatedArticle": {
						"action": "relatedArticle",
						"label": "How often to wash hair",
						"category": "custom",
						"type": "trackEvent"
					},
					"mayLike": {
						"action": "mayLike",
						"label": "How often to wash hair",
						"category": "custom",
						"type": "trackEvent"
					}
				}
			}, {
				"title": "Teaser Title",
				"url": "#ArticleUrl",
				"copyText": "Teaser Copy",
				"contentType": "Article",
				"author": "author name",
				"flags": [{
					"name": "need",
					"title": "need"
				}],
				"image": {
					"url": "/images-cms/article-listing/girl_nose_cream.enscale.full.high.jpg",
					"fileName": "",
					"isNotAdaptiveImage": false,
					"extension": "jpg",
					"altImage": "How often to wash hair",
					"title": "How often to wash hair",
					"path": "/images-cms/article-listing/girl_nose_cream"
				},
				"parent": {
					"title": "Parent Title",
					"url": "#ParentURL"
				},
				"articleCopy": "<p>Body Copy<br>\n</p>\n",
				"publishDate": "20-jan-2016",
				"containertag": {
					"articleClick": {
						"action": "articleClick",
						"label": "How often to wash hair",
						"category": "other",
						"type": "trackEvent"
					},
					"relatedArticle": {
						"action": "relatedArticle",
						"label": "How often to wash hair",
						"category": "custom",
						"type": "trackEvent"
					},
					"mayLike": {
						"action": "mayLike",
						"label": "How often to wash hair",
						"category": "custom",
						"type": "trackEvent"
					}
				}
			}, {
				"title": "Teaser Title",
				"url": "#ArticleUrl",
				"copyText": "Teaser Copy",
				"contentType": "Article",
				"author": "author name",
				"flags": [{
					"name": "need",
					"title": "need"
				}],
				"image": {
					"url": "/images-cms/article-listing/girl_nose_cream.enscale.full.high.jpg",
					"fileName": "",
					"isNotAdaptiveImage": false,
					"extension": "jpg",
					"altImage": "How often to wash hair",
					"title": "How often to wash hair",
					"path": "/images-cms/article-listing/girl_nose_cream"
				},
				"parent": {
					"title": "Parent Title",
					"url": "#ParentURL"
				},
				"articleCopy": "<p>Body Copy<br>\n</p>\n",
				"publishDate": "20-jan-2016",
				"containertag": {
					"articleClick": {
						"action": "articleClick",
						"label": "How often to wash hair",
						"category": "other",
						"type": "trackEvent"
					},
					"relatedArticle": {
						"action": "relatedArticle",
						"label": "How often to wash hair",
						"category": "custom",
						"type": "trackEvent"
					},
					"mayLike": {
						"action": "mayLike",
						"label": "How often to wash hair",
						"category": "custom",
						"type": "trackEvent"
					}
				}
			}, {
				"title": "Teaser Title",
				"url": "#ArticleUrl",
				"copyText": "Teaser Copy",
				"contentType": "Article",
				"author": "author name",
				"flags": [{
					"name": "need",
					"title": "need"
				}],
				"image": {
					"url": "/images-cms/article-listing/girl_nose_cream.enscale.full.high.jpg",
					"fileName": "",
					"isNotAdaptiveImage": false,
					"extension": "jpg",
					"altImage": "How often to wash hair",
					"title": "How often to wash hair",
					"path": "/images-cms/article-listing/girl_nose_cream"
				},
				"parent": {
					"title": "Parent Title",
					"url": "#ParentURL"
				},
				"articleCopy": "<p>Body Copy<br>\n</p>\n",
				"publishDate": "20-jan-2016",
				"containertag": {
					"articleClick": {
						"action": "articleClick",
						"label": "How often to wash hair",
						"category": "other",
						"type": "trackEvent"
					},
					"relatedArticle": {
						"action": "relatedArticle",
						"label": "How often to wash hair",
						"category": "custom",
						"type": "trackEvent"
					},
					"mayLike": {
						"action": "mayLike",
						"label": "How often to wash hair",
						"category": "custom",
						"type": "trackEvent"
					}
				}
			}, {
				"title": "Teaser Title",
				"url": "#ArticleUrl",
				"copyText": "Teaser Copy",
				"contentType": "Article",
				"author": "author name",
				"flags": [{
					"name": "need",
					"title": "need"
				}],
				"image": {
					"url": "/images-cms/article-listing/girl_nose_cream.enscale.full.high.jpg",
					"fileName": "",
					"isNotAdaptiveImage": false,
					"extension": "jpg",
					"altImage": "How often to wash hair",
					"title": "How often to wash hair",
					"path": "/images-cms/article-listing/girl_nose_cream"
				},
				"parent": {
					"title": "Parent Title",
					"url": "#ParentURL"
				},
				"articleCopy": "<p>Body Copy<br>\n</p>\n",
				"publishDate": "20-jan-2016",
				"containertag": {
					"articleClick": {
						"action": "articleClick",
						"label": "How often to wash hair",
						"category": "other",
						"type": "trackEvent"
					},
					"relatedArticle": {
						"action": "relatedArticle",
						"label": "How often to wash hair",
						"category": "custom",
						"type": "trackEvent"
					},
					"mayLike": {
						"action": "mayLike",
						"label": "How often to wash hair",
						"category": "custom",
						"type": "trackEvent"
					}
				}
			}, {
				"title": "Teaser Title",
				"url": "#ArticleUrl",
				"copyText": "Teaser Copy",
				"contentType": "Article",
				"author": "author name",
				"flags": [{
					"name": "need",
					"title": "need"
				}],
				"image": {
					"url": "/images-cms/article-listing/girl_nose_cream.enscale.full.high.jpg",
					"fileName": "",
					"isNotAdaptiveImage": false,
					"extension": "jpg",
					"altImage": "How often to wash hair",
					"title": "How often to wash hair",
					"path": "/images-cms/article-listing/girl_nose_cream"
				},
				"parent": {
					"title": "Parent Title",
					"url": "#ParentURL"
				},
				"articleCopy": "<p>Body Copy<br>\n</p>\n",
				"publishDate": "20-jan-2016",
				"containertag": {
					"articleClick": {
						"action": "articleClick",
						"label": "How often to wash hair",
						"category": "other",
						"type": "trackEvent"
					},
					"relatedArticle": {
						"action": "relatedArticle",
						"label": "How often to wash hair",
						"category": "custom",
						"type": "trackEvent"
					},
					"mayLike": {
						"action": "mayLike",
						"label": "How often to wash hair",
						"category": "custom",
						"type": "trackEvent"
					}
				}
			}, {
				"title": "Teaser Title",
				"url": "#ArticleUrl",
				"copyText": "Teaser Copy",
				"contentType": "Article",
				"author": "author name",
				"flags": [{
					"name": "need",
					"title": "need"
				}],
				"image": {
					"url": "/images-cms/article-listing/girl_nose_cream.enscale.full.high.jpg",
					"fileName": "",
					"isNotAdaptiveImage": false,
					"extension": "jpg",
					"altImage": "How often to wash hair",
					"title": "How often to wash hair",
					"path": "/images-cms/article-listing/girl_nose_cream"
				},
				"parent": {
					"title": "Parent Title",
					"url": "#ParentURL"
				},
				"articleCopy": "<p>Body Copy<br>\n</p>\n",
				"publishDate": "20-jan-2016",
				"containertag": {
					"articleClick": {
						"action": "articleClick",
						"label": "How often to wash hair",
						"category": "other",
						"type": "trackEvent"
					},
					"relatedArticle": {
						"action": "relatedArticle",
						"label": "How often to wash hair",
						"category": "custom",
						"type": "trackEvent"
					},
					"mayLike": {
						"action": "mayLike",
						"label": "How often to wash hair",
						"category": "custom",
						"type": "trackEvent"
					}
				}
			}],
			"static": {
				"moreLink": {
					"label": "See more",
					"url": "/data/article-listing-self-esteem-more.json",
					"containertag": {
						"category": "category",
						"action": "action",
						"information ": "information",
						"attr": "attr"
					}
				}
			}
		},
		"clientSideRendering": true,
		"viewType": "defaultView",
		"componentType": "articleListing",
		"isContainer": false
	}
}