{
    "data": {
        "bodyCopy": {
        	"description": "<p class='o-text__body'><p class='o-text__body'>\"Lorem ipsum dolor sit amet, ac rutrum erat nibh nisl, porttitor ut aliquam quis. Erat nibh nisl, porttitor ut aliquam quis .Lorem ipsum dolor sit amet, ac rutrum erat nibh nisl, porttitor ut aliquam quis. Erat nibh nisl, porttitor ut aliquam quis .Lorem ipsum dolor sit amet, ac rutrum erat nibh nisl, porttitor ut aliquam quis. Erat nibh nisl, porttitor ut aliquam quis ."</p>"
        },
        "viewType": "defaultView",
        "componentType": "bodyCopy",
        "isContainer": true
    }
}
