{
        
    "data": {
        "featuredProduct": {
            "brandName": "whitelabel",
            "anchorLinkNavigation":
            {
                "showAsNavigation":"false",
                "label":"featured Product",
                "id":"featuredProduct327"
            },
            "backgroundImage": {
				"path": "/images-cms/product-feature/bg-paper",
				"title":"background",
                "extension": "jpg",
                "alt":"background",
                "fileName": ""
            },
			"review": {
                "feedDomainUrl": "http://Showcase-eu-int.unileversolutions.com",
                "apiKey": "cacc73fa-00dd-4e10-9766-0cc0288fa9d9",
                "serviceURI": "https://display-stg.ugc.bazaarvoice.com/static/unilever-d2/en_US/bvapi.js",
                "brandId": "14",
                "id": "rr-widget",
                "localeId": "46",
                "enabled": "true",
                "serviceProviderName": "bazaarvoice"
            },
			"theme": "Light",
            "contextLabel": "Editor's pick",			
            "type": "auto",
			"title": "find out more",
            "productList": [
			{
                "title": "Product Name up to 70 characters",
                "description": "Short Description up to 140 characters a ullamcorper parturient ut sed a maecenas consectetur ut cum cras dis nascetur parturient.",
				"enableCustomizationBadges": "true",
				"isCustomizableProduct": "true",
				"personalizableLabel": "personalizable",
				"ratings": {
					"viewType": "inline",
					"entityType": "product",
					"identifierValue": "8711700927598",
					"identifierType": "EAN",
					"uniqueId": "27935"
				},
                "productID": "27935",
                "currencySymbol": "$",
                "productsDetail": [{
                    "unit": null,
                    "images": [
					{
                        "url": "/content/dam/whitelabel/intensive_repair_shampoo.png",
                        "fileName": "",
                        "isNotAdaptiveImage": "false",
                        "extension": "png",
                        "altImage": "Sensitive+ Face Wash caption",
                        "title": "Sensitive+ Face Wash caption",
                        "path": "/images-cms/product-feature/pr-pure-care-dry-oil-from-above",
                        "zoomImage": {
                            "url": "/content/dam/whitelabel/intensive_repair_shampoo.png",
                            "fileName": "intensive_repair_shampoo",
                            "isNotAdaptiveImage": "false",
                            "extension": "png",
                            "altImage": "Sensitive+ Face Wash caption",
                            "title": "Sensitive+ Face Wash caption",
                            "path": "/content/unilever-iea/whitelabel/en_us/sensitive_-face-wash0/jcr:content/product/assets/image0"
                        },
                        "thumbImage": {
                            "url": "/content/dam/whitelabel/intensive_repair_shampoo.png.thumb.100.140.png",
                            "fileName": "intensive_repair_shampoo",
                            "isNotAdaptiveImage": "false",
                            "extension": "png",
                            "altImage": "Sensitive+ Face Wash caption",
                            "title": "Sensitive+ Face Wash caption",
                            "path": "/content/unilever-iea/whitelabel/en_us/sensitive_-face-wash0/jcr:content/product/assets/image0"
                        }
                    }, 
					{
                        "url": "/content/dam/whitelabel/sensitive_facewash.png",
                        "fileName": "sensitive_facewash",
                        "isNotAdaptiveImage": "false",
                        "extension": "png",
                        "altImage": "Sensitive+ Face Wash caption",
                        "title": "Sensitive+ Face Wash caption",
                        "path": "/content/unilever-iea/whitelabel/en_us/sensitive_-face-wash0/jcr:content/product/assets/image1",
                        "zoomImage": {
                            "url": "/content/dam/whitelabel/sensitive_facewash.png",
                            "fileName": "sensitive_facewash",
                            "isNotAdaptiveImage": "false",
                            "extension": "png",
                            "altImage": "Sensitive+ Face Wash caption",
                            "title": "Sensitive+ Face Wash caption",
                            "path": "/content/unilever-iea/whitelabel/en_us/sensitive_-face-wash0/jcr:content/product/assets/image1"
                        },
                        "thumbImage": {
                            "url": "/content/dam/whitelabel/sensitive_facewash.png.thumb.100.140.png",
                            "fileName": "sensitive_facewash",
                            "isNotAdaptiveImage": "false",
                            "extension": "png",
                            "altImage": "Sensitive+ Face Wash caption",
                            "title": "Sensitive+ Face Wash caption",
                            "path": "/content/unilever-iea/whitelabel/en_us/sensitive_-face-wash0/jcr:content/product/assets/image1"
                        }
                    }],
                    "price": "$",
                    "productSize": "tall",
                    "smartProductId": "",
                    "skuid": "671257"
                }],
                "textLink": {
                    "url": "http://localhost:4502/content/unilever-iea/whitelabel/en_us/sensitive_-face-wash0.html",
                    "containertag": {
                        "action": "Click To Action",
                        "information": "label",
                        "category": "Custom",
                        "attr": "attr"
                    }
                }
            }]
        },
        "path": "/content/unilever-iea/whitelabel/en_us/flexi/_jcr_content/flexi_hero_par/featuredproduct",
		"brandName": "whitelabel",
        "ajaxURL": "/content/unilever-iea/whitelabel/en_us/flexi/jcr:content/flexi_hero_par/featuredproduct.data.ajax.json",
        "clientSideRendering": false,
        "randomNumber": "327",
        "viewType": "defaultView",
        "componentType": "featuredProduct",
        "isContainer": false,
        "resourceType": "unilever-iea/components/featuredProduct"
    },
    "responseHeader": {
        "status": "200",
        "messages": []
    }
}