{
    "data": {
        "campaignOfferFlowWidget": {
            "htmlCodeSnippet": "<div id='cf-root' data-locale='en_us' data-formid='campaign_us_knorr_en_us' data-brand='Knorr' data-recaptchakey='6Ld8Xb8SAAAAAEu2TCCW3sPQvlnuVsqASdRCG9Vu' data-url='campaign_us/en-us/knorr.html?jsoncallback=renderForm&brandname=knorr&apiformid=campaign_us_knorr_en_us&locale=en-us' data-loadmsg='Loading Campaign ...'></div><script src='http://campaignwidget-uat.unileversolutions.com/campaign/js/cf-widget.js'></script>",
            "disableWidget": true,
            "brandName": "whitelabel",
            "market": "en_gb",
            "locale": "en-GB",
            "componentVariation": "defaultView",
            "componentPosition": 3,
            "componentName": "campaignOfferFlowWidget",
            "randomNumber": "525",
            "style": {
                "type": "type-a",
                "class": "test"
            },
            "analytics": {
                "usageContext": "Campaign",
                "eventType": "Engagement"
            },
            "anchorTitle": "Click here to go to link"
        },
        "componentType": "campaignOfferFlowWidget",
        "clientSideRendering": false,
        "viewType": "defaultView",
        "randomNumber": "525",
        "isContainer": false,
        "resourceType": "unilever-iea/components/campaignOfferFlowWidget"
    }
}
