{
    "data": {
        "path": "content/whitelabel/en_gb/home/recipe_nutrients/_jcr_content/secondarypar/recipelisting",
        "componentType": "recipeListing",
        "ajaxURL": "content/whitelabel/en_gb/home/recipe_nutrients/_jcr_content/secondarypar/recipelisting.data.ajax.json",
        "clientSideRendering": false,
        "viewType": "defaultView",
        "randomNumber": "710",
        "isContainer": false,
        "recipeListing": {
            "recipes": [
            {
                "preparationTime": 10,
                "rating": [

                ],
                "waitingTime": 0,
                "shortTitle": "Ajay's Grilled Asparagus",
                "tips": null,
                "cookingTime": 10,
                "annualEvents": null,
                "assets": {
                    "image": {
                        "default": [{
                            "size": "73229",
                            "versions": {
                                "default": [{
                                    "size": "33002",
                                    "versions": null,
                                    "width": "240",
                                    "caption": null,
                                    "thumbUrl": null,
                                    "type": null,
                                    "title": null,
                                    "url": "images-cms/carousel-v2/img-carousel-detail.png",
                                    "height": "640"
                                }, {
                                    "size": "34081",
                                    "versions": null,
                                    "width": "300",
                                    "caption": null,
                                    "thumbUrl": null,
                                    "type": null,
                                    "title": null,
                                    "url": "images-cms/carousel-v2/img-carousel-detail.png",
                                    "height": "250"
                                }, {
                                    "size": "84908",
                                    "versions": null,
                                    "width": "730",
                                    "caption": null,
                                    "thumbUrl": null,
                                    "type": null,
                                    "title": null,
                                    "url": "images-cms/carousel-v2/img-carousel-detail.png",
                                    "height": "410"
                                }],
                                "original": [{
                                    "size": "73229",
                                    "versions": null,
                                    "width": "240",
                                    "caption": null,
                                    "thumbUrl": null,
                                    "type": null,
                                    "title": null,
                                    "url": "images-cms/carousel-v2/img-carousel-detail.png",
                                    "height": "240"
                                }]
                            },
                            "width": "240",
                            "caption": "",
                            "thumbUrl": "images-cms/carousel-v2/img-carousel-detail.png",
                            "type": null,
                            "title": "RMS Test Recipe",
                            "url": "images-cms/carousel-v2/img-carousel-detail.png",
                            "height": "240"
                        }, {
                            "size": "170328",
                            "versions": {
                                "default": [{
                                    "size": "86096",
                                    "versions": null,
                                    "width": "640",
                                    "caption": null,
                                    "thumbUrl": null,
                                    "type": null,
                                    "title": null,
                                    "url": "images-cms/carousel-v2/img-carousel-detail.png",
                                    "height": "377"
                                }, {
                                    "size": "104661",
                                    "versions": null,
                                    "width": "730",
                                    "caption": null,
                                    "thumbUrl": null,
                                    "type": null,
                                    "title": null,
                                    "url": "images-cms/carousel-v2/img-carousel-detail.png",
                                    "height": "410"
                                }, {
                                    "size": "37141",
                                    "versions": null,
                                    "width": "300",
                                    "caption": null,
                                    "thumbUrl": null,
                                    "type": null,
                                    "title": null,
                                    "url": "images-cms/carousel-v2/img-carousel-detail.png",
                                    "height": "250"
                                }],
                                "original": [{
                                    "size": "170328",
                                    "versions": null,
                                    "width": "950",
                                    "caption": null,
                                    "thumbUrl": null,
                                    "type": null,
                                    "title": null,
                                    "url": "images-cms/carousel-v2/img-carousel-detail.png",
                                    "height": "560"
                                }]
                            },
                            "width": "950",
                            "caption": "",
                            "thumbUrl": "images-cms/carousel-v2/img-carousel-detail.png",
                            "type": null,
                            "title": "",
                            "url": "images-cms/carousel-v2/img-carousel-detail.png",
                            "height": "560"
                        }, {
                            "size": "352188",
                            "versions": {
                                "default": [{
                                    "size": "142276",
                                    "versions": null,
                                    "width": "730",
                                    "caption": null,
                                    "thumbUrl": null,
                                    "type": null,
                                    "title": null,
                                    "url": "images-cms/carousel-v2/img-carousel-detail.png",
                                    "height": "410"
                                }, {
                                    "size": "116506",
                                    "versions": null,
                                    "width": "640",
                                    "caption": null,
                                    "thumbUrl": null,
                                    "type": null,
                                    "title": null,
                                    "url": "images-cms/carousel-v2/img-carousel-detail.png",
                                    "height": "360"
                                }, {
                                    "size": "52064",
                                    "versions": null,
                                    "width": "300",
                                    "caption": null,
                                    "thumbUrl": null,
                                    "type": null,
                                    "title": null,
                                    "url": "images-cms/carousel-v2/img-carousel-detail.png",
                                    "height": "250"
                                }],
                                "original": [{
                                    "size": "352188",
                                    "versions": null,
                                    "width": "688",
                                    "caption": null,
                                    "thumbUrl": null,
                                    "type": null,
                                    "title": null,
                                    "url": "images-cms/carousel-v2/img-carousel-detail.png",
                                    "height": "388"
                                }]
                            },
                            "width": "688",
                            "caption": "",
                            "thumbUrl": "images-cms/carousel-v2/img-carousel-detail.png",
                            "type": null,
                            "title": "Grilled Asparagus 1",
                            "url": "images-cms/carousel-v2/img-carousel-detail.png",
                            "height": "388"
                        }]
                    },
                    "video": {
                        "default": [{
                            "videoUrl": "https://youtu.be/iQJ1hcGij4w",
                            "videoThumbnilUrl": "~/bundles/fooditymain/images/video.png",
                            "caption": "",
                            "videoVariations": {

                            },
                            "title": ""
                        }, {
                            "videoUrl": "https://youtu.be/RpPIwgZn2jg",
                            "videoThumbnilUrl": "~/bundles/fooditymain/images/video.png",
                            "caption": "",
                            "videoVariations": {

                            },
                            "title": ""
                        }, {
                            "videoUrl": "https://youtu.be/m5YhYoKWiB4",
                            "videoThumbnilUrl": "~/bundles/fooditymain/images/video.png",
                            "caption": "",
                            "videoVariations": {

                            },
                            "title": ""
                        }]
                    }
                },
                "campaigns": [

                ],
                "dietary": {
                    "nutFree": {
                        "stateValue": "unknown"
                    },
                    "eggFree": {
                        "stateValue": "false"
                    },
                    "pregnancySafe": {
                        "stateValue": "true"
                    },
                    "lactoseFree": {
                        "stateValue": "true"
                    },
                    "dairyProductFree": {
                        "stateValue": "true"
                    },
                    "vegetarian": {
                        "stateValue": "true"
                    },
                    "glutenFree": {
                        "stateValue": "false"
                    },
                    "wheatFree": {
                        "stateValue": "true"
                    },
                    "vegan": {
                        "stateValue": "false"
                    },
                    "paleoFree": {
                        "stateValue": "true"
                    },
                    "rawFood": {
                        "stateValue": "false"
                    }
                },
                "courses": [{
                    "language": "en-GB",
                    "id": 1402,
                    "categoryName": "Snack"
                }, {
                    "language": "en-GB",
                    "id": 1401,
                    "categoryName": "Side"
                }],
                "seasons": [{
                    "language": "en-GB",
                    "id": 1543,
                    "categoryName": "Spring"
                }, {
                    "language": "en-GB",
                    "id": 1544,
                    "categoryName": "Summer"
                }],
                "suitability": null,
                "freeFormTags": [{
                    "language": "en-GB",
                    "id": 2766,
                    "categoryName": "hellmann'smayonnaise with a hit of caramelised onion"
                }, {
                    "language": "en-GB",
                    "id": 2764,
                    "categoryName": "how to make asparagus"
                }, {
                    "language": "en-GB",
                    "id": 2762,
                    "categoryName": "asparagus recipe"
                }, {
                    "language": "en-GB",
                    "id": 2761,
                    "categoryName": "asparagus"
                }, {
                    "language": "en-GB",
                    "id": 2763,
                    "categoryName": "asparagus recipes"
                }, {
                    "language": "en-GB",
                    "id": 2765,
                    "categoryName": "hellmannâ€™smayonnaise"
                }],
                "totalTime": 0,
                "brewTime": 10,
                "shortDescription": "Ajay's asparagus recipe is a great starter..",
                "marinateTime": 0,
                "cuisines": [

                ],
                "budgets": [

                ],
                "nutrientsPerServing": [{
                    "group": "main",
                    "nutrients": [{
                        "dv": "7%",
                        "quantity": "143",
                        "dvPercent": "7.17",
                        "rawValue": "143.32",
                        "messurementUnit": "kcal",
                        "ri": "7%",
                        "name": "energy_kcal",
                        "displayUnit": "Energy (kcal)",
                        "description": "Energy: 143.32kcal",
                        "position": "0",
                        "riPercent": "7.17",
                        "epercent": null
                    }, {
                        "dv": null,
                        "quantity": "600",
                        "dvPercent": null,
                        "rawValue": "600.18",
                        "messurementUnit": "kJ",
                        "ri": "7%",
                        "name": "energy_kj",
                        "displayUnit": "Energy (kJ)",
                        "description": "Energy: 600.18kJ",
                        "position": "1",
                        "riPercent": "7.14",
                        "epercent": null
                    }, {
                        "dv": "6%",
                        "quantity": "3.2",
                        "dvPercent": "6.48",
                        "rawValue": "3.24",
                        "messurementUnit": "g",
                        "ri": "6%",
                        "name": "protein",
                        "displayUnit": "Protein (g)",
                        "description": "Protein: 3.24g",
                        "position": "2",
                        "riPercent": "6.48",
                        "epercent": "2.25%"
                    }, {
                        "dv": "5%",
                        "quantity": "14.3",
                        "dvPercent": "4.76",
                        "rawValue": "14.27",
                        "messurementUnit": "g",
                        "ri": null,
                        "name": "carbohydrate_incl_fibre",
                        "displayUnit": "Carbohydrate incl. fibre (g)",
                        "description": "Carbohydrate incl. fibre: 14.27g",
                        "position": "3",
                        "riPercent": null,
                        "epercent": "10.00%"
                    }, {
                        "dv": null,
                        "quantity": "12.0",
                        "dvPercent": null,
                        "rawValue": "11.97",
                        "messurementUnit": "g",
                        "ri": "5%",
                        "name": "carbohydrate_excl_fibre",
                        "displayUnit": "Carbohydrate excl. fibre (g)",
                        "description": "Carbohydrate excl. fibre: 11.97g",
                        "position": "4",
                        "riPercent": "4.6",
                        "epercent": "8.25%"
                    }, {
                        "dv": null,
                        "quantity": "2.9",
                        "dvPercent": null,
                        "rawValue": "2.94",
                        "messurementUnit": "g",
                        "ri": "3%",
                        "name": "sugar",
                        "displayUnit": "Sugar (g)",
                        "description": "Sugar: 2.94g",
                        "position": "5",
                        "riPercent": "3.27",
                        "epercent": "2.00%"
                    }, {
                        "dv": "9%",
                        "quantity": "2.3",
                        "dvPercent": "9.2",
                        "rawValue": "2.3",
                        "messurementUnit": "g",
                        "ri": null,
                        "name": "fibre",
                        "displayUnit": "Fibre (g)",
                        "description": "Fibre: 2.3g",
                        "position": "6",
                        "riPercent": null,
                        "epercent": "0.75%"
                    }, {
                        "dv": "12%",
                        "quantity": "7.6",
                        "dvPercent": "11.65",
                        "rawValue": "7.57",
                        "messurementUnit": "g",
                        "ri": "11%",
                        "name": "fat",
                        "displayUnit": "Fat (g)",
                        "description": "Fat: 7.57g",
                        "position": "7",
                        "riPercent": "10.81",
                        "epercent": "12.00%"
                    }, {
                        "dv": "6%",
                        "quantity": "1.1",
                        "dvPercent": "5.55",
                        "rawValue": "1.11",
                        "messurementUnit": "g",
                        "ri": "6%",
                        "name": "saturated_fat",
                        "displayUnit": "Saturated fat (g)",
                        "description": "Saturated fat: 1.11g",
                        "position": "8",
                        "riPercent": "5.55",
                        "epercent": "1.75%"
                    }, {
                        "dv": null,
                        "quantity": "6.1",
                        "dvPercent": null,
                        "rawValue": "6.11",
                        "messurementUnit": "g",
                        "ri": null,
                        "name": "unsaturated_fat",
                        "displayUnit": "Unsaturated fat (g)",
                        "description": "Unsaturated fat: 6.11g",
                        "position": "9",
                        "riPercent": null,
                        "epercent": "9.50%"
                    }, {
                        "dv": null,
                        "quantity": "5.1",
                        "dvPercent": null,
                        "rawValue": "5.09",
                        "messurementUnit": "g",
                        "ri": null,
                        "name": "fatty_acids_monounsaturated",
                        "displayUnit": "Monounsaturated fat (g)",
                        "description": "Monounsaturated fat: 5.09g",
                        "position": "10",
                        "riPercent": null,
                        "epercent": "8.00%"
                    }, {
                        "dv": null,
                        "quantity": "1.0",
                        "dvPercent": null,
                        "rawValue": "1.01",
                        "messurementUnit": "g",
                        "ri": null,
                        "name": "fatty_acids_polyunsaturated",
                        "displayUnit": "Polyunsaturated fat (g)",
                        "description": "Polyunsaturated fat: 1.01g",
                        "position": "11",
                        "riPercent": null,
                        "epercent": "1.50%"
                    }, {
                        "dv": null,
                        "quantity": "0.0",
                        "dvPercent": null,
                        "rawValue": "0",
                        "messurementUnit": "g",
                        "ri": null,
                        "name": "trans_fat",
                        "displayUnit": "Trans fat (g)",
                        "description": "Trans fat: 0g",
                        "position": "12",
                        "riPercent": null,
                        "epercent": "0.00%"
                    }, {
                        "dv": "<1%",
                        "quantity": "0",
                        "dvPercent": "0",
                        "rawValue": "0",
                        "messurementUnit": "mg",
                        "ri": null,
                        "name": "cholesterol",
                        "displayUnit": "Cholesterol (mg)",
                        "description": "Cholesterol: 0mg",
                        "position": "13",
                        "riPercent": null,
                        "epercent": null
                    }, {
                        "dv": "4%",
                        "quantity": "95",
                        "dvPercent": "3.95",
                        "rawValue": "94.9",
                        "messurementUnit": "mg",
                        "ri": null,
                        "name": "sodium",
                        "displayUnit": "Sodium (mg)",
                        "description": "Sodium: 94.9mg",
                        "position": "14",
                        "riPercent": null,
                        "epercent": null
                    }, {
                        "dv": "4%",
                        "quantity": "0.24",
                        "dvPercent": "4",
                        "rawValue": "0.24",
                        "messurementUnit": "g",
                        "ri": "4%",
                        "name": "salt",
                        "displayUnit": "Salt (g)",
                        "description": "Salt: 0.24g",
                        "position": "15",
                        "riPercent": "4",
                        "epercent": null
                    }, {
                        "dv": "8%",
                        "quantity": "404",
                        "dvPercent": "8.07",
                        "rawValue": "403.56",
                        "messurementUnit": "IU",
                        "ri": null,
                        "name": "vitamin_a",
                        "displayUnit": "Vitamin A (IU)",
                        "description": "Vitamin A: 403.56IU",
                        "position": "16",
                        "riPercent": null,
                        "epercent": null
                    }, {
                        "dv": "16%",
                        "quantity": "9.8",
                        "dvPercent": "16.37",
                        "rawValue": "9.82",
                        "messurementUnit": "mg",
                        "ri": "12%",
                        "name": "vitamin_c",
                        "displayUnit": "Vitamin C (mg)",
                        "description": "Vitamin C: 9.82mg",
                        "position": "17",
                        "riPercent": "12.28",
                        "epercent": null
                    }, {
                        "dv": "4%",
                        "quantity": "45",
                        "dvPercent": "4.46",
                        "rawValue": "44.55",
                        "messurementUnit": "mg",
                        "ri": "6%",
                        "name": "calcium",
                        "displayUnit": "Calcium (mg)",
                        "description": "Calcium: 44.55mg",
                        "position": "18",
                        "riPercent": "5.57",
                        "epercent": null
                    }, {
                        "dv": "11%",
                        "quantity": "2.01",
                        "dvPercent": "11.17",
                        "rawValue": "2.01",
                        "messurementUnit": "mg",
                        "ri": "14%",
                        "name": "iron",
                        "displayUnit": "Iron (mg)",
                        "description": "Iron: 2.01mg",
                        "position": "19",
                        "riPercent": "14.36",
                        "epercent": null
                    }, {
                        "dv": "5%",
                        "quantity": "191",
                        "dvPercent": "5.47",
                        "rawValue": "191.48",
                        "messurementUnit": "mg",
                        "ri": "10%",
                        "name": "potassium",
                        "displayUnit": "Potassium (mg)",
                        "description": "Potassium: 191.48mg",
                        "position": "20",
                        "riPercent": "9.57",
                        "epercent": null
                    }]
                }],
                "occasions": [

                ],
                "relatedData": {
                    "footNoteTwo": null,
                    "relatedRecipes": null,
                    "notes": null,
                    "relatedArticles": null,
                    "relatedProducts": "97847,97848,97849,97850",
                    "didYouKnow": null,
                    "footNoteOne": null,
                    "seoKeywords": null
                },
                "mainIngredients": [{
                    "language": "en-GB",
                    "id": 1518,
                    "categoryName": "Vegetables"
                }],
                "creationTime": "2015-10-28T18:18:29Z",
                "methods": {
                    "ungrouped": {
                        "methodsList": [{
                            "description": "Preheat grill.",
                            "position": "1"
                        }, {
                            "description": "Heat 1 tablespoon of the oil in a large pan, over medium-high heat. Add the garlic, shallot and lemon zest. Cook for 2 minutes. Add the lemon juice and white wine. Simmer for 1 minute. Add the breadcrumbs and Hellmann's Mayonnaise with a hit of Caramelised Onion and fry until golden brown.",
                            "position": "2"
                        }, {
                            "description": "Mix the asparagus with the remaining oil. Grill for 3-5 minutes, turning once.",
                            "position": "3"
                        }, {
                            "description": "Serve asparagus on a platter and top with the breadcrumb mixture.",
                            "position": "4"
                        }],
                        "position": 0
                    }
                },
                "serves": "4",
                "cookingMethods": [{
                    "language": "en-GB",
                    "id": 1380,
                    "categoryName": "Grill"
                }],
                "slideShow": [

                ],
                "description": "Ma quande lingues coalesce, li grammatica del resultant lingue es plu simplic e regulari quam ti del coalescent lingues.",
                "freezeTime": 0,
                "timesOfDay": [

                ],
                "title": "Lorem ipsum dolor",
                "recipeId": "83862",
                "nutrients": [{
                    "group": "main",
                    "nutrients": [{
                        "dv": "29%",
                        "quantity": "573",
                        "dvPercent": "28.66",
                        "rawValue": "573.28",
                        "messurementUnit": "kcal",
                        "ri": "29%",
                        "name": "energy_kcal",
                        "displayUnit": "Energy (kcal)",
                        "description": "Energy: 573.28kcal",
                        "position": "0",
                        "riPercent": "28.66",
                        "epercent": null
                    }, {
                        "dv": null,
                        "quantity": "2401",
                        "dvPercent": null,
                        "rawValue": "2400.73",
                        "messurementUnit": "kJ",
                        "ri": "29%",
                        "name": "energy_kj",
                        "displayUnit": "Energy (kJ)",
                        "description": "Energy: 2400.73kJ",
                        "position": "1",
                        "riPercent": "28.58",
                        "epercent": null
                    }, {
                        "dv": "26%",
                        "quantity": "13.0",
                        "dvPercent": "25.94",
                        "rawValue": "12.97",
                        "messurementUnit": "g",
                        "ri": "26%",
                        "name": "protein",
                        "displayUnit": "Protein (g)",
                        "description": "Protein: 12.97g",
                        "position": "2",
                        "riPercent": "25.94",
                        "epercent": "9.00%"
                    }, {
                        "dv": "19%",
                        "quantity": "57.1",
                        "dvPercent": "19.02",
                        "rawValue": "57.07",
                        "messurementUnit": "g",
                        "ri": null,
                        "name": "carbohydrate_incl_fibre",
                        "displayUnit": "Carbohydrate incl. fibre (g)",
                        "description": "Carbohydrate incl. fibre: 57.07g",
                        "position": "3",
                        "riPercent": null,
                        "epercent": "40.00%"
                    }, {
                        "dv": null,
                        "quantity": "47.9",
                        "dvPercent": null,
                        "rawValue": "47.87",
                        "messurementUnit": "g",
                        "ri": "18%",
                        "name": "carbohydrate_excl_fibre",
                        "displayUnit": "Carbohydrate excl. fibre (g)",
                        "description": "Carbohydrate excl. fibre: 47.87g",
                        "position": "4",
                        "riPercent": "18.41",
                        "epercent": "33.00%"
                    }, {
                        "dv": null,
                        "quantity": "11.7",
                        "dvPercent": null,
                        "rawValue": "11.74",
                        "messurementUnit": "g",
                        "ri": "13%",
                        "name": "sugar",
                        "displayUnit": "Sugar (g)",
                        "description": "Sugar: 11.74g",
                        "position": "5",
                        "riPercent": "13.04",
                        "epercent": "8.00%"
                    }, {
                        "dv": "37%",
                        "quantity": "9.2",
                        "dvPercent": "36.8",
                        "rawValue": "9.2",
                        "messurementUnit": "g",
                        "ri": null,
                        "name": "fibre",
                        "displayUnit": "Fibre (g)",
                        "description": "Fibre: 9.2g",
                        "position": "6",
                        "riPercent": null,
                        "epercent": "3.00%"
                    }, {
                        "dv": "47%",
                        "quantity": "30.3",
                        "dvPercent": "46.6",
                        "rawValue": "30.29",
                        "messurementUnit": "g",
                        "ri": "43%",
                        "name": "fat",
                        "displayUnit": "Fat (g)",
                        "description": "Fat: 30.29g",
                        "position": "7",
                        "riPercent": "43.27",
                        "epercent": "48.00%"
                    }, {
                        "dv": "22%",
                        "quantity": "4.5",
                        "dvPercent": "22.3",
                        "rawValue": "4.46",
                        "messurementUnit": "g",
                        "ri": "22%",
                        "name": "saturated_fat",
                        "displayUnit": "Saturated fat (g)",
                        "description": "Saturated fat: 4.46g",
                        "position": "8",
                        "riPercent": "22.3",
                        "epercent": "7.00%"
                    }, {
                        "dv": null,
                        "quantity": "24.4",
                        "dvPercent": null,
                        "rawValue": "24.42",
                        "messurementUnit": "g",
                        "ri": null,
                        "name": "unsaturated_fat",
                        "displayUnit": "Unsaturated fat (g)",
                        "description": "Unsaturated fat: 24.42g",
                        "position": "9",
                        "riPercent": null,
                        "epercent": "38.00%"
                    }, {
                        "dv": null,
                        "quantity": "20.4",
                        "dvPercent": null,
                        "rawValue": "20.36",
                        "messurementUnit": "g",
                        "ri": null,
                        "name": "fatty_acids_monounsaturated",
                        "displayUnit": "Monounsaturated fat (g)",
                        "description": "Monounsaturated fat: 20.36g",
                        "position": "10",
                        "riPercent": null,
                        "epercent": "32.00%"
                    }, {
                        "dv": null,
                        "quantity": "4.1",
                        "dvPercent": null,
                        "rawValue": "4.05",
                        "messurementUnit": "g",
                        "ri": null,
                        "name": "fatty_acids_polyunsaturated",
                        "displayUnit": "Polyunsaturated fat (g)",
                        "description": "Polyunsaturated fat: 4.05g",
                        "position": "11",
                        "riPercent": null,
                        "epercent": "6.00%"
                    }, {
                        "dv": null,
                        "quantity": "0.0",
                        "dvPercent": null,
                        "rawValue": "0",
                        "messurementUnit": "g",
                        "ri": null,
                        "name": "trans_fat",
                        "displayUnit": "Trans fat (g)",
                        "description": "Trans fat: 0g",
                        "position": "12",
                        "riPercent": null,
                        "epercent": "0.00%"
                    }, {
                        "dv": "<1%",
                        "quantity": "0",
                        "dvPercent": "0",
                        "rawValue": "0",
                        "messurementUnit": "mg",
                        "ri": null,
                        "name": "cholesterol",
                        "displayUnit": "Cholesterol (mg)",
                        "description": "Cholesterol: 0mg",
                        "position": "13",
                        "riPercent": null,
                        "epercent": null
                    }, {
                        "dv": "16%",
                        "quantity": "380",
                        "dvPercent": "15.82",
                        "rawValue": "379.61",
                        "messurementUnit": "mg",
                        "ri": null,
                        "name": "sodium",
                        "displayUnit": "Sodium (mg)",
                        "description": "Sodium: 379.61mg",
                        "position": "14",
                        "riPercent": null,
                        "epercent": null
                    }, {
                        "dv": "16%",
                        "quantity": "0.95",
                        "dvPercent": "15.83",
                        "rawValue": "0.95",
                        "messurementUnit": "g",
                        "ri": "16%",
                        "name": "salt",
                        "displayUnit": "Salt (g)",
                        "description": "Salt: 0.95g",
                        "position": "15",
                        "riPercent": "15.83",
                        "epercent": null
                    }, {
                        "dv": "32%",
                        "quantity": "1614",
                        "dvPercent": "32.28",
                        "rawValue": "1614.25",
                        "messurementUnit": "IU",
                        "ri": null,
                        "name": "vitamin_a",
                        "displayUnit": "Vitamin A (IU)",
                        "description": "Vitamin A: 1614.25IU",
                        "position": "16",
                        "riPercent": null,
                        "epercent": null
                    }, {
                        "dv": "65%",
                        "quantity": "39.3",
                        "dvPercent": "65.45",
                        "rawValue": "39.27",
                        "messurementUnit": "mg",
                        "ri": "49%",
                        "name": "vitamin_c",
                        "displayUnit": "Vitamin C (mg)",
                        "description": "Vitamin C: 39.27mg",
                        "position": "17",
                        "riPercent": "49.09",
                        "epercent": null
                    }, {
                        "dv": "18%",
                        "quantity": "178",
                        "dvPercent": "17.82",
                        "rawValue": "178.19",
                        "messurementUnit": "mg",
                        "ri": "22%",
                        "name": "calcium",
                        "displayUnit": "Calcium (mg)",
                        "description": "Calcium: 178.19mg",
                        "position": "18",
                        "riPercent": "22.27",
                        "epercent": null
                    }, {
                        "dv": "45%",
                        "quantity": "8.03",
                        "dvPercent": "44.61",
                        "rawValue": "8.03",
                        "messurementUnit": "mg",
                        "ri": "57%",
                        "name": "iron",
                        "displayUnit": "Iron (mg)",
                        "description": "Iron: 8.03mg",
                        "position": "19",
                        "riPercent": "57.36",
                        "epercent": null
                    }, {
                        "dv": "22%",
                        "quantity": "766",
                        "dvPercent": "21.88",
                        "rawValue": "765.93",
                        "messurementUnit": "mg",
                        "ri": "38%",
                        "name": "potassium",
                        "displayUnit": "Potassium (mg)",
                        "description": "Potassium: 765.93mg",
                        "position": "20",
                        "riPercent": "38.3",
                        "epercent": null
                    }]
                }],
                "chillTime": 0,
                "variations": null,
                "ingredients": {
                    "ungrouped": {
                        "ingredients": [{
                            "quantity": "2",
                            "productId": null,
                            "originalProductId": null,
                            "messurementUnit": "tbsp",
                            "multiple": "1",
                            "description": "2 tablespoons olive oil",
                            "productName": null
                        }, {
                            "quantity": "1",
                            "productId": null,
                            "originalProductId": null,
                            "messurementUnit": null,
                            "multiple": "1",
                            "description": "1 garlic clove, crushed",
                            "productName": null
                        }, {
                            "quantity": "1",
                            "productId": null,
                            "originalProductId": null,
                            "messurementUnit": null,
                            "multiple": "1",
                            "description": "1 shallot, finely chopped",
                            "productName": null
                        }, {
                            "quantity": "1",
                            "productId": null,
                            "originalProductId": null,
                            "messurementUnit": null,
                            "multiple": "1",
                            "description": "Zest and juice of 1 lemon",
                            "productName": null
                        }, {
                            "quantity": "60",
                            "productId": null,
                            "originalProductId": null,
                            "messurementUnit": "ml",
                            "multiple": "1",
                            "description": "60 ml white wine",
                            "productName": null
                        }, {
                            "quantity": "50",
                            "productId": null,
                            "originalProductId": null,
                            "messurementUnit": "g",
                            "multiple": "1",
                            "description": "50 g breadcrumbs",
                            "productName": null
                        }, {
                            "quantity": "4",
                            "productId": "17",
                            "originalProductId": null,
                            "messurementUnit": null,
                            "multiple": "1",
                            "description": "4 dollops Hellmann's Mayonnaise with a hit of Caramelised Onion",
                            "productName": null
                        }, {
                            "quantity": "400",
                            "productId": null,
                            "originalProductId": null,
                            "messurementUnit": "g",
                            "multiple": "1",
                            "description": "400 g fresh asparagus spears, trimmed",
                            "productName": null
                        }],
                        "position": 0
                    }
                },
                "servingSize": null,
                "comments": null,
                "makes": null,
                "dishes": [{
                    "language": "en-GB",
                    "id": 1495,
                    "categoryName": "Vegetables"
                }],
                "ovenTime": 0,
                "relatedRecipes": [{
                    "mainIngredients": [{
                        "language": "en-GB",
                        "id": 1518,
                        "categoryName": "Vegetables"
                    }],
                    "serves": "4",
                    "cookingMethods": [{
                        "language": "en-GB",
                        "id": 1376,
                        "categoryName": "No cook"
                    }],
                    "preparationTime": 10,
                    "rating": [

                    ],
                    "description": "Simple kale salad makes a great dinner side.",
                    "shortTitle": null,
                    "timesOfDay": [

                    ],
                    "title": "Kale Salad",
                    "recipeId": "77647",
                    "cookingTime": 20,
                    "annualEvents": null,
                    "assets": {
                        "image": {
                            "default": [{
                                "size": "316414",
                                "versions": {
                                    "default": [{
                                        "size": "130465",
                                        "versions": null,
                                        "width": "730",
                                        "caption": null,
                                        "thumbUrl": null,
                                        "type": null,
                                        "title": null,
                                        "url": "images-cms/carousel-v2/img-carousel-detail.png",
                                        "height": "410"
                                    }, {
                                        "size": "107659",
                                        "versions": null,
                                        "width": "640",
                                        "caption": null,
                                        "thumbUrl": null,
                                        "type": null,
                                        "title": null,
                                        "url": "images-cms/carousel-v2/img-carousel-detail.png",
                                        "height": "360"
                                    }, {
                                        "size": "47364",
                                        "versions": null,
                                        "width": "300",
                                        "caption": null,
                                        "thumbUrl": null,
                                        "type": null,
                                        "title": null,
                                        "url": "images-cms/carousel-v2/img-carousel-detail.png",
                                        "height": "250"
                                    }],
                                    "original": [{
                                        "size": "316414",
                                        "versions": null,
                                        "width": "688",
                                        "caption": null,
                                        "thumbUrl": null,
                                        "type": null,
                                        "title": null,
                                        "url": "images-cms/carousel-v2/img-carousel-detail.png",
                                        "height": "388"
                                    }]
                                },
                                "width": "688",
                                "caption": "",
                                "thumbUrl": "images-cms/carousel-v2/img-carousel-detail.png",
                                "type": null,
                                "title": "Kale Salad",
                                "url": "images-cms/carousel-v2/img-carousel-detail.png",
                                "height": "388"
                            }]
                        },
                        "video": null
                    },
                    "dietary": {
                        "nutFree": {
                            "stateValue": "unknown"
                        },
                        "eggFree": {
                            "stateValue": "false"
                        },
                        "pregnancySafe": {
                            "stateValue": "true"
                        },
                        "lactoseFree": {
                            "stateValue": "true"
                        },
                        "dairyProductFree": {
                            "stateValue": "true"
                        },
                        "vegetarian": {
                            "stateValue": "true"
                        },
                        "glutenFree": {
                            "stateValue": "unknown"
                        },
                        "wheatFree": {
                            "stateValue": "unknown"
                        },
                        "vegan": {
                            "stateValue": "false"
                        },
                        "paleoFree": {
                            "stateValue": "unknown"
                        },
                        "rawFood": {
                            "stateValue": "false"
                        }
                    },
                    "courses": [{
                        "language": "en-GB",
                        "id": 1401,
                        "categoryName": "Side"
                    }],
                    "seasons": [

                    ],
                    "suitability": null,
                    "freeFormTags": [{
                        "language": "en-GB",
                        "id": 2321,
                        "categoryName": "hellmann's real mayonnaise"
                    }, {
                        "language": "en-GB",
                        "id": 2466,
                        "categoryName": "how to make kale salad"
                    }, {
                        "language": "en-GB",
                        "id": 2237,
                        "categoryName": "hellmann'smayonnaise"
                    }, {
                        "language": "en-GB",
                        "id": 2464,
                        "categoryName": "kale salad recipe,"
                    }, {
                        "language": "en-GB",
                        "id": 2463,
                        "categoryName": "kale salad"
                    }, {
                        "language": "en-GB",
                        "id": 2465,
                        "categoryName": "kale salad recipes"
                    }],
                    "dishes": [{
                        "language": "en-GB",
                        "id": 1495,
                        "categoryName": "Vegetables"
                    }],
                    "shortDescription": null,
                    "cuisines": [

                    ],
                    "spiciness": [

                    ],
                    "difficulties": [{
                        "language": "en-GB",
                        "id": 1457,
                        "categoryName": "Easy"
                    }],
                    "budgets": [{
                        "language": "en-GB",
                        "id": 1369,
                        "categoryName": "Average"
                    }],
                    "culture": "en-GB",
                    "occasions": [

                    ],
                    "originalId": null
                }, {
                    "mainIngredients": [{
                        "language": "en-GB",
                        "id": 1499,
                        "categoryName": "Beef"
                    }],
                    "serves": "4",
                    "cookingMethods": [{
                        "language": "en-GB",
                        "id": 1376,
                        "categoryName": "No cook"
                    }],
                    "preparationTime": 5,
                    "rating": [

                    ],
                    "description": "To give an extra creamy texture and taste to shahi paneer gravy, add 1/4-cup fresh cream instead of 2 tablespoons in step 10 in above recipe. Make sure to remove and discard the whole spices before blending the tomato gravy in mixer-grinder. To give prepared shahi paneer a tempting look, garnish it with a cream.",
                    "shortTitle": "Test REcipe Data",
                    "timesOfDay": [

                    ],
                    "title": "Pastrami Sandwich",
                    "recipeId": "77583",
                    "cookingTime": 15,
                    "annualEvents": null,
                    "assets": {
                        "image": {
                            "default": [{
                                "size": "276152",
                                "versions": {
                                    "default": [{
                                        "size": "93995",
                                        "versions": null,
                                        "width": "640",
                                        "caption": null,
                                        "thumbUrl": null,
                                        "type": null,
                                        "title": null,
                                        "url": "images-cms/recipe-listing/img-carousel-detail.png",
                                        "height": "360"
                                    }, {
                                        "size": "43455",
                                        "versions": null,
                                        "width": "300",
                                        "caption": null,
                                        "thumbUrl": null,
                                        "type": null,
                                        "title": null,
                                        "url": "images-cms/recipe-listing/img-carousel-detail.png",
                                        "height": "250"
                                    }, {
                                        "size": "115298",
                                        "versions": null,
                                        "width": "730",
                                        "caption": null,
                                        "thumbUrl": null,
                                        "type": null,
                                        "title": null,
                                        "url": "images-cms/recipe-listing/img-carousel-detail.png",
                                        "height": "410"
                                    }],
                                    "original": [{
                                        "size": "276152",
                                        "versions": null,
                                        "width": "688",
                                        "caption": null,
                                        "thumbUrl": null,
                                        "type": null,
                                        "title": null,
                                        "url": "images-cms/recipe-listing/img-carousel-detail.png",
                                        "height": "388"
                                    }]
                                },
                                "width": "688",
                                "caption": "",
                                "thumbUrl": "images-cms/recipe-listing/img-carousel-detail.png",
                                "type": null,
                                "title": "Pastrami Sandwich",
                                "url": "images-cms/recipe-listing/img-carousel-detail.png",
                                "height": "388"
                            }]
                        },
                        "video": {
                            "default": [{
                                "videoUrl": "https://youtu.be/nEHyriRnGgA",
                                "videoThumbnilUrl": "~/bundles/fooditymain/images/video.png",
                                "caption": "",
                                "videoVariations": {

                                },
                                "title": ""
                            }]
                        }
                    },
                    "dietary": {
                        "nutFree": {
                            "stateValue": "unknown"
                        },
                        "eggFree": {
                            "stateValue": "true"
                        },
                        "pregnancySafe": {
                            "stateValue": "true"
                        },
                        "lactoseFree": {
                            "stateValue": "false"
                        },
                        "dairyProductFree": {
                            "stateValue": "true"
                        },
                        "vegetarian": {
                            "stateValue": "true"
                        },
                        "glutenFree": {
                            "stateValue": "unknown"
                        },
                        "wheatFree": {
                            "stateValue": "true"
                        },
                        "vegan": {
                            "stateValue": "false"
                        },
                        "paleoFree": {
                            "stateValue": "true"
                        },
                        "rawFood": {
                            "stateValue": "false"
                        }
                    },
                    "courses": [{
                        "language": "en-GB",
                        "id": 1402,
                        "categoryName": "Snack"
                    }],
                    "seasons": [

                    ],
                    "suitability": null,
                    "freeFormTags": [{
                        "language": "en-GB",
                        "id": 2321,
                        "categoryName": "hellmann's real mayonnaise"
                    }, {
                        "language": "en-GB",
                        "id": 2335,
                        "categoryName": "pastrami sandwich recipe"
                    }, {
                        "language": "en-GB",
                        "id": 2237,
                        "categoryName": "hellmann'smayonnaise"
                    }, {
                        "language": "en-GB",
                        "id": 2336,
                        "categoryName": "pastrami sandwich recipes how to make pastrami sandwich"
                    }, {
                        "language": "en-GB",
                        "id": 2334,
                        "categoryName": "pastrami sandwich"
                    }],
                    "dishes": [{
                        "language": "en-GB",
                        "id": 1488,
                        "categoryName": "Sandwiches and rolls"
                    }],
                    "shortDescription": "This delicious pastrami sandwich recipe will make lunchtime great.",
                    "cuisines": [

                    ],
                    "spiciness": [

                    ],
                    "difficulties": [{
                        "language": "en-GB",
                        "id": 1460,
                        "categoryName": "Medium"
                    }],
                    "budgets": [{
                        "language": "en-GB",
                        "id": 1369,
                        "categoryName": "Average"
                    }],
                    "culture": "en-GB",
                    "occasions": [

                    ],
                    "originalId": null
                }, {
                    "mainIngredients": [{
                        "language": "en-GB",
                        "id": 1518,
                        "categoryName": "Vegetables"
                    }],
                    "serves": "4",
                    "cookingMethods": [{
                        "language": "en-GB",
                        "id": 1377,
                        "categoryName": "Boil"
                    }],
                    "preparationTime": 15,
                    "rating": [

                    ],
                    "description": "This creamy sweet potato mash recipe is the ultimate comfort food.",
                    "shortTitle": null,
                    "timesOfDay": [

                    ],
                    "title": "Sweet Potato Mash",
                    "recipeId": "77533",
                    "cookingTime": 25,
                    "annualEvents": null,
                    "assets": {
                        "image": {
                            "default": [{
                                "size": "274780",
                                "versions": {
                                    "default": [{
                                        "size": "41814",
                                        "versions": null,
                                        "width": "300",
                                        "caption": null,
                                        "thumbUrl": null,
                                        "type": null,
                                        "title": null,
                                        "url": "images-cms/recipe-listing/img-carousel-detail.png",
                                        "height": "250"
                                    }, {
                                        "size": "90267",
                                        "versions": null,
                                        "width": "640",
                                        "caption": null,
                                        "thumbUrl": null,
                                        "type": null,
                                        "title": null,
                                        "url": "images-cms/recipe-listing/img-carousel-detail.png",
                                        "height": "360"
                                    }, {
                                        "size": "111243",
                                        "versions": null,
                                        "width": "730",
                                        "caption": null,
                                        "thumbUrl": null,
                                        "type": null,
                                        "title": null,
                                        "url": "images-cms/recipe-listing/img-carousel-detail.png",
                                        "height": "410"
                                    }],
                                    "original": [{
                                        "size": "274780",
                                        "versions": null,
                                        "width": "688",
                                        "caption": null,
                                        "thumbUrl": null,
                                        "type": null,
                                        "title": null,
                                        "url": "images-cms/recipe-listing/img-carousel-detail.png",
                                        "height": "388"
                                    }]
                                },
                                "width": "688",
                                "caption": "",
                                "thumbUrl": "images-cms/recipe-listing/img-carousel-detail.png",
                                "type": null,
                                "title": "Sweet Potato Mash",
                                "url": "images-cms/recipe-listing/img-carousel-detail.png",
                                "height": "388"
                            }]
                        },
                        "video": null
                    },
                    "dietary": {
                        "nutFree": {
                            "stateValue": "unknown"
                        },
                        "eggFree": {
                            "stateValue": "false"
                        },
                        "pregnancySafe": {
                            "stateValue": "true"
                        },
                        "lactoseFree": {
                            "stateValue": "true"
                        },
                        "dairyProductFree": {
                            "stateValue": "true"
                        },
                        "vegetarian": {
                            "stateValue": "true"
                        },
                        "glutenFree": {
                            "stateValue": "true"
                        },
                        "wheatFree": {
                            "stateValue": "unknown"
                        },
                        "vegan": {
                            "stateValue": "false"
                        },
                        "paleoFree": {
                            "stateValue": "unknown"
                        },
                        "rawFood": {
                            "stateValue": "false"
                        }
                    },
                    "courses": [{
                        "language": "en-GB",
                        "id": 1401,
                        "categoryName": "Side"
                    }],
                    "seasons": [{
                        "language": "en-GB",
                        "id": 1544,
                        "categoryName": "Summer"
                    }],
                    "suitability": null,
                    "freeFormTags": [{
                        "language": "en-GB",
                        "id": 2236,
                        "categoryName": "how to make sweet potato mash"
                    }, {
                        "language": "en-GB",
                        "id": 2237,
                        "categoryName": "hellmann'smayonnaise"
                    }, {
                        "language": "en-GB",
                        "id": 2234,
                        "categoryName": "sweet potato mash recipe"
                    }, {
                        "language": "en-GB",
                        "id": 2233,
                        "categoryName": "sweet potato mash"
                    }, {
                        "language": "en-GB",
                        "id": 2235,
                        "categoryName": "sweet potato mash recipes"
                    }, {
                        "language": "en-GB",
                        "id": 2238,
                        "categoryName": "hellmann'sreal mayonnaise"
                    }],
                    "dishes": [{
                        "language": "en-GB",
                        "id": 1495,
                        "categoryName": "Vegetables"
                    }],
                    "shortDescription": null,
                    "cuisines": [

                    ],
                    "spiciness": [

                    ],
                    "difficulties": [{
                        "language": "en-GB",
                        "id": 1460,
                        "categoryName": "Medium"
                    }],
                    "budgets": [{
                        "language": "en-GB",
                        "id": 1369,
                        "categoryName": "Average"
                    }],
                    "culture": "en-GB",
                    "occasions": [

                    ],
                    "originalId": null
                }, {
                    "mainIngredients": [{
                        "language": "en-GB",
                        "id": 1513,
                        "categoryName": "Potatoes"
                    }],
                    "serves": "4",
                    "cookingMethods": [

                    ],
                    "preparationTime": 5,
                    "rating": [

                    ],
                    "description": "Delicious BBQ potatoes with a  smooth dressing made with sundried tomatoes and Hellmann's mayonnaise.",
                    "shortTitle": null,
                    "timesOfDay": [

                    ],
                    "title": "BBQ Roast Potatoes",
                    "recipeId": "76881",
                    "cookingTime": 50,
                    "annualEvents": null,
                    "assets": {
                        "image": {
                            "default": [{
                                "size": "93620",
                                "versions": {
                                    "default": [{
                                        "size": "30496",
                                        "versions": null,
                                        "width": "300",
                                        "caption": null,
                                        "thumbUrl": null,
                                        "type": null,
                                        "title": null,
                                        "url": "images-cms/recipe-listing/img-carousel-detail.png",
                                        "height": "250"
                                    }, {
                                        "size": "86585",
                                        "versions": null,
                                        "width": "730",
                                        "caption": null,
                                        "thumbUrl": null,
                                        "type": null,
                                        "title": null,
                                        "url": "images-cms/recipe-listing/img-carousel-detail.png",
                                        "height": "410"
                                    }, {
                                        "size": "69590",
                                        "versions": null,
                                        "width": "640",
                                        "caption": null,
                                        "thumbUrl": null,
                                        "type": null,
                                        "title": null,
                                        "url": "images-cms/recipe-listing/img-carousel-detail.png",
                                        "height": "360"
                                    }],
                                    "original": [{
                                        "size": "93620",
                                        "versions": null,
                                        "width": "688",
                                        "caption": null,
                                        "thumbUrl": null,
                                        "type": null,
                                        "title": null,
                                        "url": "images-cms/recipe-listing/img-carousel-detail.png",
                                        "height": "388"
                                    }]
                                },
                                "width": "688",
                                "caption": "",
                                "thumbUrl": "images-cms/recipe-listing/img-carousel-detail.png",
                                "type": null,
                                "title": "BBQ roast potatoes",
                                "url": "images-cms/recipe-listing/img-carousel-detail.png",
                                "height": "388"
                            }]
                        },
                        "video": null
                    },
                    "dietary": {
                        "nutFree": {
                            "stateValue": "unknown"
                        },
                        "eggFree": {
                            "stateValue": "false"
                        },
                        "pregnancySafe": {
                            "stateValue": "true"
                        },
                        "lactoseFree": {
                            "stateValue": "true"
                        },
                        "dairyProductFree": {
                            "stateValue": "true"
                        },
                        "vegetarian": {
                            "stateValue": "true"
                        },
                        "glutenFree": {
                            "stateValue": "true"
                        },
                        "wheatFree": {
                            "stateValue": "unknown"
                        },
                        "vegan": {
                            "stateValue": "false"
                        },
                        "paleoFree": {
                            "stateValue": "unknown"
                        },
                        "rawFood": {
                            "stateValue": "false"
                        }
                    },
                    "courses": [{
                        "language": "en-GB",
                        "id": 1401,
                        "categoryName": "Side"
                    }],
                    "seasons": [

                    ],
                    "suitability": null,
                    "freeFormTags": [{
                        "language": "en-GB",
                        "id": 2097,
                        "categoryName": "recipes"
                    }, {
                        "language": "en-GB",
                        "id": 2854,
                        "categoryName": "BBQ-roast-potatoes"
                    }, {
                        "language": "en-GB",
                        "id": 2167,
                        "categoryName": "potato"
                    }],
                    "dishes": [

                    ],
                    "shortDescription": null,
                    "cuisines": [

                    ],
                    "spiciness": [

                    ],
                    "difficulties": [

                    ],
                    "budgets": [

                    ],
                    "culture": "en-GB",
                    "occasions": [

                    ],
                    "originalId": null
                }, {
                    "mainIngredients": [{
                        "language": "en-GB",
                        "id": 1518,
                        "categoryName": "Vegetables"
                    }],
                    "serves": "4",
                    "cookingMethods": [{
                        "language": "en-GB",
                        "id": 1372,
                        "categoryName": "Stir fry"
                    }],
                    "preparationTime": 15,
                    "rating": [

                    ],
                    "description": "Tasty ratatouille prepared with courgette, aubergine, pepper and Hellmann's tomato ketchup",
                    "shortTitle": null,
                    "timesOfDay": [

                    ],
                    "title": "Ratatouille",
                    "recipeId": "76776",
                    "cookingTime": 30,
                    "annualEvents": null,
                    "assets": {
                        "image": {
                            "default": [{
                                "size": "181325",
                                "versions": {
                                    "default": [{
                                        "size": "69659",
                                        "versions": null,
                                        "width": "640",
                                        "caption": null,
                                        "thumbUrl": null,
                                        "type": null,
                                        "title": null,
                                        "url": "images-cms/recipe-listing/img-carousel-detail.png",
                                        "height": "360"
                                    }, {
                                        "size": "32175",
                                        "versions": null,
                                        "width": "300",
                                        "caption": null,
                                        "thumbUrl": null,
                                        "type": null,
                                        "title": null,
                                        "url": "images-cms/recipe-listing/img-carousel-detail.png",
                                        "height": "250"
                                    }, {
                                        "size": "85421",
                                        "versions": null,
                                        "width": "730",
                                        "caption": null,
                                        "thumbUrl": null,
                                        "type": null,
                                        "title": null,
                                        "url": "images-cms/recipe-listing/img-carousel-detail.png",
                                        "height": "410"
                                    }],
                                    "original": [{
                                        "size": "181325",
                                        "versions": null,
                                        "width": "688",
                                        "caption": null,
                                        "thumbUrl": null,
                                        "type": null,
                                        "title": null,
                                        "url": "images-cms/recipe-listing/img-carousel-detail.png",
                                        "height": "388"
                                    }]
                                },
                                "width": "688",
                                "caption": "",
                                "thumbUrl": "images-cms/recipe-listing/img-carousel-detail.png",
                                "type": null,
                                "title": "Ratatouille",
                                "url": "images-cms/recipe-listing/img-carousel-detail.png",
                                "height": "388"
                            }]
                        },
                        "video": null
                    },
                    "dietary": {
                        "nutFree": {
                            "stateValue": "unknown"
                        },
                        "eggFree": {
                            "stateValue": "false"
                        },
                        "pregnancySafe": {
                            "stateValue": "true"
                        },
                        "lactoseFree": {
                            "stateValue": "true"
                        },
                        "dairyProductFree": {
                            "stateValue": "true"
                        },
                        "vegetarian": {
                            "stateValue": "true"
                        },
                        "glutenFree": {
                            "stateValue": "true"
                        },
                        "wheatFree": {
                            "stateValue": "unknown"
                        },
                        "vegan": {
                            "stateValue": "false"
                        },
                        "paleoFree": {
                            "stateValue": "unknown"
                        },
                        "rawFood": {
                            "stateValue": "false"
                        }
                    },
                    "courses": [{
                        "language": "en-GB",
                        "id": 1401,
                        "categoryName": "Side"
                    }],
                    "seasons": [{
                        "language": "en-GB",
                        "id": 1543,
                        "categoryName": "Spring"
                    }, {
                        "language": "en-GB",
                        "id": 1542,
                        "categoryName": "Autumn"
                    }, {
                        "language": "en-GB",
                        "id": 1544,
                        "categoryName": "Summer"
                    }, {
                        "language": "en-GB",
                        "id": 623,
                        "categoryName": "Winter"
                    }],
                    "suitability": null,
                    "freeFormTags": [{
                        "language": "en-GB",
                        "id": 2172,
                        "categoryName": "vegetarian"
                    }, {
                        "language": "en-GB",
                        "id": 2097,
                        "categoryName": "recipes"
                    }, {
                        "language": "en-GB",
                        "id": 2804,
                        "categoryName": "Ratatouille"
                    }],
                    "dishes": [{
                        "language": "en-GB",
                        "id": 1495,
                        "categoryName": "Vegetables"
                    }],
                    "shortDescription": null,
                    "cuisines": [

                    ],
                    "spiciness": [

                    ],
                    "difficulties": [{
                        "language": "en-GB",
                        "id": 1460,
                        "categoryName": "Medium"
                    }],
                    "budgets": [{
                        "language": "en-GB",
                        "id": 1369,
                        "categoryName": "Average"
                    }],
                    "culture": "en-GB",
                    "occasions": [

                    ],
                    "originalId": null
                }],
                "pageDesc": "",
                "spiciness": [{
                    "language": "en-GB",
                    "id": 1546,
                    "categoryName": "Extra Hot"
                }],
                "difficulties": [

                ],
                "culture": "en-GB",
                "pageUrl": "http://localhost:4502/content/whitelabel/en_gb/home/abc.html",
                "originalId": null,
                "recipeRating": {
                    "entityType": "recipe",
                    "entityUrl": "http://www.dove.com",
                    "categoryUrl": "http://www.dove.com",
                    "templateName": "reviewCount",
                    "uniqueId": "77583",
                    "SEO": "<noscript><span itemprop=name>Original Cream Beauty Bathing Bar</span><div itemprop=aggregaterating    itemscope itemtype=http://schema.org/aggregaterating>   <span itemprop=ratingvalue>5.0</span> <span itemprop=bestrating>5</span> <span itemprop=reviewcount>4</span></div></noscript>",
                    "brandName": "dove",
                    "componentVariation": "defaultView",
                    "componentPosition": 1,
                    "locale": "en-IN",
                    "market": "en_in",
                    "SEOApiPath": "http://apac.kritique.io/api/v1/reviews/GetSEOHTML?",
                    "apiBasePath": "http://apac.kritique.io/api/v1",
                    "apiKey": "e9c5e1e0-910c-4697-96ef-ec5dabf09708",
                    "brandId": "1000000003",
                    "brandName": "Dove",
                    "feedDomainUrl": "http://www.dove.com",
                    "id": "rr-widget",
                    "imageSize": "220x220",
                    "localeId": "1000000027",
                    "localeName": "en-in-2.0",
                    "pageNo": "1",
                    "recordsCount": "10",
                    "referer": "http://www.dove.com",
                    "serviceURI": "http://apac.kritique.io/widget/resources/js/RR_widget.js",
                    "sitesource": "dove-in",
                    "sortBy": "ratedon",
                    "syndication": "True",
                    "enabled": "true",
                    "serviceProviderName": "kritique",
                    "componentName": "recipeRating"
                }
            }],
            "brandName": "whitelabel",
            "componentVariation": "list-view",
            "componentPosition": 6,
            "anchorTitle": "Click here to go to link",
            "style": {
                "type": "",
                "class": "carousel-product"
            },
            "recipeConfig": {
                "dietaryAttributes": [{
                    "attributeName": "dairyFree",
                    "label": "Dairy free"
                }, {
                    "attributeName": "eggFree",
                    "label": "Egg free"
                }, {
                    "attributeName": "glutenFree",
                    "label": "Gluten free"
                }, {
                    "attributeName": "lactoseFree",
                    "label": "Lactose free"
                }, {
                    "attributeName": "nutFree",
                    "label": "Nut free"
                }, {
                    "attributeName": "paleoDiet",
                    "label": "Paleo diet"
                }, {
                    "attributeName": "pregnancySafe",
                    "label": "Pregnancy safe"
                }, {
                    "attributeName": "rawFood",
                    "label": "Raw food"
                }, {
                    "attributeName": "vegan",
                    "label": "Vegan"
                }, {
                    "attributeName": "vegetarian",
                    "label": "Vegetarian"
                }],
                "recipeAttributes": [{
                    "attributeName": "brewTime",
                    "label": "Brew time",
                    "suffix": "mins"
                }, {
                    "attributeName": "chillTime",
                    "label": "Chill time",
                    "suffix": "mins"
                }, {
                    "attributeName": "cookingTime",
                    "label": "Cooking Time",
                    "suffix": "mins"
                }, {
                    "attributeName": "freezeTime",
                    "label": "Freeze time",
                    "suffix": "mins"
                }, {
                    "attributeName": "marinateTime",
                    "label": "Marinate time",
                    "suffix": "mins"
                }, {
                    "attributeName": "ovenTime",
                    "label": "Oven time",
                    "suffix": "mins"
                }, {
                    "attributeName": "preparationTime",
                    "label": "Prep time",
                    "suffix": "mins"
                }, {
                    "attributeName": "serves",
                    "label": "Feeds",
                    "suffix": "People"
                }],
                "subHeadingText": "<p>Sub heading</p>\r\n",

                "recipeRating": true,
                "featureTags": [{
                    "tagPath": "unilever:dove/product/scent/generic/aromatic",
                    "tagName": "aromatic"
                }, {
                    "tagPath": "unilever:dove/product/scent/generic/marine",
                    "tagName": "marine"
                }, {
                    "tagPath": "unilever:dove/product/scent/generic/warm-powder",
                    "tagName": "warm powder"
                }],
                "totalCount": 8,
                "static": {
                    "firstLabel": "First",
                    "lastLabel": "Last",
                    "previousLabel": "Previous",
                    "nextLabel": "Next"
                },
                "sortConfig": {
                    "defaultSortOption": "alphabetical",
                    "sortOptions": [{
                        "sortlabel": "Title",
                        "sortValue": "alphabetical"
                    }, {
                        "sortlabel": "Average rating (high to low)",
                        "sortValue": "averageRating"
                    }, {
                        "sortlabel": "Cooking time (low to high)",
                        "sortValue": "cookingTime"
                    }, {
                        "sortlabel": "Newest",
                        "sortValue": "newest"
                    }, {
                        "sortlabel": "Preparation time (low to high)",
                        "sortValue": "preparationTime"
                    }, {
                        "sortlabel": "Recently updated",
                        "sortValue": "recentlyUpdated"
                    }],
                    "sortParams": {
                        "isSortingRequired": "sr",
                        "isSortInAccendingOrder": "ao",
                        "pageIndex": "pi",
                        "sortingCategory": "sc",
                        "recipeIdList": "ril",
                        "pageSize": "ps"
                    }
                },
                "pagination": {
                    "itemsPerPage": 2,
                    "paginationType": "pagination",
                    "paginationCtaLabel": "Load More"
                },
                "filterConfig": {
                    "heading": "Filter Parent heading",
                    "showFilter": true,
                    "filterOptions": [{
                        "heading": "1st Heading",
                        "subHeading": "1st SubHeading",
                        "displayFormat": "dropdown",
                        "defaultValue": "filter default value",
                        "class": "class A",
                        "filters": [{
                            "tagID": "unilever:whitelabel/recipes/rms/budget/1369",
                            "title": "Average"
                        }, {
                            "tagID": "unilever:whitelabel/recipes/rms/budget/1370",
                            "title": "Budget"
                        }]
                    }, {
                        "heading": "2nd Heading",
                        "subHeading": "2nd SubHeading",
                        "displayFormat": "checkBox",
                        "defaultValue": "filter default value",
                        "class": "class A",
                        "filters": [{
                            "tagID": "unilever:whitelabel/recipes/rms/budget/1371",
                            "title": "Summer"
                        }, {
                            "tagID": "unilever:whitelabel/recipes/rms/budget/1373",
                            "title": "Winter"
                        }]
                    }, {
                        "heading": "3rd Heading",
                        "subHeading": "3rd SubHeading",
                        "displayFormat": "radioButton",
                        "defaultValue": "filter default value 2",
                        "class": "class B",
                        "filters": [{
                            "tagID": "unilever:whitelabel/recipes/rms/cooking method/1372",
                            "title": "Stir fry"
                        }, {
                            "tagID": "unilever:whitelabel/recipes/rms/cooking method/1374",
                            "title": "Blanch"
                        }, {
                            "tagID": "unilever:whitelabel/recipes/rms/cooking method/1376",
                            "title": "No cook"
                        }, {
                            "tagID": "unilever:whitelabel/recipes/rms/cooking method/1377",
                            "title": "Boil"
                        }, {
                            "tagID": "unilever:whitelabel/recipes/rms/cooking method/1378",
                            "title": "Deep fry"
                        }, {
                            "tagID": "unilever:whitelabel/recipes/rms/cooking method/1379",
                            "title": "Fry"
                        }, {
                            "tagID": "unilever:whitelabel/recipes/rms/cooking method/1380",
                            "title": "Grill"
                        }, {
                            "tagID": "unilever:whitelabel/recipes/rms/cooking method/1382",
                            "title": "Microwave"
                        }, {
                            "tagID": "unilever:whitelabel/recipes/rms/cooking method/1384",
                            "title": "Bake"
                        }, {
                            "tagID": "unilever:whitelabel/recipes/rms/cooking method/1385",
                            "title": "Roast"
                        }, {
                            "tagID": "unilever:whitelabel/recipes/rms/cooking method/1387",
                            "title": "Simmer"
                        }, {
                            "tagID": "unilever:whitelabel/recipes/rms/cooking method/1389",
                            "title": "Braise"
                        }, {
                            "tagID": "unilever:whitelabel/recipes/rms/cooking method/1393",
                            "title": "Barbecue"
                        }]
                    }],
                    "filterParamName": "fl",
                    "pageNoParamName": "pn",

                    "ajaxURL": "http://aali.unileversolutions.com/content/whitelabel/en_gb/rms-home/recipe/Mushroom%20crispy%20pasta/_jcr_content/content_par_12_column/recipelisting_47676736.data.json"
                },
                "noResultsMessage": "We could not find any recipes meeting your search criteria.",
                "alternateResultsMessage": "How about one of these?",
                "resultSummaryText": "We have <span>placeholderForNumberOfRecipes</span> recipes for you",
                "filtersSummaryPrefix": "Filtered by:",

                "additionalFiltersCtaLabel": "More filters",
                "applyFilterCtaLabel": "Apply filter",
                "cancelFilterCtaLabel": "Cancel",
                "resetFiltersCtaLabel": "Clear filters",

                "stickyNavHeading": "Refine your recipes",
                "stickyNavAdditionalFiltersCtaLabel": "See filters",

                "ctaLabel": "cta label",
                "componentUsageContext": "fixedList",

                "market": "en_gb",
                "analytics": {
                    "usageContext": "",
                    "eventType": ""
                },
                "headingText": "heading"

            },
            "componentName": "recipeListing",
            "locale": "en-GB"
        },
        "resourceType": "unilever-iea/components/recipeListing"
    },
    "responseHeader": {
        "messages": [

        ],
        "status": "200"
    }
}
