{
  "data": {
    "path": "/content/whitelabel/en_gb/group-test-pages/test/_jcr_content/flexi_hero_par/checkoutform",
    "componentType": "checkoutForm",
    "checkoutForm": {
      "formid": "_content_whitelabel_en_gb_group-test-pages_test_jcr_content_flexi_hero_par_checkoutform",
      "componentVariation": "defaultView",
      "clientSideRendering": false,
      "textIsRich": [
        "true",
        "true"
      ],
      "formEndConfig": {
        "name": "Pay ",
        "sling:resourceType": "unilever-iea/components/unilever-forms/formEnd"
      },
      "componentPosition": 2,
      "isContainer": true,
      "sling:resourceType": "unilever-iea/components/unilever-forms/checkoutForm",
      "isAjax": true,
      "formAction": "Form Action",
      "type": "type-a",
      "locale": "en-GB",
      "analytics": {
        "usageContext": "Article",
        "eventType": "Conversion"
      },
      "randomNumber": [
        "3243",
        "3243"
      ],
      "action": "/content/usergenerated/whitelabel/en_gb/group-test-pages/test/_undefined1467117447117",
      "formElementsConfig": [
        {
          "formElement": {
            "dropdownOptions": {
              "Please select": "",
              "Mr": "Mr",
              "Mrs": "Mrs",
              "Ms": "Ms",
              "Miss": "Miss"
            },
            "hideTitle": false,
            "defaultValue": "",
            "name": "billingAddress-honorificPrefix",
            "viewType": "select",
            "description": "",
            "rules": [
              {
                "msg": "",
                "required": false
              }
            ],
            "label": "Title",
            "multiSelection": false
          }
        },
        {
          "formElement": {
            "hideTitle": false,
            "defaultValue": "",
            "name": "billingAddress-name",
            "viewType": "text",
            "description": "",
            "rules": [
              {
                "msg": "Please enter full name.",
                "required": true
              },
              {
                "msg": "Please enter at least 2 characters.",
                "pattern": "^[a-zA-Z\\s]+"
              }
            ],
            "subType": "text",
            "label": "Full Name",
            "multivalue": false
          }
        },
        {
          "formElement": {
            "hideTitle": false,
            "defaultValue": "",
            "name": "billingAddress-streetAddress1",
            "viewType": "text",
            "description": "",
            "rules": [
              {
                "msg": "Please enter billing address 1.",
                "required": true
              },
              {
                "msg": "Please enter at least 2 characters.",
                "pattern": ""
              }
            ],
            "subType": "text",
            "label": "Address 1",
            "multivalue": false
          }
        },
        {
          "formElement": {
            "hideTitle": false,
            "defaultValue": "",
            "name": "billingAddress-streetAddress2",
            "viewType": "text",
            "description": "",
            "rules": [
              {
                "msg": "Please enter billing address 2.",
                "required": true
              },
              {
                "msg": "Please enter at least 2 characters.",
                "pattern": ""
              }
            ],
            "subType": "text",
            "label": "Address 2",
            "multivalue": false
          }
        },
        {
          "formElement": {
            "hideTitle": false,
            "defaultValue": "",
            "name": "billingAddress-city",
            "viewType": "text",
            "description": "",
            "rules": [
              {
                "msg": "Please enter billing town/city.",
                "required": true
              },
              {
                "msg": "Please enter at least 2 characters.",
                "pattern": ""
              }
            ],
            "subType": "text",
            "label": "Town/City",
            "multivalue": false
          }
        },
        {
          "formElement": {
            "hideTitle": false,
            "defaultValue": "",
            "name": "billingAddress-postalcode",
            "viewType": "text",
            "description": "",
            "rules": [
              {
                "msg": "Please enter billing postcode.",
                "required": true
              },
              {
                "msg": "Please enter at least 2 characters.",
                "pattern": ""
              }
            ],
            "subType": "text",
            "label": "Post Code",
            "multivalue": false
          }
        },
        {
          "formElement": {
            "dropdownOptions": {
              "Please select": "",
              "United Kingdom": "United Kingdom"
            },
            "hideTitle": false,
            "defaultValue": "",
            "name": "billingAddress-country",
            "viewType": "select",
            "description": "",
            "rules": [
              {
                "msg": "Please select a country.",
                "required": true
              }
            ],
            "label": "Country",
            "multiSelection": false
          }
        },
        null,
        {
          "formcheckbox": {
            "showMandatory": false,
            "name": "deliveryAddress-sameasbilling",
            "viewType": "checkbox",
            "description": "My delivery address and billing address are same.",
            "rules": [
              {
                "msg": null,
                "required": false
              }
            ]
          }
        },
        {
          "formElement": {
            "dropdownOptions": {
              "Please select": "",
              "Mr": "Mr",
              "Mrs": "Mrs",
              "Ms": "Ms",
              "Miss": "Miss"
            },
            "hideTitle": false,
            "defaultValue": "",
            "name": "deliveryAddress-honorificPrefix",
            "viewType": "select",
            "description": "",
            "rules": [
              {
                "msg": "",
                "required": false
              }
            ],
            "label": "Title",
            "multiSelection": false
          }
        },
        {
          "formElement": {
            "hideTitle": false,
            "defaultValue": "",
            "name": "deliveryAddress-name",
            "viewType": "text",
            "description": "",
            "rules": [
              {
                "msg": "Please enter full name.",
                "required": true
              },
              {
                "msg": "Please enter at least 2 characters.",
                "pattern": "^[a-zA-Z\\s]+"
              }
            ],
            "subType": "text",
            "label": "Full Name",
            "multivalue": false
          }
        },
        {
          "formElement": {
            "hideTitle": false,
            "defaultValue": "",
            "name": "deliveryAddress-streetAddress1",
            "viewType": "text",
            "description": "",
            "rules": [
              {
                "msg": "Please enter the delivery address 1.",
                "required": true
              },
              {
                "msg": "Please enter at least 2 characters.",
                "pattern": ""
              }
            ],
            "subType": "text",
            "label": "Address 1",
            "multivalue": false
          }
        },
        {
          "formElement": {
            "hideTitle": false,
            "defaultValue": "",
            "name": "deliveryAddress-streetAddress2",
            "viewType": "text",
            "description": "",
            "rules": [
              {
                "msg": "Please enter the delivery address 2.",
                "required": true
              },
              {
                "msg": "Please enter at least 2 characters.",
                "pattern": ""
              }
            ],
            "subType": "text",
            "label": "Address 2",
            "multivalue": false
          }
        },
        {
          "formElement": {
            "hideTitle": false,
            "defaultValue": "",
            "name": "deliveryAddress-city",
            "viewType": "text",
            "description": "",
            "rules": [
              {
                "msg": "Please enter delivery town/city.",
                "required": true
              },
              {
                "msg": "Please enter at least 2 characters.",
                "pattern": ""
              }
            ],
            "subType": "text",
            "label": "Town/City",
            "multivalue": false
          }
        },
        {
          "formElement": {
            "hideTitle": false,
            "defaultValue": "",
            "name": "deliveryAddress-postalcode",
            "viewType": "text",
            "description": "",
            "rules": [
              {
                "msg": "Please enter the delivery postcode.",
                "required": true
              },
              {
                "msg": "Please enter at least 2 characters.",
                "pattern": ""
              }
            ],
            "subType": "text",
            "label": "Postcode",
            "multivalue": false
          }
        },
        {
          "formElement": {
            "dropdownOptions": {
              "Please select": "",
              "United Kingdom": "United Kingdom"
            },
            "hideTitle": false,
            "defaultValue": "",
            "name": "deliveryAddress-country",
            "viewType": "select",
            "description": "",
            "rules": [
              {
                "msg": "Please select a country.",
                "required": true
              }
            ],
            "label": "Country",
            "multiSelection": false
          }
        },
        null,
        {
          "formElement": {
            "hideTitle": false,
            "defaultValue": "",
            "name": "contact-phoneNumbers-value",
            "viewType": "text",
            "description": "",
            "rules": [
              {
                "msg": "",
                "required": false
              },
              {
                "msg": "Please enter a valid phone number.",
                "pattern": "^[0-9+#*()\\.\\-\\s]{8,20}$"
              }
            ],
            "subType": "text",
            "label": "Contact telephone number",
            "multivalue": false
          }
        },
        {
          "formElement": {
            "hideTitle": false,
            "defaultValue": "",
            "name": "contact-email",
            "viewType": "text",
            "description": "",
            "rules": [
              {
                "msg": "Please enter email address.",
                "required": true
              },
              {
                "msg": "Please enter your valid email address.",
                "pattern": "^[a-zA-Z0-9_+-]+(.[a-zA-Z0-9_+-]+)*@[a-zA-Z0-9\\-]+(.[a-zA-Z0-9-]+)*(.[a-zA-Z]{1,})$"
              }
            ],
            "subType": "text",
            "label": "Contact email address",
            "multivalue": false
          }
        },
        {
          "formElement": {
            "hideTitle": false,
            "defaultValue": "",
            "name": "contact-confirmemail",
            "viewType": "text",
            "description": "",
            "rules": [
              {
                "msg": "Please enter email address.",
                "required": true
              },
              {
                "msg": "Please enter your valid email address.",
                "pattern": "^[a-zA-Z0-9_+-]+(.[a-zA-Z0-9_+-]+)*@[a-zA-Z0-9\\-]+(.[a-zA-Z0-9-]+)*(.[a-zA-Z]{1,})$"
              }
            ],
            "subType": "text",
            "label": "Confirm contact email address",
            "multivalue": false
          }
        },
        {
          "bodyCopy": {
            "publishDate": null,
            "description": ""
          }
        },
        null,
        null,
        null,
        {
          "formcheckbox": {
            "showMandatory": false,
            "name": "optIn-onlineBrand",
            "viewType": "checkbox",
            "description": "Please tick the box to receive exciting news, offers and competitions ONLINE about Dove",
            "rules": [
              {
                "msg": null,
                "required": false
              }
            ]
          }
        },
        {
          "formcheckbox": {
            "showMandatory": false,
            "name": "optIn-onlineAll",
            "viewType": "checkbox",
            "description": "Please tick the box to receive exciting news, offers and competitions ONLINE about other Unilever UK Ltd brands or services.",
            "rules": [
              {
                "msg": null,
                "required": false
              }
            ]
          }
        },
        {
          "formcheckbox": {
            "showMandatory": false,
            "name": "optIn-smsBrand",
            "viewType": "checkbox",
            "description": "Please tick the box if you would also like to receive news and offers via SMS about Dove.  ",
            "rules": [
              {
                "msg": null,
                "required": false
              }
            ]
          }
        },
        {
          "bodyCopy": {
            "publishDate": null,
            "description": ""
          }
        },
        {
          "orderSummary": {
            "label": "Order summary",
            "totalLabel": "Total",
            "deliveryLabel": "Delivery",
            "giftWrappingLabel": "Gift wrapping",
            "quantityLabel": "Qty",
            "freeLabel": "FREE",
            "deliveryDetail": {
              "encryptedDeliveryPrice": "2b6jrRt/Bw7Uhw6jIDk87Q==",
              "deliveryTooltip": "cloud can aim to deliver to your chosen address within 5 - 7 business days (Monday to Friday). We are currently unable to guarantee delivery on a specific date - please order early to avoid disappointment.",
              "deliveryPrice": "1",
              "deliveryConditionsCopy": "FREE and free  standard UK delivery included"
            }
          }
        },
        {
          "paymentForm": {
            "urlMap": {
              "purchaseConfirmationPageURL": "/content/whitelabel/en_us/home/purchase-confirmation.html",
              "dyanamicErrorPageURL": "/content/whitelabel/en_us/home/error.html"
            },
            "clientToken": "",
            "fields": {
              "payPalButtonLabel": "Pay with PayPal",
              "toolTip": "Security code tooltip",
              "cardNumberLabel": "card number",
              "expiryDateMonthPlaceholder": "MM",
              "cvvLabel": "CVV/CCV",
              "expiryDateLabel": "expiry date",
              "expiryDateYearPlaceholder": "YY",
              "cardPayButtonLabel": "pay with card",
              "errormsg": {
                "description": "There Seems to be a problem processing your payment,the card details you have supplied appears to be incorrect,please try again.",
                "title": "Oops, Please try again"
              }
            },
            "title": "Secure Payment"
          }
        },
        {
          "formcheckbox": {
            "showMandatory": true,
            "name": "optIn-termsConditions",
            "viewType": "checkbox",
            "description": "<p>I accept the <a href=\"/content/whitelabel/en_gb/home/terms-of-use.html\" target=\"_blank\">terms and conditions</a>.</p>\r\n",
            "rules": [
              {
                "msg": "Please select terms and conditions checkbox.",
                "required": true
              }
            ]
          }
        }
      ],
      "componentName": "checkoutForm",
      "class": "test",
      "brandName": "whitelabel",
      "method": "GET",
      "analyticsEventType": "Conversion",
      "clientSideComponentName": "checkout-form",
      "configurejson": "Article",
      "successMessage": "<p>Success Message<br>\r\n</p>\r\n",
      "market": "en_gb",
      "actionType": "store-content",
      "servletPath": "/uk/secure/product-gifting/checkout-page.dcstransactionpost.html",
      "anchorTitle": "Click here to go to link",
      "viewType": "defaultView",
      "successConfig": "message",
      "style": {
        "type": "type-a",
        "class": "test"
      },
      "failureMessage": "<p>Failure Message<br>\r\n</p>\r\n"
    },
    "ajaxURL": "/content/whitelabel/en_gb/group-test-pages/test/_jcr_content/flexi_hero_par/checkoutform.data.ajax.json",
    "clientSideRendering": false,
    "viewType": "defaultView",
    "randomNumber": [
      "3243",
      "3243"
    ],
    "isContainer": true,
    "resourceType": "unilever-iea/components/unilever-forms/checkoutForm"
  }
}