{
  "data": {
    "path": "/content/whitelabel/en_us/test_spot/_jcr_content/flexi_hero_par/spotlight",
    "componentType": "spotlight",
    "ajaxURL": "/content/whitelabel/en_us/test_spot/_jcr_content/flexi_hero_par/spotlight.data.ajax.json",
    "clientSideRendering": false,
    "viewType": "defaultView",
    "randomNumber": "537",
    "isContainer": false,
    "featuredContent": {
     "style":{
            "type":"type-a",
            "class":"featured-content-recipe-home"
         },
     "teaserTitle":"Spotlight With Background",
     "teaserCopy":"",
      "teaserLongCopy":"",

      "brandName": "whitelabel",
      "componentVariation": "defaultView",
      "endDate": "2017-04-30T00:00:00.000+05:30",
      "isfeatureTagsPresent": true,
      "appliedFeatureTags": "",
      "imagePosition": "",
      "backgroundImage": {
          "url": "images-cms/featured-content/recipes-home/recipe1",
          "fileName": "recipe1",
          "isNotAdaptiveImage": false,
          "extension": "jpg",
          "altImage": "test",
          "title": "test",
          "path":"images-cms/featured-content/recipes-home/recipe1"
      },
      "componentPosition": 1,
      "expiryNotice": "notice",
      "title": "Lorem ipsum dolor sit amet",
      "locale": "en-US",
      "teaserImage": {
        "url": "images-cms/featured-content/recipes-home/recipe1",
        "fileName": "recipe1",
        "isNotAdaptiveImage": false,
        "extension": "jpg",
        "altImage": "facebook",
        "title": "facebook",
        "path": "images-cms/featured-content/recipes-home/recipe1"
      },
      "mode": "Manual",
      "market": "en_us",
      "cta": {
        "labelText": "",
        "ctaUrl": "http://aalq.unileversolutions.com/content/whitelabel/en_gb/home/hair-care/damaged-hair-repair.html",
        "openInNewWindow": true
      },
      "pageType": "product",
      "teaserTitle": "Lorem ipsum dolor sit amet",
      "theme": "light",
      "componentName": "spotlight",
      "startDate": ""
    },
    "resourceType": "unilever-iea/components/spotlight"
  },
  "responseHeader": {
    "messages": [

    ],
    "status": "200"
  }
}