{
    "data": {
        "featuredProductRange": {
            "brandName": "whitelabel",
            "viewType": "",
            "anchorLinkNavigation": {
                "showAsNavigation": "true",
                "label": "featured Product Range",
                "id": "featuredProductRange327"
            },
            "type": "auto",
            "theme": "Light",
            "productImageSize": "Standard",
            "productImagePosition": "Right",
            "textPosition": "Center",
            "backgroundImage": {
                "extension": "jpg",
                "title": "background",
                "path": "/images-cms/product-feature/bg-paper",
                "alt": "background"
            },
            "productImage": {
                "extension": "png",
                "title": "background",
                "path": "/images-cms/product-feature/pr-pure-care-dry-oil-from-above",
                "altImage": "background"
            },
            "productName": "Product Name up to 70 characters",
            "productShortCopy": "Short Description up to 140 characters a ullamcorper parturient ut sed a maecenas consectetur ut cum cras dis nascetur parturient.",
            "cta": {
                "labelText": "find out more",
                "navigationURL": "#",
                "alt": "product page link",
                "openInWindow": "true",
                "containertag": {
                    "category": "category",
                    "action": "action",
                    "information": "information",
                    "attr": "attr"
                }
            }
        },
        "path": "/content/unilever-iea/en_us/product-detail/_jcr_content/flexi_hero_par/featuredproductrange",
        "clientSideRendering": false,
        "randomNumber": "327",
        "viewType": "defaultView",
        "componentType": "featuredProductRange",
        "isContainer": false,
        "resourceType": "unilever-iea/components/featuredProductRange"
    },
    "responseHeader": {
        "status": "200",
        "messages": []
    }
}