{
  "data": {
      "heroV2": {
        "generalConfig":{
      "secondary":{
        "ctaUrl":"",
        "ctaLabel":"",
        "openInNewWindow":true
      },
      "headingText":"Contact us",
      "longSubheadingText":"",
      "shortSubheadingText":"",
      "heroType":"image",
      "primary":{
        "ctaUrl":"",
        "ctaLabel":"",
        "openInNewWindow":false
      }
          },
          "image":{
            "url":"http://localhost:9000/images/hero-v2/contact-us/hero-contact-us-1.png",
            "fileName":"",
            "isNotAdaptiveImage":false,
            "extension":"png",
            "altImage":"Contact Us",
            "title":"",
            "path":"images-cms/hero-v2/contact-us/hero-contact-us-1",
            "carousalPanelName":"Carousel Panel Name"
          },
          "readMore":{
           "isReadMoreEnable": false,
           "readLess":"Show less",
           "readMore":"Read more"
          },
          "brandName":"whitelabel",
        "market":"en_gb",
        "locale":"en-GB",
        "componentVariation":"imageView",
        "componentPosition":1,
        "componentName":"heroV2",
          "viewType": "imageView",
        "style":{
          "type":"type-a",
          "class":"full-hero"
        }
      },
      "viewType": "defaultView",
      "componentType": "hero-v2",
      "isContainer": false
  }
}
