{
    "responseHeader": {
        "status": "200",
        "messages": []
    },
    "data": {
        "hero": {
			"brandName": "whitelabel",
            "viewType": "small",
            "instanceType": "takeover",
            "isTakeOverContentActive": "false",
			"type" : "video",
            "videoType": "youtube",
            "video" : {
                "id" : "KQT6wgwzxSA",
                "previewImageUrl": {
                    "path": "/images-cms/hero/hero",
                    "title": "image title",
                    "alt": "",
                    "extension": "jpg",
                    "fileName": "01",
                    "previewImageUrl": "/images-cms/hero/hero.enscale.01.full.png"
                }
            },
            "image": {
                "fileName": "01",
                "extension": "jpg",
                "alt": "",
                "title": "",
                "path": "/images-cms/hero/hero",
                "imageUrl": "/images-cms/hero/hero.enscale.01.full.jpg"
            },
            "headline": "Welcome to D2 Platform",
            "introCopy": "Lorem ipsum dolor sit amet, ac rutrum erat nibh nisl, porttitor ut aliquam quis. Erat nibh nisl, porttitor ut aliquam quis .Lorem ipsum dolor sit amet, ac rutrum erat nibh nisl, porttitor ut aliquam quis. Erat nibh nisl, porttitor ut aliquam quis .",
			"isReadMoreEnable": "true",
            "label": {
                "readMore": "Read more",
                "readLess": "Show less"
            }
        },
        "randomNumber": "575",
        "path": "/content/test1/_jcr_content/flexi_hero_par/hero_new",
        "clientSideRendering": false,
        "viewType": "small",
        "componentType": "hero_new",
        "isContainer": false,
        "resourceType": "unilever-iea/components/hero_new",
        "brandName": "whitelabel"
    }
}
