{
    "responseHeader": {
        "status": "200",
        "messages": []
    },
    "data": {        
    	"randomNumber": "404",
        "notFound": {
            "status":"404",
            "details":"Page not Found"
        },
        "path": "",
        "clientSideRendering": true,
        "viewType": "defaultView",
        "componentType": "notFound",
        "isContainer": false
    }
}
