{
    "data": {
        "pageDivider": {
            "viewType": "pageDividerVariantA"
        },
        "viewType": "defaultView",
        "componentType": "pageDivider",
        "isContainer": false
    }
}
