{
    "data": {
        "randomNumber": "25",
        "productCopy": {
            "brandName": "whitelabel",
            "headline": "Lorem Ipsum",
            "description": [
                {
                    "text": "<h3>Lorem ipsum dolor sit amet, ac rutrum erat nibh nisl, porttitor ut aliquam quis. Erat nibh nisl, porttitor ut aliquam quis </h3> <h3>Lorem ipsum dolor sit amet, ac rutrum erat nibh nisl, porttitor ut aliquam quis. Erat nibh nisl, porttitor ut aliquam quis .</h3>"
                },
                {
                    "text": "<p>Lorem ipsum dolor sit amet, ac rutrum erat nibh nisl, porttitor ut aliquam quis. Erat nibh nisl, porttitor ut aliquam quis . Lorem ipsum dolor sit amet, ac rutrum erat nibh nisl, porttitor ut aliquam quis. Erat nibh nisl, porttitor ut aliquam quis .</p> <p>Lorem ipsum dolor sit amet, ac rutrum erat nibh nisl, porttitor ut aliquam quis. Erat nibh nisl, porttitor ut aliquam quis .</p> <p>Lorem ipsum dolor sit amet, ac rutrum erat nibh nisl, porttitor ut aliquam quis. Erat nibh nisl, porttitor ut aliquam quis .</p>"
                }
            ]
        },
        "viewType": "defaultView",
        "componentType": "productCopy",
        "isContainer": false,
        "clientSideRendering": true
    }
}