{
    "data": {
        "path": "/content/whitelabel/en_gb/home/whitelabel-testing/_jcr_content/flexi_hero_par/richtext_1663526591",
        "componentType": "richText",
        "ajaxURL": "/content/whitelabel/en_gb/home/whitelabel-testing/_jcr_content/flexi_hero_par/richtext_1663526591.data.ajax.json",
        "clientSideRendering": false,
        "viewType": "defaultView",
        "randomNumber": "991",
        "isContainer": false,
        "richTextV2": {
            "market": "en_gb",
            "brandName": "whitelabel",
            "componentVariation": "defaultView",
            "componentPosition": 9,
            "publishDate": null,
            "description": "Get great recipes and tips from our email newsletter",
        "style":{
            "type":"type-a",
            "class":"title-page-where-to-buy-results"
        },
        "componentName": "Rich Text V2",
        "locale": "en-GB"
    },
    "resourceType": "unilever/components/richText"
    }
}
