{
  "data": {
    "componentType": "adaptiveImage",
    "path": "/content/whitelabel/flexi/_jcr_content/flexi_hero_par/columncontrol_1609113340/container_par_1/adaptiveimage",
    "adaptiveImage": {
      "selectCropOption_mobL": "default",
      "extension": "png",
      "fileName": "",
      "selectCropOption_mobP": "default",
      "isTop_web": "toppp",
      "clientSideRendering": false,
      "alt": "alt",
      "completeUrl": "/content/unilever/en_us/contactus.html",
      "isTop_tabP": "true",
      "title": "title",
      "windowType": "Yes",
      "path": "/content/whitelabel/flexi/jcr:content/flexi_hero_par/columncontrol_1609113340/container_par_1/adaptiveimage",
      "selectCropOption_tabP": "default",
      "selectCropOption_web": "default",
      "imageURL": "/content/dam/testautopublish/dove-auto-publish.jpg",
      "selectCropOption_tabL": "default",
      "linkURL": "/content/unilever/en_us/contactus",
      "viewType": "defaultView",
      "componentName": "adaptiveImage",
      "fileReference": "images-cms/common/small_gray_icon"
    },
    "clientSideRendering": false,
    "randomNumber": null,
    "viewType": "defaultView",
    "isContainer": false,
    "resourceType": "unilever-iea/components/adaptiveImage"
  }
}