{
    "responseHeader": {
        "status": "200",
        "messages": []
    },
    "data": {
        "randomNumber": "998",
        "clientSideRendering": false,
        "ajaxURL": "/content/whitelabel/en_gb/home/whitelabel-refactoring/_jcr_content/flexi_hero_par/socialshareprint.data.ajax.json",
        "path": "/content/iea/en_us/home/_jcr_content/flexi_par/socialshareprint",
        "socialSharePrint": {
            "brandName": "whitelabel",
            "componentVariation": "defaultView",
            "componentPosition": 2,
            "sharectaicon": "images/social-share-print/print.png",
            "shareUrl": "http://google.com",
            "shareTitle": "Share",
            "addThisOptions": [
                "pinterest_share",
                "facebook",
                "twitter",
                "gmail"
            ],
            "randomNumber": "998",
            "printctaicon": "images/social-share-print/print.png",
            "locale": "en-GB",
            "market": "en_gb",
            "analytics": {
                "usageContext": "",
                "eventType": ""
            },
            "style": {
                "type": "type-a",
                "class": "custom class"
            },
            "componentName": "Social Share and Print",
            "printTitle": "Print"
        },
        "resourceType": "unilever-iea/components/socialSharePrint",
        "viewType": "defaultView",
        "componentType": "socialSharePrint",
        "isContainer": false
    }
}