{
	"data": {
		"path": "/uk//test_01feb/_jcr_content/flexi_hero_par/socialgallerycarouselexpanded",
		"componentType": "socialGalleryCarouselExpanded",
		"ajaxURL": "/uk//test_01feb/_jcr_content/flexi_hero_par/socialgallerycarouselexpanded.data.ajax.json",
		"clientSideRendering": false,
		"viewType": "defaultView",
		"randomNumber": "730",
		"isContainer": false,
		"socialGalleryCarouselExpanded": {
			"type": "manual",
			"market": "en_gb",
			"brandName": "whitelabel",
			"title": "Social Gallery Carousel Expanded",
			"introCopy": "Lorem Ipsum is simply dummy text of the printing and typesetting industry. Lorem Ipsum has been the industry's standard dummy text ever since the 1500s, when an unknown printer took a galley of type and scrambled it to make a type specimen book. It has survived not only five centuries, but also the lea",
			"cta": {
				"label": "CTA",
				"url": "/content/whitelabel/en_gb/home.html"
			},
			"componentName": "socialGalleryCarouselExpanded",
			"retrivalQueryParams": {
				"numberOfPosts": 6,
				"brandNameParameter": "WhiteLabel",
				"maximumImages": 25,
				"requestServletUrl": "data/social-gallery-results.json",
				"hashTags": [{
					"Id": "123213"
				}, {
					"Id": "654646"
				}],
				"socialChannelNames": [{
					"name": "twitter"
				}, {
					"name": "instagram"
				}]
			},
			"editorSocialImages": [
				{
	                "copy": "\nNice Hair. Looks Like Silky and Strong #whitelabel #bathroom #bath #shower#soft#beauty#iloveit",
					"authorName": "OnlyBeautifulOnly",
					"approvedDate": "2015-12-14 00:00:00.0",
					"socialChannelName": "Instagram",
					"postUrl": "http://www.instagram.com",
					"image": {
						"url": "/content/dam/Lighthouse.jpg",
						"fileName": "",
						"isNotAdaptiveImage": false,
						"extension": "png",
						"altImage": "",
						"title": "",
						"path": "images-cms/social-tabs/post-inst-copy-1"
					},
					"realtedCta": {
						"label": "view article",
						"url": "/content/whitelabel/en_gb/home/harsh/featuredtweet.html"
					}
	            },
	            {
	                "copy": "\nNice Hair. Looks Like Silky and Strong #whitelabel #bathroom #bath #shower#soft#beauty#iloveit",
					"authorName": "OnlyBeautifulOnly",
					"approvedDate": "2015-12-14 00:00:00.0",
					"socialChannelName": "Instagram",
					"postUrl": "http://www.instagram.com",
					"image": {
						"url": "/content/dam/Lighthouse1.jpg",
						"fileName": "",
						"isNotAdaptiveImage": false,
						"extension": "png",
						"altImage": "",
						"title": "",
						"path": "images-cms/social-tabs/post-inst-copy"
					},
					"realtedCta": {
						"label": "view article",
						"url": "/content/whitelabel/en_gb/home/harsh/featuredtweet.html"
					}
	            },
	            {
	                "copy": "\nNice Hair. Looks Like Silky and Strong #whitelabel #bathroom #bath #shower#soft#beauty#iloveit",
					"authorName": "OnlyBeautifulOnly",
					"approvedDate": "2015-12-14 00:00:00.0",
					"socialChannelName": "Instagram",
					"postUrl": "http://www.instagram.com",
					"image": {
						"url": "/content/dam/Lighthouse2.jpg",
						"fileName": "",
						"isNotAdaptiveImage": false,
						"extension": "png",
						"altImage": "",
						"title": "",
						"path": "images-cms/social-tabs/post-inst-copy-1"
					},
					"realtedCta": {
						"label": "view article",
						"url": "/content/whitelabel/en_gb/home/harsh/featuredtweet.html"
					}
	            },
	            {
	                "copy": "\nNice Hair. Looks Like Silky and Strong #whitelabel #bathroom #bath #shower#soft#beauty#iloveit",
					"authorName": "OnlyBeautifulOnly",
					"approvedDate": "2015-12-14 00:00:00.0",
					"socialChannelName": "Instagram",
					"postUrl": "http://www.instagram.com",
					"image": {
						"url": "/content/dam/Lighthouse3.jpg",
						"fileName": "",
						"isNotAdaptiveImage": false,
						"extension": "png",
						"altImage": "",
						"title": "",
						"path": "images-cms/social-tabs/post-inst-copy"
					},
					"realtedCta": {
						"label": "view article",
						"url": "/content/whitelabel/en_gb/home/harsh/featuredtweet.html"
					}
	            },
	            {
	                "copy": "\nNice Hair. Looks Like Silky and Strong #whitelabel #bathroom #bath #shower#soft#beauty#iloveit",
					"authorName": "OnlyBeautifulOnly",
					"approvedDate": "2015-12-14 00:00:00.0",
					"socialChannelName": "Instagram",
					"postUrl": "http://www.instagram.com",
					"image": {
						"url": "/content/dam/Lighthouse4.jpg",
						"fileName": "",
						"isNotAdaptiveImage": false,
						"extension": "png",
						"altImage": "",
						"title": "",
						"path": "images-cms/social-tabs/post-inst-copy-1"
					},
					"realtedCta": {
						"label": "view article",
						"url": "/content/whitelabel/en_gb/home/harsh/featuredtweet.html"
					}
	            },
	            {
	                "copy": "\nNice Hair. Looks Like Silky and Strong #whitelabel #bathroom #bath #shower#soft#beauty#iloveit",
					"authorName": "OnlyBeautifulOnly",
					"approvedDate": "2015-12-14 00:00:00.0",
					"socialChannelName": "Instagram",
					"postUrl": "http://www.instagram.com",
					"image": {
						"url": "/content/dam/Lighthouse1.jpg",
						"fileName": "",
						"isNotAdaptiveImage": false,
						"extension": "png",
						"altImage": "",
						"title": "",
						"path": "images-cms/social-tabs/post-inst-copy"
					},
					"realtedCta": {
						"label": "view article",
						"url": "/content/whitelabel/en_gb/home/harsh/featuredtweet.html"
					}
	            },
	            {
	                "copy": "\nNice Hair. Looks Like Silky and Strong #whitelabel #bathroom #bath #shower#soft#beauty#iloveit",
					"authorName": "OnlyBeautifulOnly",
					"approvedDate": "2015-12-14 00:00:00.0",
					"socialChannelName": "Instagram",
					"postUrl": "http://www.instagram.com",
					"image": {
						"url": "/content/dam/Lighthouse5.jpg",
						"fileName": "",
						"isNotAdaptiveImage": false,
						"extension": "png",
						"altImage": "",
						"title": "",
						"path": "images-cms/social-tabs/post-inst-copy-1"
					},
					"realtedCta": {
						"label": "view article",
						"url": "/content/whitelabel/en_gb/home/harsh/featuredtweet.html"
					}
	            }
            ]
		},
		"resourceType": "unilever-iea/components/socialGalleryCarouselExpanded"
	},
	"responseHeader": {
		"messages": [],
		"status": "200"
	}
}