{ 
   "data":{ 
      "path":"/uk/_jcr_content/headerpar/socialcarousel_3d6e",
      "componentType":"socialCarousel",
      "ajaxURL":"/uk/_jcr_content/headerpar/socialcarousel_3d6e.data.ajax.json",
      "clientSideRendering":false,
      "socialCarousel":{ 
         "viewType":"defaultView",
         "market":"en_gb",
         "cta":{ 
            "ctaLabel":"CTA test",
            "ctaLinkUrl":"http://localhost:4502/uk/gifts-for-her/christmas-gifts-for-her.html",
            "isOpenInNewWindow":true
         },
         "brandName":"whitelabel",         
         "retrivalQueryParams":{ 
            "numberOfPosts":6,
            "maximumImages":20,
            "brandNameParameter":"",
            "requestServletUrl":"data/social-gallery-service.json",
            "hashTags":[ 
               { 
                  "Id":"whitelabel"
               }
            ],
            "socialChannelNames":[ 
               { 
                  "name":"instagram",
                  "url":null,
                  "imagePath":null,
                  "accountId":"instagramID12"
               },
               { 
                  "name":"twitter",
                  "url":null,
                  "imagePath":null,
                  "accountId":"twitterID12"
               }
            ],
            "isExpandedViewRequired":false
         },
         "closeLabel":"socialGalleryTAB.closeLabel",
         "introCopy":"<p>Lorem ipsum dolor sit amet, consectetur adipiscing elit. Sed vitae sapien lacinia, finibus risus vel adipiscing elit. Sed vitae sapienLorem ipsum dolor sit amet, consectetur adipiscing elit. Sed vitae</p>\n",
         "editorSocialImages":[ 
            { 
               "socialChannel":"",
               "postId":"post id 12",
               
               "realtedCta":{ 
                  "ctaRelatedPath":"http://localhost:4502/uk/gifts-for-her/christmas-gifts-for-her.html",
                  "ctaViewText":"View Article",
                  "isOpenInNewWindow":true
               }
            }
         ],
         "componentName":"socialCarousel",
         "title":"Social Carousel Thumbnails"
      },
      "viewType":"defaultView",
      "randomNumber":"23",
      "isContainer":false,
      "resourceType":"unilever-iea/components/socialCarousel"
   },
   "responseHeader":{ 
      "messages":[ 
 
      ],
      "status":"200"
   }
}