{
    "data": {
        "path": "content/whitelabel/en_gb/home/test1234/_jcr_content/flexi_hero_par/storesearch",
        "componentType": "storeSearch",
        "ajaxURL": "content/whitelabel/en_gb/home/test1234/_jcr_content/flexi_hero_par/storesearch.data.ajax.json",
        "storeSearch": {
            "brandName": "whitelabel",
            "componentVariation": "defaultView",
            "componentPosition": 1,
            "title": "Heading Text",
            "locale": "en-GB",
            "storeLocator": {
                "distanceWithin": {
                    "options": [
                        "1",
                        "3",
                        "5",
                        "10",
                        "25",
                        "50",
                        "100"
                    ]
                },
                "postCode": {
                    "regex": "^([A-Pa-pR-UWYZr-uwyzr0-9][A-Ha-hK-Yk-y0-9][AEHMNPRTVXYaehmnprtvxy0-9]?[ABEHMNPRVWXYabehmnprvwxy0-9]? {1,2}[0-9][ABD-HJLN-UW-Zabd-hjln-uw-z]{2}|GIR 0AA)$",
                    "defaultValue": "Enter Your Zip Code",
                    "errormsg": "invalid Zip Code"
                },
                "postCodeToolTip": "Postal code Tool Tip"
            },
            "products": [

            ],
            "market": "en_gb",
            "analytics": {
                "usageContext": "",
                "eventType": ""
            },
            "subTitle": "",
            "loadMoreCount": 5,
            "review": {
                "SEOApiPath": "http://eu-stage.kritique.io/api/v1/Reviews/GetSEOHTML?",
                "apiKey": "4b3e69f3-ac30-48fd-a057-8bf572fdd8f9",
                "brandId": "15",
                "brandName": "TestD2-WL",
                "feedDomainUrl": "http://showcase-eu-qa.unileversolutions.com",
                "id": "rr-widget",
                "localeId": "48",
                "localeName": "en-GB",
                "recordsCount": "10",
                "serviceURI": "http://eu-stage.kritique.io/Widget/resources/js/RR_widget.js",
                "sitesource": "testd2-wl-uk",
                "syndication": "True",
                "enabled": "true",
                "serviceProviderName": "kritique"
            },
            "geoCodeApi": "//maps.googleapis.com/maps/api/geocode/json?latlng=",
            "staticText": {
                "chooseCategoryLabel": "Step 1: Choose a Category",
                "buyOnlinectaLabel": "Buy it online",
                "searchRadiusmetrics": "Miles",
                "chooseZipCodeLabel": "Step 3: Enter your Zip Code",
                "showLessCtaLabel": "Show less",
                "productListHeading": "We have placeholderForNumberOfProducts products for you",
                "chooseProductLabel": "Step 2: Choose a Product",
                "searchRadiusprefix": "Within",
                "categorySelectDefaultLabel": "Please select",
                "buyOnlineprefix": "OR",
                "showMoreCtaLabel": "Show more",
                "storeFinderHeading": "Now tell us where you are",
                "storeFinderCtaLabel": "Find stores",
                "zipcodeFieldText": "Zipcode"
            },
            "anchorTitle": "Click here to go to link",
            "style": {
                "type": "",
                "class": ""
            },
            "categories": [{
                "name": "Hair Care",
                "pagePath": "/content/dove/en_gb/home/hair-care",
                "subCategory": [{
                    "name": "Shampoo",
                    "pagePath": "/content/dove/en_gb/home/hair-care/shampoo"
                }, {
                    "name": "Conditioner",
                    "pagePath": "/content/dove/en_gb/home/hair-care/conditioner"
                }, {
                    "name": "Hair Masks and Hair Treatments",
                    "pagePath": "/content/dove/en_gb/home/hair-care/hair-masks-treatments"
                }, {
                    "name": "Hair Oil",
                    "pagePath": "/content/dove/en_gb/home/hair-care/hair-oil"
                }, {
                    "name": "Leave-in Conditioner",
                    "pagePath": "/content/dove/en_gb/home/hair-care/leave-in-conditioner"
                }, {
                    "name": "Hair Serum",
                    "pagePath": "/content/dove/en_gb/home/hair-care/hair-serum"
                }, {
                    "name": "Hair Styling",
                    "pagePath": "/content/dove/en_gb/home/hair-care/hair-styling"
                }]
            }],
            "componentName": "Store Search",
            "currentPage": "content/whitelabel/en_gb/home/test1234",
            "productDataPath": "data/store-search-servlet.json"
        },
        "clientSideRendering": false,
        "viewType": "defaultView",
        "randomNumber": "947",
        "isContainer": false,
        "resourceType": "unilever-iea/components/storeSearch"
    },
    "responseHeader": {
        "messages": [

        ],
        "status": "200"
    }
}