{
    "data": {
        "componentType": "tabbedControl",
        "clientSideRendering": false,
        "KEY_IS_AUTHOR_MODE": true,
        "isContainer": false,
        "jsonNameSpace": "tabbedControl",
        "path": "/content/whitelabel/en_gb/home/secure/profile/_jcr_content/par/tabbedcontrol_92d9",
        "tabbedContent": {
            "defaultTabIndex": 1,
            "tabsList": [
                {
                    "tabTitle": "Favourites",
                    "randomNumber": "124",
                    "content": "<div data-role='recipe-listing' data-path='data/recipe-listing-recipe-detail-01.json' class='recipe-listing' id='recipe-listing-710'> <div class='c-recipe-list-fixed ' data-componentname='recipeListing' data-component-variants='list-view' data-component-positions='6'> <div class='c-recipe-listing__wrapper container'> <div class='c-recipe-listing-heading'> <div class='c-recipe-listing-heading__heading-container'> </div></div><div class='c-recipe-listing-filter clearfix'> <div class='c-recipe-listing-filter__block'> <div class='c-recipe-listing-filter__container class A '> <h3 class='c-recipe-listing__filter-text o-text__heading-3'>1st Heading</h3> <h4 class='c-recipe-listing__filter-text o-text__heading-4'>1st SubHeading</h4> <select class='o-filter-dropdown c-recipe-listing-filter__filter c-recipe-listing-filter__dropdown' name='recipe-listing-filter--0' data-filter-type='dropdown' data-ct-action='filter'> <option value=''>filter default value</option> <option value='unilever:whitelabel/recipes/rms/budget/1369'>Average</option> <option value='unilever:whitelabel/recipes/rms/budget/1370'>Budget</option> </select> </div><div class='c-recipe-listing-filter__container class A c-recipe-listing-filter__expand '> <h3 class='c-recipe-listing__filter-text o-text__heading-3'>2nd Heading</h3> <h4 class='c-recipe-listing__filter-text o-text__heading-4'>2nd SubHeading</h4> <label> <input type='checkbox' value='unilever:whitelabel/recipes/rms/budget/1371' class='c-recipe-listing-filter__filter c-recipe-listing-filter__checkbox' data-filter-type='checkBox' data-ct-action='filter' data-label='Summer'> Summer </label> <label> <input type='checkbox' value='unilever:whitelabel/recipes/rms/budget/1373' class='c-recipe-listing-filter__filter c-recipe-listing-filter__checkbox' data-filter-type='checkBox' data-ct-action='filter' data-label='Winter'> Winter </label> </div><div class='c-recipe-listing-filter__container class B c-recipe-listing-filter__expand '> <h3 class='c-recipe-listing__filter-text o-text__heading-3'>3rd Heading</h3> <h4 class='c-recipe-listing__filter-text o-text__heading-4'>3rd SubHeading</h4> <label> <input type='radio' name='3rd Heading' value='unilever:whitelabel/recipes/rms/cooking method/1372' class='c-recipe-listing-filter__filter c-recipe-listing-filter__radio' data-filter-type='radioButton' data-ct-action='filter' data-label='Stir fry'> Stir fry </label> <label> <input type='radio' name='3rd Heading' value='unilever:whitelabel/recipes/rms/cooking method/1374' class='c-recipe-listing-filter__filter c-recipe-listing-filter__radio' data-filter-type='radioButton' data-ct-action='filter' data-label='Blanch'> Blanch </label> <label> <input type='radio' name='3rd Heading' value='unilever:whitelabel/recipes/rms/cooking method/1376' class='c-recipe-listing-filter__filter c-recipe-listing-filter__radio' data-filter-type='radioButton' data-ct-action='filter' data-label='No cook'> No cook </label> <label> <input type='radio' name='3rd Heading' value='unilever:whitelabel/recipes/rms/cooking method/1377' class='c-recipe-listing-filter__filter c-recipe-listing-filter__radio' data-filter-type='radioButton' data-ct-action='filter' data-label='Boil'> Boil </label> <label> <input type='radio' name='3rd Heading' value='unilever:whitelabel/recipes/rms/cooking method/1378' class='c-recipe-listing-filter__filter c-recipe-listing-filter__radio' data-filter-type='radioButton' data-ct-action='filter' data-label='Deep fry'> Deep fry </label> <label> <input type='radio' name='3rd Heading' value='unilever:whitelabel/recipes/rms/cooking method/1379' class='c-recipe-listing-filter__filter c-recipe-listing-filter__radio' data-filter-type='radioButton' data-ct-action='filter' data-label='Fry'> Fry </label> <label> <input type='radio' name='3rd Heading' value='unilever:whitelabel/recipes/rms/cooking method/1380' class='c-recipe-listing-filter__filter c-recipe-listing-filter__radio' data-filter-type='radioButton' data-ct-action='filter' data-label='Grill'> Grill </label> <label> <input type='radio' name='3rd Heading' value='unilever:whitelabel/recipes/rms/cooking method/1382' class='c-recipe-listing-filter__filter c-recipe-listing-filter__radio' data-filter-type='radioButton' data-ct-action='filter' data-label='Microwave'> Microwave </label> <label> <input type='radio' name='3rd Heading' value='unilever:whitelabel/recipes/rms/cooking method/1384' class='c-recipe-listing-filter__filter c-recipe-listing-filter__radio' data-filter-type='radioButton' data-ct-action='filter' data-label='Bake'> Bake </label> <label> <input type='radio' name='3rd Heading' value='unilever:whitelabel/recipes/rms/cooking method/1385' class='c-recipe-listing-filter__filter c-recipe-listing-filter__radio' data-filter-type='radioButton' data-ct-action='filter' data-label='Roast'> Roast </label> <label> <input type='radio' name='3rd Heading' value='unilever:whitelabel/recipes/rms/cooking method/1387' class='c-recipe-listing-filter__filter c-recipe-listing-filter__radio' data-filter-type='radioButton' data-ct-action='filter' data-label='Simmer'> Simmer </label> <label> <input type='radio' name='3rd Heading' value='unilever:whitelabel/recipes/rms/cooking method/1389' class='c-recipe-listing-filter__filter c-recipe-listing-filter__radio' data-filter-type='radioButton' data-ct-action='filter' data-label='Braise'> Braise </label> <label> <input type='radio' name='3rd Heading' value='unilever:whitelabel/recipes/rms/cooking method/1393' class='c-recipe-listing-filter__filter c-recipe-listing-filter__radio' data-filter-type='radioButton' data-ct-action='filter' data-label='Barbecue'> Barbecue </label> </div><div class='c-filter-submit c-recipe-listing-filter__expand'> <button type='button' class='js-apply-filters' data-ct-action='recipeApplyFilter'>Apply filter</button> <button type='button' class='js-cancel-filters'>Cancel</button> </div><div class='c-filter-more'> <button type='button' class='js-more-filters'>More filters</button> </div></div></div><div class='c-filter-tags'> <p class='c-filter-tags__label'>Filtered by:</p><ul class='js-filter-tags'> </ul> <div class='c-filter-see' style='display: none;'> <button type='button' class='js-see-filters'>See filters</button> </div><div class='c-filter-clear'> <p class='c-filter__resultCount'>We have <span>8</span> recipes for you</p><button type='button' class='js-clear-filters'>Clear filters</button> </div></div><div class='c-recipe-listing-sorting clearfix'> <select class='o-filter-dropdown c-recipe-listing-sort__dropdown' name='recipe-listing-sort--' data-ct-action='sorting'> <option value='alphabetical'>Title</option> <option value='averageRating'>Average rating (high to low)</option> <option value='cookingTime'>Cooking time (low to high)</option> <option value='newest'>Newest</option> <option value='preparationTime'>Preparation time (low to high)</option> <option value='recentlyUpdated'>Recently updated</option> </select> </div><div class='clearfix'> <div class='c-recipe-listing-noResult'>We could not find any recipes meeting your search criteria.</div><ul class='c-recipe-listing__list'> <li class='c-recipe-listing__list-item col-sm-4' itemprop='itemListElement' itemscope='' itemtype='http://schema.org/recipe'> <div class='c-recipe-listing-item' itemscope='' itemtype='http://schema.org/recipe'> <div class='c-recipe-listing-item-image '> <a class='c-recipe-listing-item-image__link' href='http://localhost:4502/content/whitelabel/en_gb/home/abc.html' title='' data-ct-action='recipeClick' data-recipename='' itemprop='url'> <span class='c-recipe-listing-item-image__container'> <picture class='loaded'><source srcset='images-cms/recipe-listing/recipe-category/recipe01.jpg' media='screen and (min-width: 1200px)'><source srcset='images-cms/recipe-listing/recipe-category/recipe01.jpg, images-cms/recipe-listing/recipe-category/recipe01.jpg 2x' media='screen and (min-width: 992px) and (max-width: 1199px)'><source srcset='images-cms/recipe-listing/recipe-category/recipe01.jpg, images-cms/recipe-listing/recipe-category/recipe01.jpg 2x' media='screen and (min-width: 768px) and (max-width: 991px)'><source srcset='images-cms/recipe-listing/recipe-category/recipe01.jpg, images-cms/recipe-listing/recipe-category/recipe01.jpg 2x' media='screen and (min-width: 480px) and (max-width: 767px)'><img class='RMS Test Recipe' src='images-cms/recipe-listing/recipe-category/recipe01.jpg' title='RMS Test Recipe' alt='RMS Test Recipe'></picture> </span> </a> </div><div class='c-recipe-listing-item-content '> <div class='c-recipe-listing-item-content__container'> <h3 class='o-text__heading-3 c-recipe-listing-item-content__container-heading' itemprop='headline'> <span itemprop='name'></span> </h3> <p class='c-recipe-listing-item-content__container-subheading'>Grilled cheddar, spinach &amp; onion toastie</p><div class='c-recipe-dietary-attributes'> <ul class='c-recipe-dietary-attributes__list' data-recipeid='83862'> </ul> </div><div class='c-recipe-attributes'> <ul class='c-recipe-attributes__list' data-recipeid='83862'> </ul> </div><div class='c-recipe-listing__cta'> <a href='http://localhost:4502/content/whitelabel/en_gb/home/abc.html' class='o-btn o-btn--primary' data-recipename='' data-ct-action='recipeClick'></a> </div></div></div><meta itemprop='datePublished' content=''> </div></li><li class='c-recipe-listing__list-item col-sm-4' itemprop='itemListElement' itemscope='' itemtype='http://schema.org/recipe'> <div class='c-recipe-listing-item' itemscope='' itemtype='http://schema.org/recipe'> <div class='c-recipe-listing-item-image '> <a class='c-recipe-listing-item-image__link' href='http://localhost:4502/content/whitelabel/en_gb/home/abc.html' title='' data-ct-action='recipeClick' data-recipename='' itemprop='url'> <span class='c-recipe-listing-item-image__container'> <picture class='loaded'><source srcset='images-cms/recipe-listing/recipe-category/recipe02.jpg' media='screen and (min-width: 1200px)'><source srcset='images-cms/recipe-listing/recipe-category/recipe02.jpg, images-cms/recipe-listing/recipe-category/recipe02.jpg 2x' media='screen and (min-width: 992px) and (max-width: 1199px)'><source srcset='images-cms/recipe-listing/recipe-category/recipe02.jpg, images-cms/recipe-listing/recipe-category/recipe02.jpg 2x' media='screen and (min-width: 768px) and (max-width: 991px)'><source srcset='images-cms/recipe-listing/recipe-category/recipe02.jpg, images-cms/recipe-listing/recipe-category/recipe02.jpg 2x' media='screen and (min-width: 480px) and (max-width: 767px)'><img class='RMS Test Recipe' src='images-cms/recipe-listing/recipe-category/recipe02.jpg' title='RMS Test Recipe' alt='RMS Test Recipe'></picture> </span> </a> </div><div class='c-recipe-listing-item-content '> <div class='c-recipe-listing-item-content__container'> <h3 class='o-text__heading-3 c-recipe-listing-item-content__container-heading' itemprop='headline'> <span itemprop='name'></span> </h3> <p class='c-recipe-listing-item-content__container-subheading'>Grilled cheddar, spinach &amp; onion toastie</p><div class='c-recipe-dietary-attributes'> <ul class='c-recipe-dietary-attributes__list' data-recipeid='83862'> </ul> </div><div class='c-recipe-attributes'> <ul class='c-recipe-attributes__list' data-recipeid='83862'> </ul> </div><div class='c-recipe-listing__cta'> <a href='http://localhost:4502/content/whitelabel/en_gb/home/abc.html' class='o-btn o-btn--primary' data-recipename='' data-ct-action='recipeClick'></a> </div></div></div><meta itemprop='datePublished' content=''> </div></li><li class='c-recipe-listing__list-item col-sm-4' itemprop='itemListElement' itemscope='' itemtype='http://schema.org/recipe'> <div class='c-recipe-listing-item' itemscope='' itemtype='http://schema.org/recipe'> <div class='c-recipe-listing-item-image '> <a class='c-recipe-listing-item-image__link' href='http://localhost:4502/content/whitelabel/en_gb/home/abc.html' title='' data-ct-action='recipeClick' data-recipename='' itemprop='url'> <span class='c-recipe-listing-item-image__container'> <picture class='loaded'><source srcset='images-cms/recipe-listing/recipe-category/recipe03.jpg' media='screen and (min-width: 1200px)'><source srcset='images-cms/recipe-listing/recipe-category/recipe03.jpg, images-cms/recipe-listing/recipe-category/recipe03.jpg 2x' media='screen and (min-width: 992px) and (max-width: 1199px)'><source srcset='images-cms/recipe-listing/recipe-category/recipe03.jpg, images-cms/recipe-listing/recipe-category/recipe03.jpg 2x' media='screen and (min-width: 768px) and (max-width: 991px)'><source srcset='images-cms/recipe-listing/recipe-category/recipe03.jpg, images-cms/recipe-listing/recipe-category/recipe03.jpg 2x' media='screen and (min-width: 480px) and (max-width: 767px)'><img class='RMS Test Recipe' src='images-cms/recipe-listing/recipe-category/recipe03.jpg' title='RMS Test Recipe' alt='RMS Test Recipe'></picture> </span> </a> </div><div class='c-recipe-listing-item-content '> <div class='c-recipe-listing-item-content__container'> <h3 class='o-text__heading-3 c-recipe-listing-item-content__container-heading' itemprop='headline'> <span itemprop='name'></span> </h3> <p class='c-recipe-listing-item-content__container-subheading'>Lorem ispum dolor sit amet, consectetuer adipiscing elit</p><div class='c-recipe-dietary-attributes'> <ul class='c-recipe-dietary-attributes__list' data-recipeid='83862'> </ul> </div><div class='c-recipe-attributes'> <ul class='c-recipe-attributes__list' data-recipeid='83862'> </ul> </div><div class='c-recipe-listing__cta'> <a href='http://localhost:4502/content/whitelabel/en_gb/home/abc.html' class='o-btn o-btn--primary' data-recipename='' data-ct-action='recipeClick'></a> </div></div></div><meta itemprop='datePublished' content=''> </div></li><li class='c-recipe-listing__list-item col-sm-4' itemprop='itemListElement' itemscope='' itemtype='http://schema.org/recipe'> <div class='c-recipe-listing-item' itemscope='' itemtype='http://schema.org/recipe'> <div class='c-recipe-listing-item-image '> <a class='c-recipe-listing-item-image__link' href='http://localhost:4502/content/whitelabel/en_gb/home/abc.html' title='' data-ct-action='recipeClick' data-recipename='' itemprop='url'> <span class='c-recipe-listing-item-image__container'> <picture class='loaded'><source srcset='images-cms/recipe-listing/recipe-category/recipe04.jpg' media='screen and (min-width: 1200px)'><source srcset='images-cms/recipe-listing/recipe-category/recipe04.jpg, images-cms/recipe-listing/recipe-category/recipe04.jpg 2x' media='screen and (min-width: 992px) and (max-width: 1199px)'><source srcset='images-cms/recipe-listing/recipe-category/recipe04.jpg, images-cms/recipe-listing/recipe-category/recipe04.jpg 2x' media='screen and (min-width: 768px) and (max-width: 991px)'><source srcset='images-cms/recipe-listing/recipe-category/recipe04.jpg, images-cms/recipe-listing/recipe-category/recipe04.jpg 2x' media='screen and (min-width: 480px) and (max-width: 767px)'><img class='RMS Test Recipe' src='images-cms/recipe-listing/recipe-category/recipe04.jpg' title='RMS Test Recipe' alt='RMS Test Recipe'></picture> </span> </a> </div><div class='c-recipe-listing-item-content '> <div class='c-recipe-listing-item-content__container'> <h3 class='o-text__heading-3 c-recipe-listing-item-content__container-heading' itemprop='headline'> <span itemprop='name'></span> </h3> <p class='c-recipe-listing-item-content__container-subheading'>Lorem ispum dolor sit amet, consectetuer adipiscing elit</p><div class='c-recipe-dietary-attributes'> <ul class='c-recipe-dietary-attributes__list' data-recipeid='83862'> </ul> </div><div class='c-recipe-attributes'> <ul class='c-recipe-attributes__list' data-recipeid='83862'> </ul> </div><div class='c-recipe-listing__cta'> <a href='http://localhost:4502/content/whitelabel/en_gb/home/abc.html' class='o-btn o-btn--primary' data-recipename='' data-ct-action='recipeClick'></a> </div></div></div><meta itemprop='datePublished' content=''> </div></li><li class='c-recipe-listing__list-item col-sm-4' itemprop='itemListElement' itemscope='' itemtype='http://schema.org/recipe'> <div class='c-recipe-listing-item' itemscope='' itemtype='http://schema.org/recipe'> <div class='c-recipe-listing-item-image '> <a class='c-recipe-listing-item-image__link' href='http://localhost:4502/content/whitelabel/en_gb/home/abc.html' title='' data-ct-action='recipeClick' data-recipename='' itemprop='url'> <span class='c-recipe-listing-item-image__container'> <picture class='loaded'><source srcset='images-cms/recipe-listing/recipe-category/recipe05.jpg' media='screen and (min-width: 1200px)'><source srcset='images-cms/recipe-listing/recipe-category/recipe05.jpg, images-cms/recipe-listing/recipe-category/recipe05.jpg 2x' media='screen and (min-width: 992px) and (max-width: 1199px)'><source srcset='images-cms/recipe-listing/recipe-category/recipe05.jpg, images-cms/recipe-listing/recipe-category/recipe05.jpg 2x' media='screen and (min-width: 768px) and (max-width: 991px)'><source srcset='images-cms/recipe-listing/recipe-category/recipe05.jpg, images-cms/recipe-listing/recipe-category/recipe05.jpg 2x' media='screen and (min-width: 480px) and (max-width: 767px)'><img class='RMS Test Recipe' src='images-cms/recipe-listing/recipe-category/recipe05.jpg' title='RMS Test Recipe' alt='RMS Test Recipe'></picture> </span> </a> </div><div class='c-recipe-listing-item-content '> <div class='c-recipe-listing-item-content__container'> <h3 class='o-text__heading-3 c-recipe-listing-item-content__container-heading' itemprop='headline'> <span itemprop='name'></span> </h3> <p class='c-recipe-listing-item-content__container-subheading'>Grilled cheddar, spinach &amp; onion toastie</p><div class='c-recipe-dietary-attributes'> <ul class='c-recipe-dietary-attributes__list' data-recipeid='83862'> </ul> </div><div class='c-recipe-attributes'> <ul class='c-recipe-attributes__list' data-recipeid='83862'> </ul> </div><div class='c-recipe-listing__cta'> <a href='http://localhost:4502/content/whitelabel/en_gb/home/abc.html' class='o-btn o-btn--primary' data-recipename='' data-ct-action='recipeClick'></a> </div></div></div><meta itemprop='datePublished' content=''> </div></li><li class='c-recipe-listing__list-item col-sm-4' itemprop='itemListElement' itemscope='' itemtype='http://schema.org/recipe'> <div class='c-recipe-listing-item' itemscope='' itemtype='http://schema.org/recipe'> <div class='c-recipe-listing-item-image '> <a class='c-recipe-listing-item-image__link' href='http://localhost:4502/content/whitelabel/en_gb/home/abc.html' title='' data-ct-action='recipeClick' data-recipename='' itemprop='url'> <span class='c-recipe-listing-item-image__container'> <picture class='loaded'><source srcset='images-cms/recipe-listing/recipe-category/recipe06.jpg' media='screen and (min-width: 1200px)'><source srcset='images-cms/recipe-listing/recipe-category/recipe06.jpg, images-cms/recipe-listing/recipe-category/recipe06.jpg 2x' media='screen and (min-width: 992px) and (max-width: 1199px)'><source srcset='images-cms/recipe-listing/recipe-category/recipe06.jpg, images-cms/recipe-listing/recipe-category/recipe06.jpg 2x' media='screen and (min-width: 768px) and (max-width: 991px)'><source srcset='images-cms/recipe-listing/recipe-category/recipe06.jpg, images-cms/recipe-listing/recipe-category/recipe06.jpg 2x' media='screen and (min-width: 480px) and (max-width: 767px)'><img class='RMS Test Recipe' src='images-cms/recipe-listing/recipe-category/recipe06.jpg' title='RMS Test Recipe' alt='RMS Test Recipe'></picture> </span> </a> </div><div class='c-recipe-listing-item-content '> <div class='c-recipe-listing-item-content__container'> <h3 class='o-text__heading-3 c-recipe-listing-item-content__container-heading' itemprop='headline'> <span itemprop='name'></span> </h3> <p class='c-recipe-listing-item-content__container-subheading'>Lorem ispum dolor sit amet, consectetuer adipiscing elit</p><div class='c-recipe-dietary-attributes'> <ul class='c-recipe-dietary-attributes__list' data-recipeid='83862'> </ul> </div><div class='c-recipe-attributes'> <ul class='c-recipe-attributes__list' data-recipeid='83862'> </ul> </div><div class='c-recipe-listing__cta'> <a href='http://localhost:4502/content/whitelabel/en_gb/home/abc.html' class='o-btn o-btn--primary' data-recipename='' data-ct-action='recipeClick'></a> </div></div></div><meta itemprop='datePublished' content=''> </div></li></ul> </div><div class='row c-recipe-listing-pagination'> <button class='c-recipe-listing-pagination__first-btn js-recipe-listing-pagination__first-btn o-btn o-btn--primary'> First </button> <button class='c-recipe-listing-pagination__previous-btn js-recipe-listing-pagination__previous-btn o-btn o-btn--primary'> Previous </button> <button class='c-recipe-listing-pagination__next-btn js-recipe-listing-pagination__next-btn o-btn o-btn--primary'> Next </button> <button class='c-recipe-listing-pagination__last-btn js-recipe-listing-pagination__last-btn o-btn o-btn--primary'> Last </button> </div></div></div></div>",
                    "style": {
                        "class": "tabbed-content-custom-class",
                        "type": "type-a"
                    }
                },
                {
                    "tabTitle": "Healthy",
                    "randomNumber": "366",
                    "content": "<div data-role='recipe-listing' data-path='data/recipe-listing-recipe-detail-01.json' class='recipe-listing' id='recipe-listing-710'> <div class='c-recipe-list-fixed ' data-componentname='recipeListing' data-component-variants='list-view' data-component-positions='6'> <div class='c-recipe-listing__wrapper container'> <div class='c-recipe-listing-heading'> <div class='c-recipe-listing-heading__heading-container'> </div></div><div class='c-recipe-listing-filter clearfix'> <div class='c-recipe-listing-filter__block'> <div class='c-recipe-listing-filter__container class A '> <h3 class='c-recipe-listing__filter-text o-text__heading-3'>1st Heading</h3> <h4 class='c-recipe-listing__filter-text o-text__heading-4'>1st SubHeading</h4> <select class='o-filter-dropdown c-recipe-listing-filter__filter c-recipe-listing-filter__dropdown' name='recipe-listing-filter--0' data-filter-type='dropdown' data-ct-action='filter'> <option value=''>filter default value</option> <option value='unilever:whitelabel/recipes/rms/budget/1369'>Average</option> <option value='unilever:whitelabel/recipes/rms/budget/1370'>Budget</option> </select> </div><div class='c-recipe-listing-filter__container class A c-recipe-listing-filter__expand '> <h3 class='c-recipe-listing__filter-text o-text__heading-3'>2nd Heading</h3> <h4 class='c-recipe-listing__filter-text o-text__heading-4'>2nd SubHeading</h4> <label> <input type='checkbox' value='unilever:whitelabel/recipes/rms/budget/1371' class='c-recipe-listing-filter__filter c-recipe-listing-filter__checkbox' data-filter-type='checkBox' data-ct-action='filter' data-label='Summer'> Summer </label> <label> <input type='checkbox' value='unilever:whitelabel/recipes/rms/budget/1373' class='c-recipe-listing-filter__filter c-recipe-listing-filter__checkbox' data-filter-type='checkBox' data-ct-action='filter' data-label='Winter'> Winter </label> </div><div class='c-recipe-listing-filter__container class B c-recipe-listing-filter__expand '> <h3 class='c-recipe-listing__filter-text o-text__heading-3'>3rd Heading</h3> <h4 class='c-recipe-listing__filter-text o-text__heading-4'>3rd SubHeading</h4> <label> <input type='radio' name='3rd Heading' value='unilever:whitelabel/recipes/rms/cooking method/1372' class='c-recipe-listing-filter__filter c-recipe-listing-filter__radio' data-filter-type='radioButton' data-ct-action='filter' data-label='Stir fry'> Stir fry </label> <label> <input type='radio' name='3rd Heading' value='unilever:whitelabel/recipes/rms/cooking method/1374' class='c-recipe-listing-filter__filter c-recipe-listing-filter__radio' data-filter-type='radioButton' data-ct-action='filter' data-label='Blanch'> Blanch </label> <label> <input type='radio' name='3rd Heading' value='unilever:whitelabel/recipes/rms/cooking method/1376' class='c-recipe-listing-filter__filter c-recipe-listing-filter__radio' data-filter-type='radioButton' data-ct-action='filter' data-label='No cook'> No cook </label> <label> <input type='radio' name='3rd Heading' value='unilever:whitelabel/recipes/rms/cooking method/1377' class='c-recipe-listing-filter__filter c-recipe-listing-filter__radio' data-filter-type='radioButton' data-ct-action='filter' data-label='Boil'> Boil </label> <label> <input type='radio' name='3rd Heading' value='unilever:whitelabel/recipes/rms/cooking method/1378' class='c-recipe-listing-filter__filter c-recipe-listing-filter__radio' data-filter-type='radioButton' data-ct-action='filter' data-label='Deep fry'> Deep fry </label> <label> <input type='radio' name='3rd Heading' value='unilever:whitelabel/recipes/rms/cooking method/1379' class='c-recipe-listing-filter__filter c-recipe-listing-filter__radio' data-filter-type='radioButton' data-ct-action='filter' data-label='Fry'> Fry </label> <label> <input type='radio' name='3rd Heading' value='unilever:whitelabel/recipes/rms/cooking method/1380' class='c-recipe-listing-filter__filter c-recipe-listing-filter__radio' data-filter-type='radioButton' data-ct-action='filter' data-label='Grill'> Grill </label> <label> <input type='radio' name='3rd Heading' value='unilever:whitelabel/recipes/rms/cooking method/1382' class='c-recipe-listing-filter__filter c-recipe-listing-filter__radio' data-filter-type='radioButton' data-ct-action='filter' data-label='Microwave'> Microwave </label> <label> <input type='radio' name='3rd Heading' value='unilever:whitelabel/recipes/rms/cooking method/1384' class='c-recipe-listing-filter__filter c-recipe-listing-filter__radio' data-filter-type='radioButton' data-ct-action='filter' data-label='Bake'> Bake </label> <label> <input type='radio' name='3rd Heading' value='unilever:whitelabel/recipes/rms/cooking method/1385' class='c-recipe-listing-filter__filter c-recipe-listing-filter__radio' data-filter-type='radioButton' data-ct-action='filter' data-label='Roast'> Roast </label> <label> <input type='radio' name='3rd Heading' value='unilever:whitelabel/recipes/rms/cooking method/1387' class='c-recipe-listing-filter__filter c-recipe-listing-filter__radio' data-filter-type='radioButton' data-ct-action='filter' data-label='Simmer'> Simmer </label> <label> <input type='radio' name='3rd Heading' value='unilever:whitelabel/recipes/rms/cooking method/1389' class='c-recipe-listing-filter__filter c-recipe-listing-filter__radio' data-filter-type='radioButton' data-ct-action='filter' data-label='Braise'> Braise </label> <label> <input type='radio' name='3rd Heading' value='unilever:whitelabel/recipes/rms/cooking method/1393' class='c-recipe-listing-filter__filter c-recipe-listing-filter__radio' data-filter-type='radioButton' data-ct-action='filter' data-label='Barbecue'> Barbecue </label> </div><div class='c-filter-submit c-recipe-listing-filter__expand'> <button type='button' class='js-apply-filters' data-ct-action='recipeApplyFilter'>Apply filter</button> <button type='button' class='js-cancel-filters'>Cancel</button> </div><div class='c-filter-more'> <button type='button' class='js-more-filters'>More filters</button> </div></div></div><div class='c-filter-tags'> <p class='c-filter-tags__label'>Filtered by:</p><ul class='js-filter-tags'> </ul> <div class='c-filter-see' style='display: none;'> <button type='button' class='js-see-filters'>See filters</button> </div><div class='c-filter-clear'> <p class='c-filter__resultCount'>We have <span>8</span> recipes for you</p><button type='button' class='js-clear-filters'>Clear filters</button> </div></div><div class='c-recipe-listing-sorting clearfix'> <select class='o-filter-dropdown c-recipe-listing-sort__dropdown' name='recipe-listing-sort--' data-ct-action='sorting'> <option value='alphabetical'>Title</option> <option value='averageRating'>Average rating (high to low)</option> <option value='cookingTime'>Cooking time (low to high)</option> <option value='newest'>Newest</option> <option value='preparationTime'>Preparation time (low to high)</option> <option value='recentlyUpdated'>Recently updated</option> </select> </div><div class='clearfix'> <div class='c-recipe-listing-noResult'>We could not find any recipes meeting your search criteria.</div><ul class='c-recipe-listing__list'> <li class='c-recipe-listing__list-item col-sm-4' itemprop='itemListElement' itemscope='' itemtype='http://schema.org/recipe'> <div class='c-recipe-listing-item' itemscope='' itemtype='http://schema.org/recipe'> <div class='c-recipe-listing-item-image '> <a class='c-recipe-listing-item-image__link' href='http://localhost:4502/content/whitelabel/en_gb/home/abc.html' title='' data-ct-action='recipeClick' data-recipename='' itemprop='url'> <span class='c-recipe-listing-item-image__container'> <picture class='loaded'><source srcset='images-cms/recipe-listing/recipe-category/recipe01.jpg' media='screen and (min-width: 1200px)'><source srcset='images-cms/recipe-listing/recipe-category/recipe01.jpg, images-cms/recipe-listing/recipe-category/recipe01.jpg 2x' media='screen and (min-width: 992px) and (max-width: 1199px)'><source srcset='images-cms/recipe-listing/recipe-category/recipe01.jpg, images-cms/recipe-listing/recipe-category/recipe01.jpg 2x' media='screen and (min-width: 768px) and (max-width: 991px)'><source srcset='images-cms/recipe-listing/recipe-category/recipe01.jpg, images-cms/recipe-listing/recipe-category/recipe01.jpg 2x' media='screen and (min-width: 480px) and (max-width: 767px)'><img class='RMS Test Recipe' src='images-cms/recipe-listing/recipe-category/recipe01.jpg' title='RMS Test Recipe' alt='RMS Test Recipe'></picture> </span> </a> </div><div class='c-recipe-listing-item-content '> <div class='c-recipe-listing-item-content__container'> <h3 class='o-text__heading-3 c-recipe-listing-item-content__container-heading' itemprop='headline'> <span itemprop='name'></span> </h3> <p class='c-recipe-listing-item-content__container-subheading'>Grilled cheddar, spinach &amp; onion toastie</p><div class='c-recipe-dietary-attributes'> <ul class='c-recipe-dietary-attributes__list' data-recipeid='83862'> </ul> </div><div class='c-recipe-attributes'> <ul class='c-recipe-attributes__list' data-recipeid='83862'> </ul> </div><div class='c-recipe-listing__cta'> <a href='http://localhost:4502/content/whitelabel/en_gb/home/abc.html' class='o-btn o-btn--primary' data-recipename='' data-ct-action='recipeClick'></a> </div></div></div><meta itemprop='datePublished' content=''> </div></li><li class='c-recipe-listing__list-item col-sm-4' itemprop='itemListElement' itemscope='' itemtype='http://schema.org/recipe'> <div class='c-recipe-listing-item' itemscope='' itemtype='http://schema.org/recipe'> <div class='c-recipe-listing-item-image '> <a class='c-recipe-listing-item-image__link' href='http://localhost:4502/content/whitelabel/en_gb/home/abc.html' title='' data-ct-action='recipeClick' data-recipename='' itemprop='url'> <span class='c-recipe-listing-item-image__container'> <picture class='loaded'><source srcset='images-cms/recipe-listing/recipe-category/recipe02.jpg' media='screen and (min-width: 1200px)'><source srcset='images-cms/recipe-listing/recipe-category/recipe02.jpg, images-cms/recipe-listing/recipe-category/recipe02.jpg 2x' media='screen and (min-width: 992px) and (max-width: 1199px)'><source srcset='images-cms/recipe-listing/recipe-category/recipe02.jpg, images-cms/recipe-listing/recipe-category/recipe02.jpg 2x' media='screen and (min-width: 768px) and (max-width: 991px)'><source srcset='images-cms/recipe-listing/recipe-category/recipe02.jpg, images-cms/recipe-listing/recipe-category/recipe02.jpg 2x' media='screen and (min-width: 480px) and (max-width: 767px)'><img class='RMS Test Recipe' src='images-cms/recipe-listing/recipe-category/recipe02.jpg' title='RMS Test Recipe' alt='RMS Test Recipe'></picture> </span> </a> </div><div class='c-recipe-listing-item-content '> <div class='c-recipe-listing-item-content__container'> <h3 class='o-text__heading-3 c-recipe-listing-item-content__container-heading' itemprop='headline'> <span itemprop='name'></span> </h3> <p class='c-recipe-listing-item-content__container-subheading'>Grilled cheddar, spinach &amp; onion toastie</p><div class='c-recipe-dietary-attributes'> <ul class='c-recipe-dietary-attributes__list' data-recipeid='83862'> </ul> </div><div class='c-recipe-attributes'> <ul class='c-recipe-attributes__list' data-recipeid='83862'> </ul> </div><div class='c-recipe-listing__cta'> <a href='http://localhost:4502/content/whitelabel/en_gb/home/abc.html' class='o-btn o-btn--primary' data-recipename='' data-ct-action='recipeClick'></a> </div></div></div><meta itemprop='datePublished' content=''> </div></li><li class='c-recipe-listing__list-item col-sm-4' itemprop='itemListElement' itemscope='' itemtype='http://schema.org/recipe'> <div class='c-recipe-listing-item' itemscope='' itemtype='http://schema.org/recipe'> <div class='c-recipe-listing-item-image '> <a class='c-recipe-listing-item-image__link' href='http://localhost:4502/content/whitelabel/en_gb/home/abc.html' title='' data-ct-action='recipeClick' data-recipename='' itemprop='url'> <span class='c-recipe-listing-item-image__container'> <picture class='loaded'><source srcset='images-cms/recipe-listing/recipe-category/recipe03.jpg' media='screen and (min-width: 1200px)'><source srcset='images-cms/recipe-listing/recipe-category/recipe03.jpg, images-cms/recipe-listing/recipe-category/recipe03.jpg 2x' media='screen and (min-width: 992px) and (max-width: 1199px)'><source srcset='images-cms/recipe-listing/recipe-category/recipe03.jpg, images-cms/recipe-listing/recipe-category/recipe03.jpg 2x' media='screen and (min-width: 768px) and (max-width: 991px)'><source srcset='images-cms/recipe-listing/recipe-category/recipe03.jpg, images-cms/recipe-listing/recipe-category/recipe03.jpg 2x' media='screen and (min-width: 480px) and (max-width: 767px)'><img class='RMS Test Recipe' src='images-cms/recipe-listing/recipe-category/recipe03.jpg' title='RMS Test Recipe' alt='RMS Test Recipe'></picture> </span> </a> </div><div class='c-recipe-listing-item-content '> <div class='c-recipe-listing-item-content__container'> <h3 class='o-text__heading-3 c-recipe-listing-item-content__container-heading' itemprop='headline'> <span itemprop='name'></span> </h3> <p class='c-recipe-listing-item-content__container-subheading'>Lorem ispum dolor sit amet, consectetuer adipiscing elit</p><div class='c-recipe-dietary-attributes'> <ul class='c-recipe-dietary-attributes__list' data-recipeid='83862'> </ul> </div><div class='c-recipe-attributes'> <ul class='c-recipe-attributes__list' data-recipeid='83862'> </ul> </div><div class='c-recipe-listing__cta'> <a href='http://localhost:4502/content/whitelabel/en_gb/home/abc.html' class='o-btn o-btn--primary' data-recipename='' data-ct-action='recipeClick'></a> </div></div></div><meta itemprop='datePublished' content=''> </div></li><li class='c-recipe-listing__list-item col-sm-4' itemprop='itemListElement' itemscope='' itemtype='http://schema.org/recipe'> <div class='c-recipe-listing-item' itemscope='' itemtype='http://schema.org/recipe'> <div class='c-recipe-listing-item-image '> <a class='c-recipe-listing-item-image__link' href='http://localhost:4502/content/whitelabel/en_gb/home/abc.html' title='' data-ct-action='recipeClick' data-recipename='' itemprop='url'> <span class='c-recipe-listing-item-image__container'> <picture class='loaded'><source srcset='images-cms/recipe-listing/recipe-category/recipe04.jpg' media='screen and (min-width: 1200px)'><source srcset='images-cms/recipe-listing/recipe-category/recipe04.jpg, images-cms/recipe-listing/recipe-category/recipe04.jpg 2x' media='screen and (min-width: 992px) and (max-width: 1199px)'><source srcset='images-cms/recipe-listing/recipe-category/recipe04.jpg, images-cms/recipe-listing/recipe-category/recipe04.jpg 2x' media='screen and (min-width: 768px) and (max-width: 991px)'><source srcset='images-cms/recipe-listing/recipe-category/recipe04.jpg, images-cms/recipe-listing/recipe-category/recipe04.jpg 2x' media='screen and (min-width: 480px) and (max-width: 767px)'><img class='RMS Test Recipe' src='images-cms/recipe-listing/recipe-category/recipe04.jpg' title='RMS Test Recipe' alt='RMS Test Recipe'></picture> </span> </a> </div><div class='c-recipe-listing-item-content '> <div class='c-recipe-listing-item-content__container'> <h3 class='o-text__heading-3 c-recipe-listing-item-content__container-heading' itemprop='headline'> <span itemprop='name'></span> </h3> <p class='c-recipe-listing-item-content__container-subheading'>Lorem ispum dolor sit amet, consectetuer adipiscing elit</p><div class='c-recipe-dietary-attributes'> <ul class='c-recipe-dietary-attributes__list' data-recipeid='83862'> </ul> </div><div class='c-recipe-attributes'> <ul class='c-recipe-attributes__list' data-recipeid='83862'> </ul> </div><div class='c-recipe-listing__cta'> <a href='http://localhost:4502/content/whitelabel/en_gb/home/abc.html' class='o-btn o-btn--primary' data-recipename='' data-ct-action='recipeClick'></a> </div></div></div><meta itemprop='datePublished' content=''> </div></li><li class='c-recipe-listing__list-item col-sm-4' itemprop='itemListElement' itemscope='' itemtype='http://schema.org/recipe'> <div class='c-recipe-listing-item' itemscope='' itemtype='http://schema.org/recipe'> <div class='c-recipe-listing-item-image '> <a class='c-recipe-listing-item-image__link' href='http://localhost:4502/content/whitelabel/en_gb/home/abc.html' title='' data-ct-action='recipeClick' data-recipename='' itemprop='url'> <span class='c-recipe-listing-item-image__container'> <picture class='loaded'><source srcset='images-cms/recipe-listing/recipe-category/recipe05.jpg' media='screen and (min-width: 1200px)'><source srcset='images-cms/recipe-listing/recipe-category/recipe05.jpg, images-cms/recipe-listing/recipe-category/recipe05.jpg 2x' media='screen and (min-width: 992px) and (max-width: 1199px)'><source srcset='images-cms/recipe-listing/recipe-category/recipe05.jpg, images-cms/recipe-listing/recipe-category/recipe05.jpg 2x' media='screen and (min-width: 768px) and (max-width: 991px)'><source srcset='images-cms/recipe-listing/recipe-category/recipe05.jpg, images-cms/recipe-listing/recipe-category/recipe05.jpg 2x' media='screen and (min-width: 480px) and (max-width: 767px)'><img class='RMS Test Recipe' src='images-cms/recipe-listing/recipe-category/recipe05.jpg' title='RMS Test Recipe' alt='RMS Test Recipe'></picture> </span> </a> </div><div class='c-recipe-listing-item-content '> <div class='c-recipe-listing-item-content__container'> <h3 class='o-text__heading-3 c-recipe-listing-item-content__container-heading' itemprop='headline'> <span itemprop='name'></span> </h3> <p class='c-recipe-listing-item-content__container-subheading'>Grilled cheddar, spinach &amp; onion toastie</p><div class='c-recipe-dietary-attributes'> <ul class='c-recipe-dietary-attributes__list' data-recipeid='83862'> </ul> </div><div class='c-recipe-attributes'> <ul class='c-recipe-attributes__list' data-recipeid='83862'> </ul> </div><div class='c-recipe-listing__cta'> <a href='http://localhost:4502/content/whitelabel/en_gb/home/abc.html' class='o-btn o-btn--primary' data-recipename='' data-ct-action='recipeClick'></a> </div></div></div><meta itemprop='datePublished' content=''> </div></li><li class='c-recipe-listing__list-item col-sm-4' itemprop='itemListElement' itemscope='' itemtype='http://schema.org/recipe'> <div class='c-recipe-listing-item' itemscope='' itemtype='http://schema.org/recipe'> <div class='c-recipe-listing-item-image '> <a class='c-recipe-listing-item-image__link' href='http://localhost:4502/content/whitelabel/en_gb/home/abc.html' title='' data-ct-action='recipeClick' data-recipename='' itemprop='url'> <span class='c-recipe-listing-item-image__container'> <picture class='loaded'><source srcset='images-cms/recipe-listing/recipe-category/recipe06.jpg' media='screen and (min-width: 1200px)'><source srcset='images-cms/recipe-listing/recipe-category/recipe06.jpg, images-cms/recipe-listing/recipe-category/recipe06.jpg 2x' media='screen and (min-width: 992px) and (max-width: 1199px)'><source srcset='images-cms/recipe-listing/recipe-category/recipe06.jpg, images-cms/recipe-listing/recipe-category/recipe06.jpg 2x' media='screen and (min-width: 768px) and (max-width: 991px)'><source srcset='images-cms/recipe-listing/recipe-category/recipe06.jpg, images-cms/recipe-listing/recipe-category/recipe06.jpg 2x' media='screen and (min-width: 480px) and (max-width: 767px)'><img class='RMS Test Recipe' src='images-cms/recipe-listing/recipe-category/recipe06.jpg' title='RMS Test Recipe' alt='RMS Test Recipe'></picture> </span> </a> </div><div class='c-recipe-listing-item-content '> <div class='c-recipe-listing-item-content__container'> <h3 class='o-text__heading-3 c-recipe-listing-item-content__container-heading' itemprop='headline'> <span itemprop='name'></span> </h3> <p class='c-recipe-listing-item-content__container-subheading'>Lorem ispum dolor sit amet, consectetuer adipiscing elit</p><div class='c-recipe-dietary-attributes'> <ul class='c-recipe-dietary-attributes__list' data-recipeid='83862'> </ul> </div><div class='c-recipe-attributes'> <ul class='c-recipe-attributes__list' data-recipeid='83862'> </ul> </div><div class='c-recipe-listing__cta'> <a href='http://localhost:4502/content/whitelabel/en_gb/home/abc.html' class='o-btn o-btn--primary' data-recipename='' data-ct-action='recipeClick'></a> </div></div></div><meta itemprop='datePublished' content=''> </div></li></ul> </div><div class='row c-recipe-listing-pagination'> <button class='c-recipe-listing-pagination__first-btn js-recipe-listing-pagination__first-btn o-btn o-btn--primary'> First </button> <button class='c-recipe-listing-pagination__previous-btn js-recipe-listing-pagination__previous-btn o-btn o-btn--primary'> Previous </button> <button class='c-recipe-listing-pagination__next-btn js-recipe-listing-pagination__next-btn o-btn o-btn--primary'> Next </button> <button class='c-recipe-listing-pagination__last-btn js-recipe-listing-pagination__last-btn o-btn o-btn--primary'> Last </button> </div></div></div></div>"
                },
                {
                    "tabTitle": "Trending",
                    "randomNumber": "543",
                    "content": "<div data-role='recipe-listing' data-path='data/recipe-listing-recipe-detail-01.json' class='recipe-listing' id='recipe-listing-710'> <div class='c-recipe-list-fixed ' data-componentname='recipeListing' data-component-variants='list-view' data-component-positions='6'> <div class='c-recipe-listing__wrapper container'> <div class='c-recipe-listing-heading'> <div class='c-recipe-listing-heading__heading-container'> </div></div><div class='c-recipe-listing-filter clearfix'> <div class='c-recipe-listing-filter__block'> <div class='c-recipe-listing-filter__container class A '> <h3 class='c-recipe-listing__filter-text o-text__heading-3'>1st Heading</h3> <h4 class='c-recipe-listing__filter-text o-text__heading-4'>1st SubHeading</h4> <select class='o-filter-dropdown c-recipe-listing-filter__filter c-recipe-listing-filter__dropdown' name='recipe-listing-filter--0' data-filter-type='dropdown' data-ct-action='filter'> <option value=''>filter default value</option> <option value='unilever:whitelabel/recipes/rms/budget/1369'>Average</option> <option value='unilever:whitelabel/recipes/rms/budget/1370'>Budget</option> </select> </div><div class='c-recipe-listing-filter__container class A c-recipe-listing-filter__expand '> <h3 class='c-recipe-listing__filter-text o-text__heading-3'>2nd Heading</h3> <h4 class='c-recipe-listing__filter-text o-text__heading-4'>2nd SubHeading</h4> <label> <input type='checkbox' value='unilever:whitelabel/recipes/rms/budget/1371' class='c-recipe-listing-filter__filter c-recipe-listing-filter__checkbox' data-filter-type='checkBox' data-ct-action='filter' data-label='Summer'> Summer </label> <label> <input type='checkbox' value='unilever:whitelabel/recipes/rms/budget/1373' class='c-recipe-listing-filter__filter c-recipe-listing-filter__checkbox' data-filter-type='checkBox' data-ct-action='filter' data-label='Winter'> Winter </label> </div><div class='c-recipe-listing-filter__container class B c-recipe-listing-filter__expand '> <h3 class='c-recipe-listing__filter-text o-text__heading-3'>3rd Heading</h3> <h4 class='c-recipe-listing__filter-text o-text__heading-4'>3rd SubHeading</h4> <label> <input type='radio' name='3rd Heading' value='unilever:whitelabel/recipes/rms/cooking method/1372' class='c-recipe-listing-filter__filter c-recipe-listing-filter__radio' data-filter-type='radioButton' data-ct-action='filter' data-label='Stir fry'> Stir fry </label> <label> <input type='radio' name='3rd Heading' value='unilever:whitelabel/recipes/rms/cooking method/1374' class='c-recipe-listing-filter__filter c-recipe-listing-filter__radio' data-filter-type='radioButton' data-ct-action='filter' data-label='Blanch'> Blanch </label> <label> <input type='radio' name='3rd Heading' value='unilever:whitelabel/recipes/rms/cooking method/1376' class='c-recipe-listing-filter__filter c-recipe-listing-filter__radio' data-filter-type='radioButton' data-ct-action='filter' data-label='No cook'> No cook </label> <label> <input type='radio' name='3rd Heading' value='unilever:whitelabel/recipes/rms/cooking method/1377' class='c-recipe-listing-filter__filter c-recipe-listing-filter__radio' data-filter-type='radioButton' data-ct-action='filter' data-label='Boil'> Boil </label> <label> <input type='radio' name='3rd Heading' value='unilever:whitelabel/recipes/rms/cooking method/1378' class='c-recipe-listing-filter__filter c-recipe-listing-filter__radio' data-filter-type='radioButton' data-ct-action='filter' data-label='Deep fry'> Deep fry </label> <label> <input type='radio' name='3rd Heading' value='unilever:whitelabel/recipes/rms/cooking method/1379' class='c-recipe-listing-filter__filter c-recipe-listing-filter__radio' data-filter-type='radioButton' data-ct-action='filter' data-label='Fry'> Fry </label> <label> <input type='radio' name='3rd Heading' value='unilever:whitelabel/recipes/rms/cooking method/1380' class='c-recipe-listing-filter__filter c-recipe-listing-filter__radio' data-filter-type='radioButton' data-ct-action='filter' data-label='Grill'> Grill </label> <label> <input type='radio' name='3rd Heading' value='unilever:whitelabel/recipes/rms/cooking method/1382' class='c-recipe-listing-filter__filter c-recipe-listing-filter__radio' data-filter-type='radioButton' data-ct-action='filter' data-label='Microwave'> Microwave </label> <label> <input type='radio' name='3rd Heading' value='unilever:whitelabel/recipes/rms/cooking method/1384' class='c-recipe-listing-filter__filter c-recipe-listing-filter__radio' data-filter-type='radioButton' data-ct-action='filter' data-label='Bake'> Bake </label> <label> <input type='radio' name='3rd Heading' value='unilever:whitelabel/recipes/rms/cooking method/1385' class='c-recipe-listing-filter__filter c-recipe-listing-filter__radio' data-filter-type='radioButton' data-ct-action='filter' data-label='Roast'> Roast </label> <label> <input type='radio' name='3rd Heading' value='unilever:whitelabel/recipes/rms/cooking method/1387' class='c-recipe-listing-filter__filter c-recipe-listing-filter__radio' data-filter-type='radioButton' data-ct-action='filter' data-label='Simmer'> Simmer </label> <label> <input type='radio' name='3rd Heading' value='unilever:whitelabel/recipes/rms/cooking method/1389' class='c-recipe-listing-filter__filter c-recipe-listing-filter__radio' data-filter-type='radioButton' data-ct-action='filter' data-label='Braise'> Braise </label> <label> <input type='radio' name='3rd Heading' value='unilever:whitelabel/recipes/rms/cooking method/1393' class='c-recipe-listing-filter__filter c-recipe-listing-filter__radio' data-filter-type='radioButton' data-ct-action='filter' data-label='Barbecue'> Barbecue </label> </div><div class='c-filter-submit c-recipe-listing-filter__expand'> <button type='button' class='js-apply-filters' data-ct-action='recipeApplyFilter'>Apply filter</button> <button type='button' class='js-cancel-filters'>Cancel</button> </div><div class='c-filter-more'> <button type='button' class='js-more-filters'>More filters</button> </div></div></div><div class='c-filter-tags'> <p class='c-filter-tags__label'>Filtered by:</p><ul class='js-filter-tags'> </ul> <div class='c-filter-see' style='display: none;'> <button type='button' class='js-see-filters'>See filters</button> </div><div class='c-filter-clear'> <p class='c-filter__resultCount'>We have <span>8</span> recipes for you</p><button type='button' class='js-clear-filters'>Clear filters</button> </div></div><div class='c-recipe-listing-sorting clearfix'> <select class='o-filter-dropdown c-recipe-listing-sort__dropdown' name='recipe-listing-sort--' data-ct-action='sorting'> <option value='alphabetical'>Title</option> <option value='averageRating'>Average rating (high to low)</option> <option value='cookingTime'>Cooking time (low to high)</option> <option value='newest'>Newest</option> <option value='preparationTime'>Preparation time (low to high)</option> <option value='recentlyUpdated'>Recently updated</option> </select> </div><div class='clearfix'> <div class='c-recipe-listing-noResult'>We could not find any recipes meeting your search criteria.</div><ul class='c-recipe-listing__list'> <li class='c-recipe-listing__list-item col-sm-4' itemprop='itemListElement' itemscope='' itemtype='http://schema.org/recipe'> <div class='c-recipe-listing-item' itemscope='' itemtype='http://schema.org/recipe'> <div class='c-recipe-listing-item-image '> <a class='c-recipe-listing-item-image__link' href='http://localhost:4502/content/whitelabel/en_gb/home/abc.html' title='' data-ct-action='recipeClick' data-recipename='' itemprop='url'> <span class='c-recipe-listing-item-image__container'> <picture class='loaded'><source srcset='images-cms/recipe-listing/recipe-category/recipe01.jpg' media='screen and (min-width: 1200px)'><source srcset='images-cms/recipe-listing/recipe-category/recipe01.jpg, images-cms/recipe-listing/recipe-category/recipe01.jpg 2x' media='screen and (min-width: 992px) and (max-width: 1199px)'><source srcset='images-cms/recipe-listing/recipe-category/recipe01.jpg, images-cms/recipe-listing/recipe-category/recipe01.jpg 2x' media='screen and (min-width: 768px) and (max-width: 991px)'><source srcset='images-cms/recipe-listing/recipe-category/recipe01.jpg, images-cms/recipe-listing/recipe-category/recipe01.jpg 2x' media='screen and (min-width: 480px) and (max-width: 767px)'><img class='RMS Test Recipe' src='images-cms/recipe-listing/recipe-category/recipe01.jpg' title='RMS Test Recipe' alt='RMS Test Recipe'></picture> </span> </a> </div><div class='c-recipe-listing-item-content '> <div class='c-recipe-listing-item-content__container'> <h3 class='o-text__heading-3 c-recipe-listing-item-content__container-heading' itemprop='headline'> <span itemprop='name'></span> </h3> <p class='c-recipe-listing-item-content__container-subheading'>Grilled cheddar, spinach &amp; onion toastie</p><div class='c-recipe-dietary-attributes'> <ul class='c-recipe-dietary-attributes__list' data-recipeid='83862'> </ul> </div><div class='c-recipe-attributes'> <ul class='c-recipe-attributes__list' data-recipeid='83862'> </ul> </div><div class='c-recipe-listing__cta'> <a href='http://localhost:4502/content/whitelabel/en_gb/home/abc.html' class='o-btn o-btn--primary' data-recipename='' data-ct-action='recipeClick'></a> </div></div></div><meta itemprop='datePublished' content=''> </div></li><li class='c-recipe-listing__list-item col-sm-4' itemprop='itemListElement' itemscope='' itemtype='http://schema.org/recipe'> <div class='c-recipe-listing-item' itemscope='' itemtype='http://schema.org/recipe'> <div class='c-recipe-listing-item-image '> <a class='c-recipe-listing-item-image__link' href='http://localhost:4502/content/whitelabel/en_gb/home/abc.html' title='' data-ct-action='recipeClick' data-recipename='' itemprop='url'> <span class='c-recipe-listing-item-image__container'> <picture class='loaded'><source srcset='images-cms/recipe-listing/recipe-category/recipe02.jpg' media='screen and (min-width: 1200px)'><source srcset='images-cms/recipe-listing/recipe-category/recipe02.jpg, images-cms/recipe-listing/recipe-category/recipe02.jpg 2x' media='screen and (min-width: 992px) and (max-width: 1199px)'><source srcset='images-cms/recipe-listing/recipe-category/recipe02.jpg, images-cms/recipe-listing/recipe-category/recipe02.jpg 2x' media='screen and (min-width: 768px) and (max-width: 991px)'><source srcset='images-cms/recipe-listing/recipe-category/recipe02.jpg, images-cms/recipe-listing/recipe-category/recipe02.jpg 2x' media='screen and (min-width: 480px) and (max-width: 767px)'><img class='RMS Test Recipe' src='images-cms/recipe-listing/recipe-category/recipe02.jpg' title='RMS Test Recipe' alt='RMS Test Recipe'></picture> </span> </a> </div><div class='c-recipe-listing-item-content '> <div class='c-recipe-listing-item-content__container'> <h3 class='o-text__heading-3 c-recipe-listing-item-content__container-heading' itemprop='headline'> <span itemprop='name'></span> </h3> <p class='c-recipe-listing-item-content__container-subheading'>Grilled cheddar, spinach &amp; onion toastie</p><div class='c-recipe-dietary-attributes'> <ul class='c-recipe-dietary-attributes__list' data-recipeid='83862'> </ul> </div><div class='c-recipe-attributes'> <ul class='c-recipe-attributes__list' data-recipeid='83862'> </ul> </div><div class='c-recipe-listing__cta'> <a href='http://localhost:4502/content/whitelabel/en_gb/home/abc.html' class='o-btn o-btn--primary' data-recipename='' data-ct-action='recipeClick'></a> </div></div></div><meta itemprop='datePublished' content=''> </div></li><li class='c-recipe-listing__list-item col-sm-4' itemprop='itemListElement' itemscope='' itemtype='http://schema.org/recipe'> <div class='c-recipe-listing-item' itemscope='' itemtype='http://schema.org/recipe'> <div class='c-recipe-listing-item-image '> <a class='c-recipe-listing-item-image__link' href='http://localhost:4502/content/whitelabel/en_gb/home/abc.html' title='' data-ct-action='recipeClick' data-recipename='' itemprop='url'> <span class='c-recipe-listing-item-image__container'> <picture class='loaded'><source srcset='images-cms/recipe-listing/recipe-category/recipe03.jpg' media='screen and (min-width: 1200px)'><source srcset='images-cms/recipe-listing/recipe-category/recipe03.jpg, images-cms/recipe-listing/recipe-category/recipe03.jpg 2x' media='screen and (min-width: 992px) and (max-width: 1199px)'><source srcset='images-cms/recipe-listing/recipe-category/recipe03.jpg, images-cms/recipe-listing/recipe-category/recipe03.jpg 2x' media='screen and (min-width: 768px) and (max-width: 991px)'><source srcset='images-cms/recipe-listing/recipe-category/recipe03.jpg, images-cms/recipe-listing/recipe-category/recipe03.jpg 2x' media='screen and (min-width: 480px) and (max-width: 767px)'><img class='RMS Test Recipe' src='images-cms/recipe-listing/recipe-category/recipe03.jpg' title='RMS Test Recipe' alt='RMS Test Recipe'></picture> </span> </a> </div><div class='c-recipe-listing-item-content '> <div class='c-recipe-listing-item-content__container'> <h3 class='o-text__heading-3 c-recipe-listing-item-content__container-heading' itemprop='headline'> <span itemprop='name'></span> </h3> <p class='c-recipe-listing-item-content__container-subheading'>Lorem ispum dolor sit amet, consectetuer adipiscing elit</p><div class='c-recipe-dietary-attributes'> <ul class='c-recipe-dietary-attributes__list' data-recipeid='83862'> </ul> </div><div class='c-recipe-attributes'> <ul class='c-recipe-attributes__list' data-recipeid='83862'> </ul> </div><div class='c-recipe-listing__cta'> <a href='http://localhost:4502/content/whitelabel/en_gb/home/abc.html' class='o-btn o-btn--primary' data-recipename='' data-ct-action='recipeClick'></a> </div></div></div><meta itemprop='datePublished' content=''> </div></li><li class='c-recipe-listing__list-item col-sm-4' itemprop='itemListElement' itemscope='' itemtype='http://schema.org/recipe'> <div class='c-recipe-listing-item' itemscope='' itemtype='http://schema.org/recipe'> <div class='c-recipe-listing-item-image '> <a class='c-recipe-listing-item-image__link' href='http://localhost:4502/content/whitelabel/en_gb/home/abc.html' title='' data-ct-action='recipeClick' data-recipename='' itemprop='url'> <span class='c-recipe-listing-item-image__container'> <picture class='loaded'><source srcset='images-cms/recipe-listing/recipe-category/recipe04.jpg' media='screen and (min-width: 1200px)'><source srcset='images-cms/recipe-listing/recipe-category/recipe04.jpg, images-cms/recipe-listing/recipe-category/recipe04.jpg 2x' media='screen and (min-width: 992px) and (max-width: 1199px)'><source srcset='images-cms/recipe-listing/recipe-category/recipe04.jpg, images-cms/recipe-listing/recipe-category/recipe04.jpg 2x' media='screen and (min-width: 768px) and (max-width: 991px)'><source srcset='images-cms/recipe-listing/recipe-category/recipe04.jpg, images-cms/recipe-listing/recipe-category/recipe04.jpg 2x' media='screen and (min-width: 480px) and (max-width: 767px)'><img class='RMS Test Recipe' src='images-cms/recipe-listing/recipe-category/recipe04.jpg' title='RMS Test Recipe' alt='RMS Test Recipe'></picture> </span> </a> </div><div class='c-recipe-listing-item-content '> <div class='c-recipe-listing-item-content__container'> <h3 class='o-text__heading-3 c-recipe-listing-item-content__container-heading' itemprop='headline'> <span itemprop='name'></span> </h3> <p class='c-recipe-listing-item-content__container-subheading'>Lorem ispum dolor sit amet, consectetuer adipiscing elit</p><div class='c-recipe-dietary-attributes'> <ul class='c-recipe-dietary-attributes__list' data-recipeid='83862'> </ul> </div><div class='c-recipe-attributes'> <ul class='c-recipe-attributes__list' data-recipeid='83862'> </ul> </div><div class='c-recipe-listing__cta'> <a href='http://localhost:4502/content/whitelabel/en_gb/home/abc.html' class='o-btn o-btn--primary' data-recipename='' data-ct-action='recipeClick'></a> </div></div></div><meta itemprop='datePublished' content=''> </div></li><li class='c-recipe-listing__list-item col-sm-4' itemprop='itemListElement' itemscope='' itemtype='http://schema.org/recipe'> <div class='c-recipe-listing-item' itemscope='' itemtype='http://schema.org/recipe'> <div class='c-recipe-listing-item-image '> <a class='c-recipe-listing-item-image__link' href='http://localhost:4502/content/whitelabel/en_gb/home/abc.html' title='' data-ct-action='recipeClick' data-recipename='' itemprop='url'> <span class='c-recipe-listing-item-image__container'> <picture class='loaded'><source srcset='images-cms/recipe-listing/recipe-category/recipe05.jpg' media='screen and (min-width: 1200px)'><source srcset='images-cms/recipe-listing/recipe-category/recipe05.jpg, images-cms/recipe-listing/recipe-category/recipe05.jpg 2x' media='screen and (min-width: 992px) and (max-width: 1199px)'><source srcset='images-cms/recipe-listing/recipe-category/recipe05.jpg, images-cms/recipe-listing/recipe-category/recipe05.jpg 2x' media='screen and (min-width: 768px) and (max-width: 991px)'><source srcset='images-cms/recipe-listing/recipe-category/recipe05.jpg, images-cms/recipe-listing/recipe-category/recipe05.jpg 2x' media='screen and (min-width: 480px) and (max-width: 767px)'><img class='RMS Test Recipe' src='images-cms/recipe-listing/recipe-category/recipe05.jpg' title='RMS Test Recipe' alt='RMS Test Recipe'></picture> </span> </a> </div><div class='c-recipe-listing-item-content '> <div class='c-recipe-listing-item-content__container'> <h3 class='o-text__heading-3 c-recipe-listing-item-content__container-heading' itemprop='headline'> <span itemprop='name'></span> </h3> <p class='c-recipe-listing-item-content__container-subheading'>Grilled cheddar, spinach &amp; onion toastie</p><div class='c-recipe-dietary-attributes'> <ul class='c-recipe-dietary-attributes__list' data-recipeid='83862'> </ul> </div><div class='c-recipe-attributes'> <ul class='c-recipe-attributes__list' data-recipeid='83862'> </ul> </div><div class='c-recipe-listing__cta'> <a href='http://localhost:4502/content/whitelabel/en_gb/home/abc.html' class='o-btn o-btn--primary' data-recipename='' data-ct-action='recipeClick'></a> </div></div></div><meta itemprop='datePublished' content=''> </div></li><li class='c-recipe-listing__list-item col-sm-4' itemprop='itemListElement' itemscope='' itemtype='http://schema.org/recipe'> <div class='c-recipe-listing-item' itemscope='' itemtype='http://schema.org/recipe'> <div class='c-recipe-listing-item-image '> <a class='c-recipe-listing-item-image__link' href='http://localhost:4502/content/whitelabel/en_gb/home/abc.html' title='' data-ct-action='recipeClick' data-recipename='' itemprop='url'> <span class='c-recipe-listing-item-image__container'> <picture class='loaded'><source srcset='images-cms/recipe-listing/recipe-category/recipe06.jpg' media='screen and (min-width: 1200px)'><source srcset='images-cms/recipe-listing/recipe-category/recipe06.jpg, images-cms/recipe-listing/recipe-category/recipe06.jpg 2x' media='screen and (min-width: 992px) and (max-width: 1199px)'><source srcset='images-cms/recipe-listing/recipe-category/recipe06.jpg, images-cms/recipe-listing/recipe-category/recipe06.jpg 2x' media='screen and (min-width: 768px) and (max-width: 991px)'><source srcset='images-cms/recipe-listing/recipe-category/recipe06.jpg, images-cms/recipe-listing/recipe-category/recipe06.jpg 2x' media='screen and (min-width: 480px) and (max-width: 767px)'><img class='RMS Test Recipe' src='images-cms/recipe-listing/recipe-category/recipe06.jpg' title='RMS Test Recipe' alt='RMS Test Recipe'></picture> </span> </a> </div><div class='c-recipe-listing-item-content '> <div class='c-recipe-listing-item-content__container'> <h3 class='o-text__heading-3 c-recipe-listing-item-content__container-heading' itemprop='headline'> <span itemprop='name'></span> </h3> <p class='c-recipe-listing-item-content__container-subheading'>Lorem ispum dolor sit amet, consectetuer adipiscing elit</p><div class='c-recipe-dietary-attributes'> <ul class='c-recipe-dietary-attributes__list' data-recipeid='83862'> </ul> </div><div class='c-recipe-attributes'> <ul class='c-recipe-attributes__list' data-recipeid='83862'> </ul> </div><div class='c-recipe-listing__cta'> <a href='http://localhost:4502/content/whitelabel/en_gb/home/abc.html' class='o-btn o-btn--primary' data-recipename='' data-ct-action='recipeClick'></a> </div></div></div><meta itemprop='datePublished' content=''> </div></li></ul> </div><div class='row c-recipe-listing-pagination'> <button class='c-recipe-listing-pagination__first-btn js-recipe-listing-pagination__first-btn o-btn o-btn--primary'> First </button> <button class='c-recipe-listing-pagination__previous-btn js-recipe-listing-pagination__previous-btn o-btn o-btn--primary'> Previous </button> <button class='c-recipe-listing-pagination__next-btn js-recipe-listing-pagination__next-btn o-btn o-btn--primary'> Next </button> <button class='c-recipe-listing-pagination__last-btn js-recipe-listing-pagination__last-btn o-btn o-btn--primary'> Last </button> </div></div></div></div>"
                }
            ]
        },
        "viewType": "defaultView",
        "randomNumber": [
            "124",
            "366",
            "543",
            "983"
        ],
        "resourceType": "unilever-iea/components/tabbedControl"
    }
}