{
  "data": {
    "path": "/content/whitelabel/en_gb/home/shoppable/thankyou/_jcr_content/flexi_hero_par/thankyou",
    "componentType": "thankYou",
    "ajaxURL": "/content/whitelabel/en_gb/home/shoppable/thankyou/_jcr_content/flexi_hero_par/thankyou.data.ajax.json",
    "thankYou": {
      "image": {
        "path": "/content/dam/unilever/magnum/global/pack_shot/hero_image/ice_cream/out_of_home_ice_cream/4mp_magnum_almond/MAGNUM_IH_ALMOND_4_UK-331139.png",
        "fileName": "",
        "extension": "png",
        "isNotAdaptiveImage": "false",
        "title": "MAGNUM_IH_ALMOND_4_UK-331139",
        "url": "/content/dam/unilever/magnum/global/pack_shot/hero_image/ice_cream/out_of_home_ice_cream/4mp_magnum_almond/MAGNUM_IH_ALMOND_4_UK-331139.png",
        "altImage": "MAGNUM_IH_ALMOND_4_UK-331139"
      },
      "turnToConfig": {
        "enable": "true",
        "itemJS": "//static.www.turnto.com/sitedata/JEd7TwPCh81RpF2site/v4_2/sku/d/itemjs",
        "setupType": "dynamicEmbed",
        "siteKey": "JEd7TwPCh81RpF2site",
        "skipCssLoad": "true",
        "source": "//static.www.turnto.com/traServer4_2/trajs/JEd7TwPCh81RpF2site/tra.js"
      },
      "transactionServiceUrl": "/bin/ts/public/shoppable/order",
      "brandName": "whitelabel",
      "componentVariation": "defaultView",
      "componentPosition": 1,
      "orderNumberLabel": "Your order number",
      "description": "",
      "title": "heading",
      "locale": "en-GB",
      "market": "en_gb",
      "feedTo": "turnTo",
      "serviceBrandName": "WhiteLabel",
      "campaign": "DOVE-D2",
      "componentName": "thankYou",
      "sucessMessage": "Order Processed sucessfully",
      "failureMessage": "failure meaas",
      "entity": "shoppable"
    },
    "clientSideRendering": false,
    "viewType": "defaultView",
    "randomNumber": "361",
    "isContainer": false,
    "resourceType": "unilever-iea/components/thankYou"
  },
  "responseHeader": {
    "messages": [],
    "status": "200"
  }
}