{
    "data": {
        "heroV2": {
          "generalConfig":{
        "secondary":{
          "ctaUrl":"",
          "ctaLabel":"",
          "openInNewWindow":true
        },
        "headingText":"Lorem ipsum",
        "longSubheadingText":"<p>Dolor sit amet</p>",
        "shortSubheadingText":"",
        "heroType":"image",
        "primary":{
          "ctaUrl":"",
          "ctaLabel":"",
          "openInNewWindow":false
        }
            },
            "image":{
              "url":"http://localhost:4502/content/whitelabel/images-cms/hero-v2/home/top-hero-home-1.png",
              "fileName":"",
              "isNotAdaptiveImage":false,
              "extension":"jpg",
              "altImage":"Lorem ipsum",
              "title":"",
              "path":"images-cms/hero-v2/home/top-hero-home-1",
              "carousalPanelName":"Carousel Panel Name"
            },
            "readMore":{
             "isReadMoreEnable": false,
             "readLess":"Show less",
             "readMore":"Read more"
            },
            "brandName":"whitelabel",
          "market":"en_gb",
          "locale":"en-GB",
          "componentVariation":"imageView",
          "componentPosition":1,
          "componentName":"heroV2",
            "viewType": "imageView",
          "style":{
            "type":"type-a",
            "class":"top-hero-home full-hero"
          }
        },
        "viewType": "defaultView",
        "componentType": "hero-v2",
        "isContainer": false
    }
}
