{
    "data": {
        "whatsNew": {
            "brandName": "whitelabel",
            "type": "productRange",
            "title": "Explore our products",
            "enableProductBadge":"no",
            "prioritizeImageLeft":"true",
            "productRanges": [
               {
                  "image": {
                        "path": "/images-cms/products/product",
                        "title": "image title",
                        "alt": "image alt",
                        "extension": "png",
                        "fileName": "01",
                        "url": "/images-cms/whats-new/whats-new-range.enscale.01.full.high.png"
                  },
                  "name": "Pure Care Dry Oil Conditioner",
                  "shortCopy": "Discover the nourishing power of pure oils and transform dull, dry hair into silky, soft locks.",
                  "cta":{ 
                     "link":"/",
                     "label":"explore the range"
                  },
                  "tagList": [
                     "new"
                  ]
               },
               {
                  "image": {
                        "path": "/images-cms/products/product",
                        "title": "image title",
                        "alt": "image alt",
                        "extension": "png",
                        "fileName": "02",
                        "url": "/images-cms/whats-new/whats-new-range.enscale.01.full.high.png"
                  },                  
                  "name": "Oxygen & Moisture Shampoo",
                  "shortCopy": "Delicately cleanse and moisturise your hair for 95% more bounce and fullness.",
                  "cta":{ 
                     "link":"/",
                     "label":"explore the range"
                  },
                  "tagList": [
                     "new"
                  ]
               },
               {
                  "image": {
                        "path": "/images-cms/products/product",
                        "title": "image title",
                        "alt": "image alt",
                        "extension": "png",
                        "fileName": "03",
                        "url": "/images-cms/whats-new/whats-new-range.enscale.03.full.high.png"
                  },
                  "name": "Pure Care Dry Oil Nourishing Treatment with African Macadamia Oil",
                  "shortCopy": "Infused with natural, pure oils to make your hair its shiny, strong, healthy-looking best.",
                  "cta": { 
                     "link": "/",
                     "label": "explore the range"
                  },
                  "tagList": [
                     "new"
                  ]
               }
            ],
            "anchorLinkNavigation": {
                "showAsNavigation": "true",
                "id": "productWhatsNew",
                "label": "product whats new"
             } 
        },
        "viewType": "productRange",
        "randomNumber":"3549",
        "componentType": "whatsNew",
        "isContainer": false
    }
}