<?xml version="1.0" encoding="UTF-8" standalone="no"?>
<svg width="138px" height="430px" viewBox="0 0 138 430" version="1.1" xmlns="http://www.w3.org/2000/svg" xmlns:xlink="http://www.w3.org/1999/xlink" xmlns:sketch="http://www.bohemiancoding.com/sketch/ns">
    <!-- Generator: sketchtool 3.4 (356) - http://www.bohemiancoding.com/sketch -->
    <title>image banner curve right : TL@0.5x</title>
    <desc>Created with sketchtool.</desc>
    <defs></defs>
    <g id="Page-1" stroke="none" stroke-width="1" fill="none" fill-rule="evenodd" sketch:type="MSPage">
        <g id="T7-hub---iPad-landscape" sketch:type="MSArtboardGroup" transform="translate(-1138.000000, -5223.000000)" fill="#FFFFFF">
            <g id="grid-3-:-self-esteem" sketch:type="MSLayerGroup" transform="translate(207.000000, 4058.000000)">
                <g id="row-3" transform="translate(20.000000, 865.000000)" sketch:type="MSShapeGroup">
                    <g id="featured-video">
                        <g id="image" transform="translate(0.000000, 300.000000)">
                            <g id="image-banner-curve-right-:-TL" transform="translate(911.000000, 0.000000)">
                                <path d="M137.431207,429.986314 C137.477019,426.658445 137.5,423.325059 137.5,419.986305 C137.5,262.923198 86.6437704,117.7382 0.5,2.84217094e-14 L0.5,429.986305 L137.431207,429.986305 L137.431207,429.986314 Z" transform="translate(69.000000, 214.993157) scale(-1, 1) translate(-69.000000, -214.993157) "></path>
                            </g>
                        </g>
                    </g>
                </g>
            </g>
        </g>
    </g>
</svg>