<?xml version="1.0" encoding="UTF-8" standalone="no"?>
<svg width="2048px" height="167px" viewBox="0 0 2048 167" version="1.1" xmlns="http://www.w3.org/2000/svg" xmlns:xlink="http://www.w3.org/1999/xlink" xmlns:sketch="http://www.bohemiancoding.com/sketch/ns">
    <!-- Generator: Sketch 3.3.2 (12043) - http://www.bohemiancoding.com/sketch -->
    <title> </title>
    <desc>Created with Sketch.</desc>
    <defs>
        <filter x="-50%" y="-50%" width="200%" height="200%" filterUnits="objectBoundingBox" id="filter-1">
            <feOffset dx="0" dy="-30" in="SourceAlpha" result="shadowOffsetOuter1"></feOffset>
            <feGaussianBlur stdDeviation="41" in="shadowOffsetOuter1" result="shadowBlurOuter1"></feGaussianBlur>
            <feColorMatrix values="0 0 0 0 0   0 0 0 0 0   0 0 0 0 0  0 0 0 0.35 0" in="shadowBlurOuter1" type="matrix" result="shadowMatrixOuter1"></feColorMatrix>
            <feMerge>
                <feMergeNode in="shadowMatrixOuter1"></feMergeNode>
                <feMergeNode in="SourceGraphic"></feMergeNode>
            </feMerge>
        </filter>
        <path d="M2048,4047.07315 L2048,4239.83603 C1794,4285.44154 1426.572,4314 1016.88,4314 C614.8,4314 252,4286.49267 0,4242.36133 L0,4046.58109 L0,1 L2048,1 L2048,4047.07315 Z" id="path-2"></path>
    </defs>
    <g id="Page-1" stroke="none" stroke-width="1" fill="none" fill-rule="evenodd" sketch:type="MSPage">
        <g id="iPad-Landscape---2048-x-1536---Homepage---Themed" sketch:type="MSArtboardGroup" transform="translate(0.000000, -5548.000000)">
            <g id="CP_XX-:-what's-new-/-explore-our-products" sketch:type="MSLayerGroup" transform="translate(0.000000, 5240.000000)" fill="#FFFFFF">
                <g id="curve-shadow" sketch:type="MSShapeGroup">
                    <path d="M279,183.206909 L279,97.9309091 C463.794922,64.7672727 731.113145,44 1029.18008,44 C1321.70898,44 1585.66016,64.0029091 1769,96.0945455 L1769,183.564727 L1769,332 L279,332 L279,183.206909 Z" id="Imported-Layers-Copy" opacity="0.119999997" filter="url(#filter-1)" transform="translate(1024.000000, 188.000000) rotate(-180.000000) translate(-1024.000000, -188.000000) "></path>
                    <path d="M0,192.384744 L0,75.1160552 C254,29.5105374 621.428,0.952082145 1031.12,0.952082145 C1433.2,0.952082145 1796,28.4594103 2048,72.5907497 L2048,192.876803 L2048,347 L-6.123234e-15,347 L-2.33680223e-15,192.384744 Z" id="Imported-Layers-Copy" transform="translate(1024.000000, 173.976041) rotate(-180.000000) translate(-1024.000000, -173.976041) "></path>
                </g>
            </g>
            <g id="background-:-spashes" sketch:type="MSLayerGroup" transform="translate(0.000000, 1273.000000)">
                <mask id="mask-3" sketch:name="curve mask" fill="white">
                    <use xlink:href="#path-2"></use>
                </mask>
                <use id="curve-mask" fill="#FFFFFF" sketch:type="MSShapeGroup" xlink:href="#path-2"></use>
            </g>
        </g>
    </g>
</svg>