<?xml version="1.0" encoding="UTF-8" standalone="no"?>
<svg width="22px" height="36px" viewBox="0 0 22 36" version="1.1" xmlns="http://www.w3.org/2000/svg" xmlns:xlink="http://www.w3.org/1999/xlink">
    <!-- Generator: sketchtool 3.8.3 (29802) - http://www.bohemiancoding.com/sketch -->
    <title>B5B00E4D-9935-4E4C-AC9B-F43C187A0525</title>
    <desc>Created with sketchtool.</desc>
    <defs></defs>
    <g id="Page-1" stroke="none" stroke-width="1" fill="none" fill-rule="evenodd">
        <g id="TP-Product-Listing-White-Label-" transform="translate(-152.000000, -438.000000)" stroke-width="2" stroke="#EFEFEF">
            <g id="CP-Related-Products-Grid-View-Default-TP" transform="translate(98.000000, 21.000000)">
                <g id="products-" transform="translate(0.000000, 367.000000)">
                    <g id="row-:-1">
                        <g id="card-:-1">
                            <g id="lesser-:-award-" transform="translate(30.000000, 31.000000)">
                                <g id="icn-:-award-:-small-" transform="translate(25.000000, 20.000000)">
                                    <circle id="Combined-Shape" cx="10" cy="10" r="10"></circle>
                                    <g id="Group" transform="translate(1.500000, 18.000000)">
                                        <path d="M3.00969014,0.469080768 L0.279620074,10.657841 C0.279620074,10.657841 4.06965189,6.49699586 4.06965173,6.49699599 C4.06965157,6.49699613 5.12226232,11.9554231 5.12226232,11.9554231 L7.19353168,4.22534023" id="Path-255"></path>
                                        <path d="M14.1222623,0.469080768 L16.8523324,10.657841 C16.8523324,10.657841 13.0623006,6.49699586 13.0623007,6.49699599 C13.0623009,6.49699613 12.0096901,11.9554231 12.0096901,11.9554231 L9.93842079,4.22534023" id="Path-255-Copy"></path>
                                    </g>
                                </g>
                            </g>
                        </g>
                    </g>
                </g>
            </g>
        </g>
    </g>
</svg>