<?xml version="1.0" encoding="UTF-8" standalone="no"?>
<svg width="68px" height="68px" viewBox="0 0 68 68" version="1.1" xmlns="http://www.w3.org/2000/svg" xmlns:xlink="http://www.w3.org/1999/xlink">
    <!-- Generator: Sketch 3.8.3 (29802) - http://www.bohemiancoding.com/sketch -->
    <title>icn : speech bubble@3x</title>
    <desc>Created with Sketch.</desc>
    <defs>
        <path d="M45.3539444,55.7785405 C40.862305,58.4595692 35.611046,60 30,60 C13.4314575,60 0,46.5685425 0,30 C0,13.4314575 13.4314575,0 30,0 C46.5685425,0 60,13.4314575 60,30 C60,36.594565 57.8722194,42.6921602 54.2657491,47.6436949 L58.4302917,60.137323 L45.3539444,55.7785405 Z" id="path-1"></path>
        <filter x="-50%" y="-50%" width="200%" height="200%" filterUnits="objectBoundingBox" id="filter-2">
            <feOffset dx="1" dy="1" in="SourceAlpha" result="shadowOffsetOuter1"></feOffset>
            <feGaussianBlur stdDeviation="2" in="shadowOffsetOuter1" result="shadowBlurOuter1"></feGaussianBlur>
            <feColorMatrix values="0 0 0 0 0.752941176   0 0 0 0 0.752941176   0 0 0 0 0.752941176  0 0 0 1 0" type="matrix" in="shadowBlurOuter1"></feColorMatrix>
        </filter>
    </defs>
    <g id="Page-1" stroke="none" stroke-width="1" fill="none" fill-rule="evenodd">
        <g id="TL-White-Label-" transform="translate(-21.000000, -10640.000000)">
            <g id="CP-Live-Chat-Default" transform="translate(24.000000, 10438.000000)">
                <g id="live-chat-:-unavailable" transform="translate(0.000000, 205.000000)">
                    <g id="icn-:-speech-bubble">
                        <use fill="black" fill-opacity="1" filter="url(#filter-2)" xlink:href="#path-1"></use>
                        <use fill="#747474" fill-rule="evenodd" xlink:href="#path-1"></use>
                    </g>
                </g>
            </g>
        </g>
    </g>
</svg>