<?xml version="1.0" encoding="utf-8"?>
<!-- Generator: Adobe Illustrator 18.1.0, SVG Export Plug-In . SVG Version: 6.00 Build 0)  -->
<svg version="1.1" id="Layer_1" xmlns="http://www.w3.org/2000/svg" xmlns:xlink="http://www.w3.org/1999/xlink" x="0px" y="0px"
	 viewBox="0 0 2048 500" enable-background="new 0 0 2048 500" xml:space="preserve">
<g opacity="0.3">
	
		<image overflow="visible" enable-background="new    " width="498" height="99" xlink:href="10D59C94CC269441.png"  transform="matrix(3.9963 0 0 3.9963 28.9119 -66.5739)">
	</image>
</g>
<path fill="#FFFFFF" d="M0.8-98.2V23.3c0,0,1023.1,147.3,1023.2,147.3c0,0,1022.8-147.4,1022.8-147.3V-98.2H0.8z"/>
</svg>
