<?xml version="1.0" encoding="UTF-8" standalone="no"?>
<svg width="170px" height="170px" viewBox="0 0 170 170" version="1.1" xmlns="http://www.w3.org/2000/svg" xmlns:xlink="http://www.w3.org/1999/xlink" xmlns:sketch="http://www.bohemiancoding.com/sketch/ns">
    <!-- Generator: Sketch 3.3.3 (12081) - http://www.bohemiancoding.com/sketch -->
    <title>icon : play</title>
    <desc>Created with Sketch.</desc>
    <defs>
        <linearGradient x1="100%" y1="50%" x2="0%" y2="50%" id="linearGradient-1">
            <stop stop-color="#666666" offset="0%"></stop>
            <stop stop-color="#C7C7C7" offset="25.8131378%"></stop>
            <stop stop-color="#E5E5E5" offset="49.4260204%"></stop>
            <stop stop-color="#C7C7C7" offset="76.426977%"></stop>
            <stop stop-color="#A1A1A1" offset="100%"></stop>
        </linearGradient>
    </defs>
    <g id="Page-1" stroke="none" stroke-width="1" fill="none" fill-rule="evenodd" sketch:type="MSPage">
        <g id="Stylekit---iPad-Landscape---2048-x-1536---Men+Care" sketch:type="MSArtboardGroup" transform="translate(-562.000000, -11993.000000)">
            <g id="08-:-iconography" sketch:type="MSLayerGroup" transform="translate(18.000000, 11536.000000)">
                <g id="icon-:-video-player-" transform="translate(544.000000, 457.000000)" sketch:type="MSShapeGroup">
                    <g id="icon-:-play">
                        <rect id="Rectangle-204" stroke="url(#linearGradient-1)" stroke-width="3" fill="#258197" x="0" y="0" width="170" height="170" rx="6"></rect>
                        <path d="M72.6099412,56.1159951 C71.720583,55.5178993 70.5876737,55.4621264 69.6455156,55.9711702 C68.7036627,56.4802141 68.125,57.4711857 68.125,58.5496685 L68.125,112.212814 C68.125,113.291297 68.7036627,114.282577 69.6455156,114.791312 C70.0737138,115.023032 70.5391466,115.137351 71.0076315,115.137351 C71.5695081,115.137351 72.1277222,114.972497 72.6123828,114.646487 L112.479985,87.8147606 C113.286023,87.2724378 113.769462,86.359117 113.769462,85.3810872 C113.769462,84.4033655 113.284802,83.4900447 112.479069,82.9477219 L72.6099412,56.1159951 Z" id="Imported-Layers-Copy-4" fill="#FFFFFE"></path>
                    </g>
                </g>
            </g>
        </g>
    </g>
</svg>