<?xml version="1.0" encoding="UTF-8" standalone="no"?>
<svg width="419px" height="417px" viewBox="0 0 419 417" version="1.1" xmlns="http://www.w3.org/2000/svg" xmlns:xlink="http://www.w3.org/1999/xlink" xmlns:sketch="http://www.bohemiancoding.com/sketch/ns">
    <!-- Generator: Sketch 3.3.3 (12081) - http://www.bohemiancoding.com/sketch -->
    <title>step number</title>
    <desc>Created with Sketch.</desc>
    <defs></defs>
    <g id="Page-1" stroke="none" stroke-width="1" fill="none" fill-rule="evenodd" sketch:type="MSPage">
        <g id="T8-Article---iPad-landscape---2048-x-1536---Men+Care---How-to-shave-a-beard" sketch:type="MSArtboardGroup" transform="translate(-195.000000, -1591.000000)" fill="#258197">
            <g id="CP_33-:-Body-copy-tips-and-tricks-list" sketch:type="MSLayerGroup" transform="translate(194.000000, 1489.000000)">
                <g id="paragraphs" transform="translate(1.000000, 102.000000)" sketch:type="MSShapeGroup">
                    <g id="1">
                        <g id="step-number">
                            <g id="element-:-brackets">
                                <path d="M16.5,417 L2.72848411e-12,417 L2.72848411e-12,0 L16.5,0 L16.5,0 L32,0 L32,16 L17,16 L17,401 L32,401 L32,417 L16.5,417 Z" id="icon-:-["></path>
                                <path d="M403,416.99925 L387,416.99925 L387,0 L403.5,0 L419,0 L419,16 L404,16 L404,401 L419,401 L419,417 L403,417 Z" id="icon-:-]" transform="translate(403.000000, 208.500000) scale(-1, 1) translate(-403.000000, -208.500000) "></path>
                            </g>
                        </g>
                    </g>
                </g>
            </g>
        </g>
    </g>
</svg>