<?xml version="1.0" encoding="utf-8"?>
<!-- Generator: Adobe Illustrator 18.1.0, SVG Export Plug-In . SVG Version: 6.00 Build 0)  -->
<svg version="1.1" id="Layer_1" xmlns="http://www.w3.org/2000/svg" xmlns:xlink="http://www.w3.org/1999/xlink" x="0px" y="0px"
	 viewBox="0 0 2048 240" enable-background="new 0 0 2048 240" xml:space="preserve">
<g>
	<linearGradient id="SVGID_1_" gradientUnits="userSpaceOnUse" x1="507.8965" y1="60.0503" x2="1178.4452" y2="60.0503">
		<stop  offset="0" style="stop-color:#FFFFFF"/>
		<stop  offset="1" style="stop-color:#F2F2F2"/>
	</linearGradient>
	<path fill="url(#SVGID_1_)" d="M1178.4,45.7c-41.7,9.3-83.9,19.7-126.7,30.9c-179.6,47-342,43.4-342,43.4
		c-111.5,0-201.9-22.8-201.9-60.2S605-3,713.5,0.3c112.9,3.4,189.6,17.6,331.6,37.3c0,0,46.4,5.5,123,8L1178.4,45.7z"/>
	<linearGradient id="SVGID_2_" gradientUnits="userSpaceOnUse" x1="1028.4672" y1="112.7455" x2="1121.3577" y2="-590.5677">
		<stop  offset="0" style="stop-color:#FFFFFF"/>
		<stop  offset="1" style="stop-color:#E6E6E6"/>
	</linearGradient>
	<path fill="url(#SVGID_2_)" d="M2048,240.6V0c0,0-519.5,0.1-520.7,0.1c0,0-162-3.6-341.1,43.3c-12.5,3.3-24.8,6.4-37.2,9.5v-0.7
		c-28.9,6.7-58.1,14-87.5,21.6c-0.5,0.1-1.1,0.3-1.6,0.4v0c-2.8,0.7-5.6,1.4-8.4,2.2c-179.2,46.9-341.1,43.3-341.1,43.3
		C599.1,119.7,509,97,509,59.7c0-2.7,0.6-5.4,1.6-8H0.1v189H2048z"/>
	<linearGradient id="SVGID_3_" gradientUnits="userSpaceOnUse" x1="344.2224" y1="162.2368" x2="274.6414" y2="-352.8802">
		<stop  offset="0" style="stop-color:#FFFFFF"/>
		<stop  offset="1" style="stop-color:#E6E6E6"/>
	</linearGradient>
	<path fill="url(#SVGID_3_)" d="M687.8,119.4C587.2,116.5,509,94.4,509,59.7c0-33,75.7-56.6,168.2-59.4H0v240.3h687.8V119.4z"/>
</g>
</svg>
