<?xml version="1.0" encoding="utf-8"?>
<!-- Generator: Adobe Illustrator 18.1.0, SVG Export Plug-In . SVG Version: 6.00 Build 0)  -->
<svg version="1.1" id="Layer_1" xmlns="http://www.w3.org/2000/svg" xmlns:xlink="http://www.w3.org/1999/xlink" x="0px" y="0px"
	 viewBox="0 0 99.1 98.5" enable-background="new 0 0 99.1 98.5" xml:space="preserve">
<linearGradient id="SVGID_1_" gradientUnits="userSpaceOnUse" x1="8.3122" y1="46.8035" x2="89.2217" y2="46.8035">
	<stop  offset="0" style="stop-color:#B98B37"/>
	<stop  offset="0.2699" style="stop-color:#DCC182"/>
	<stop  offset="0.4908" style="stop-color:#FFE4AE"/>
	<stop  offset="0.7485" style="stop-color:#DCC182"/>
	<stop  offset="1" style="stop-color:#B98B37"/>
</linearGradient>
<path fill-rule="evenodd" clip-rule="evenodd" fill="url(#SVGID_1_)" d="M88.2,9.3c-1.4-1.4-3.6-1.4-5,0L39.6,52.8l-9.7-9.7
	c-1.4-1.4-3.6-1.4-5,0c-1.4,1.4-1.4,3.6,0,5l12.2,12.2c0.7,0.7,1.6,1,2.5,1c0.9,0,1.8-0.4,2.5-1l46.1-45.9
	C89.6,12.9,89.6,10.7,88.2,9.3z M79.6,33.3c-1.6,0-2.9,1.3-2.9,2.9v35.5c0,4.3-3.5,7.7-7.8,7.7h-47c-4.3,0-7.8-3.5-7.8-7.7V24.9
	c0-4.3,3.5-7.7,7.8-7.7h40.3c1.6,0,2.9-1.3,2.9-2.9c0-1.6-1.3-2.9-2.9-2.9H21.9c-7.5,0-13.6,6.1-13.6,13.6v46.8
	c0,7.5,6.1,13.6,13.6,13.6h47c7.5,0,13.6-6.1,13.6-13.6V36.2C82.5,34.6,81.2,33.3,79.6,33.3z"/>
</svg>
