<?xml version="1.0" encoding="utf-8"?>
<!-- Generator: Adobe Illustrator 18.1.0, SVG Export Plug-In . SVG Version: 6.00 Build 0)  -->
<svg version="1.1" id="Layer_1" xmlns="http://www.w3.org/2000/svg" xmlns:xlink="http://www.w3.org/1999/xlink" x="0px" y="0px"
	 viewBox="0 0 99.1 98.5" enable-background="new 0 0 99.1 98.5" xml:space="preserve">
<g>
	<linearGradient id="SVGID_1_" gradientUnits="userSpaceOnUse" x1="88.3706" y1="23.2362" x2="89.2274" y2="23.2362">
		<stop  offset="0" style="stop-color:#666666"/>
		<stop  offset="0.2699" style="stop-color:#666666"/>
		<stop  offset="0.4908" style="stop-color:#666666"/>
		<stop  offset="0.7485" style="stop-color:#666666"/>
		<stop  offset="1" style="stop-color:#666666"/>
	</linearGradient>
	<path fill="url(#SVGID_1_)" d="M88.5,23.1C90.5,24.7,87.7,22,88.5,23.1L88.5,23.1z"/>
	<linearGradient id="SVGID_2_" gradientUnits="userSpaceOnUse" x1="7.6549" y1="50.7535" x2="90.705" y2="50.7535">
		<stop  offset="0" style="stop-color:#666666"/>
		<stop  offset="0.2699" style="stop-color:#666666"/>
		<stop  offset="0.4908" style="stop-color:#666666"/>
		<stop  offset="0.7485" style="stop-color:#666666"/>
		<stop  offset="1" style="stop-color:#666666"/>
	</linearGradient>
	<path fill="url(#SVGID_2_)" d="M88.5,23.1c-0.8-1.1-2.3-2.7-4.3-4.4c-6.1-5.1-12.8-7.3-19.3-6.2c-8.3,1.4-13.2,5.4-15.8,8.6
		c-2.7-3.2-7.6-7.2-15.8-8.6c-1.1-0.2-2.2-0.3-3.2-0.3c-7.4,0-14.5,4.1-21.2,12.1l-0.1,0.1c-0.5,0.4-0.9,0.9-1.1,1.5
		c-0.2,0.6-0.2,1-0.2,1.4v58.9c0,1.2,0.7,2.3,1.8,2.8c1.1,0.5,2.4,0.3,3.3-0.6C12.9,88.2,24.7,77,34.4,77c8.7,0,11.7,9.6,11.8,10
		c0,0.1,0.1,0.1,0.1,0.1c0,0.1,0.1,0.2,0.1,0.2c0.1,0.1,0.1,0.2,0.2,0.3c0.1,0.1,0.1,0.1,0.1,0.2c0.1,0.1,0.2,0.2,0.2,0.3
		c0.1,0.1,0.1,0.1,0.1,0.1c0.1,0.1,0.2,0.2,0.3,0.3c0.1,0.1,0.1,0.1,0.1,0.1c0.1,0.1,0.3,0.2,0.4,0.3c0,0,0.1,0,0.1,0.1
		c0.5,0.3,1,0.4,1.5,0.4h0.1h0.3c0.1,0,0.1,0,0.2-0.1c0.1,0,0.1,0,0.2-0.1c0.1-0.1,0.3-0.1,0.4-0.1c0.1,0,0.1-0.1,0.1-0.1
		c0.1-0.1,0.3-0.1,0.4-0.2c0.1,0,0.1-0.1,0.1-0.1c0.1-0.1,0.2-0.2,0.3-0.3c0.1-0.1,0.1-0.1,0.1-0.1c0.1-0.1,0.2-0.2,0.3-0.3
		c0.1-0.1,0.1-0.1,0.1-0.2c0.1-0.1,0.2-0.2,0.2-0.3c0.1-0.1,0.1-0.2,0.1-0.2c0.1-0.1,0.1-0.2,0.1-0.3c0-0.1,0.1-0.1,0.1-0.1
		c0.1-0.4,3.1-10,11.8-10c9.7,0,21.6,11.2,21.7,11.3c0.6,0.6,1.3,0.9,2.1,0.9c0.4,0,0.8-0.1,1.2-0.3c1.1-0.5,1.8-1.6,1.8-2.8V27.6
		c0.1-0.2,0.1-0.5,0.1-0.7C90.7,25.9,90.5,25.3,88.5,23.1z M46.2,75.7c-3.2-3.1-7.2-4.7-11.7-4.7c-7.7,0-15.7,4.9-20.7,8.7V28.1
		c6.2-7.3,12.5-10.6,18.7-9.6c9.5,1.6,13,7.3,13.8,9V75.7z M84.7,79.6c-5.1-3.8-13.1-8.7-20.7-8.7c-4.5,0-8.4,1.6-11.7,4.7V27.5
		c0.8-1.7,4.3-7.3,13.8-9c0.8-0.1,1.5-0.2,2.3-0.2c8,0,14.5,7.2,16.4,9.5L84.7,79.6z"/>
</g>
</svg>
