<?xml version="1.0" encoding="UTF-8" standalone="no"?>
<svg width="42px" height="52px" viewBox="0 0 42 52" version="1.1" xmlns="http://www.w3.org/2000/svg" xmlns:xlink="http://www.w3.org/1999/xlink" xmlns:sketch="http://www.bohemiancoding.com/sketch/ns">
    <!-- Generator: Sketch 3.3.3 (12081) - http://www.bohemiancoding.com/sketch -->
    <title>Imported Layers Copy 2</title>
    <desc>Created with Sketch.</desc>
    <defs>
        <linearGradient x1="100%" y1="50%" x2="0%" y2="50%" id="linearGradient-1">
            <stop stop-color="#666666" offset="0%"></stop>
            <stop stop-color="#C7C7C7" offset="25.8131378%"></stop>
            <stop stop-color="#E5E5E5" offset="49.4260204%"></stop>
            <stop stop-color="#C7C7C7" offset="76.426977%"></stop>
            <stop stop-color="#A1A1A1" offset="100%"></stop>
        </linearGradient>
    </defs>
    <g id="Page-1" stroke="none" stroke-width="1" fill="none" fill-rule="evenodd" sketch:type="MSPage">
        <g id="Stylekit---iPad-Landscape---2048-x-1536---Men+Care" sketch:type="MSArtboardGroup" transform="translate(-298.000000, -11771.000000)" stroke="url(#linearGradient-1)" stroke-width="4" fill="#FFFFFE" fill-opacity="0">
            <g id="08-:-iconography" sketch:type="MSLayerGroup" transform="translate(18.000000, 11536.000000)">
                <g id="play-/-video" transform="translate(263.000000, 237.000000)" sketch:type="MSShapeGroup">
                    <path d="M23.2135273,0.394249784 C22.4990296,-0.0859976385 21.5888665,-0.130781144 20.8319501,0.277961124 C20.075279,0.686703392 19.6103896,1.48241473 19.6103896,2.34839411 L19.6103896,45.4377962 C19.6103896,46.3037756 20.075279,47.0997343 20.8319501,47.5082292 C21.1759584,47.694291 21.5498805,47.7860848 21.9262545,47.7860848 C22.3776582,47.7860848 22.8261195,47.6537137 23.2154888,47.3919405 L55.2445506,25.8471158 C55.8921101,25.4116518 56.2804987,24.678291 56.2804987,23.8929714 C56.2804987,23.1078993 55.8911294,22.3745384 55.2438151,21.9390745 L23.2135273,0.394249784 Z" id="Imported-Layers-Copy-2"></path>
                </g>
            </g>
        </g>
    </g>
</svg>