<?xml version="1.0" encoding="UTF-8" standalone="no"?>
<svg width="43px" height="92px" viewBox="0 0 43 92" version="1.1" xmlns="http://www.w3.org/2000/svg" xmlns:xlink="http://www.w3.org/1999/xlink" xmlns:sketch="http://www.bohemiancoding.com/sketch/ns">
    <!-- Generator: Sketch 3.3.2 (12043) - http://www.bohemiancoding.com/sketch -->
    <title>icon : arrow</title>
    <desc>Created with Sketch.</desc>
    <defs></defs>
    <g id="Page-1" stroke="none" stroke-width="1" fill="none" fill-rule="evenodd" sketch:type="MSPage">
        <g id="Mobile---750-x-1334---PDP---Default" sketch:type="MSArtboardGroup" transform="translate(-39.000000, -577.000000)" stroke-width="4">
            <g id="CP_13-:-overview-Copy" sketch:type="MSLayerGroup" transform="translate(-649.000000, 166.000000)">
                <g id="icns-:-arrows" transform="translate(690.000000, 413.000000)" sketch:type="MSShapeGroup">
                    <path d="M1,0 L39.1744,44 L1,88" id="icon-:-arrow" transform="translate(20.087200, 44.000000) rotate(-180.000000) translate(-20.087200, -44.000000) "></path>
                </g>
            </g>
        </g>
    </g>
</svg>