<?xml version="1.0" encoding="UTF-8" standalone="no"?>
<svg width="30px" height="31px" viewBox="0 0 30 31" version="1.1" xmlns="http://www.w3.org/2000/svg" xmlns:xlink="http://www.w3.org/1999/xlink" xmlns:sketch="http://www.bohemiancoding.com/sketch/ns">
    <!-- Generator: Sketch 3.3.3 (12081) - http://www.bohemiancoding.com/sketch -->
    <title>BG Copy 4</title>
    <desc>Created with Sketch.</desc>
    <defs></defs>
    <g id="Page-1" stroke="none" stroke-width="1" fill="none" fill-rule="evenodd" sketch:type="MSPage">
        <g id="Contact-us-form----iPhone-6-" sketch:type="MSArtboardGroup" transform="translate(-52.000000, -8496.000000)" fill="#333333">
            <g id="Privacy-policy" sketch:type="MSLayerGroup" transform="translate(-283.000000, 7440.000000)">
                <g id="field-:-check-box-" transform="translate(325.000000, 1046.000000)" sketch:type="MSShapeGroup">
                    <g id="checkbox">
                        <rect id="BG-Copy-4" x="10" y="10.52" width="30" height="30" rx="3"></rect>
                    </g>
                </g>
            </g>
        </g>
    </g>
</svg>