<?xml version="1.0" encoding="utf-8"?>
<!-- Generator: Adobe Illustrator 18.1.1, SVG Export Plug-In . SVG Version: 6.00 Build 0)  -->
<svg version="1.1" id="Layer_1" xmlns:sketch="http://www.bohemiancoding.com/sketch/ns"
	 xmlns="http://www.w3.org/2000/svg" xmlns:xlink="http://www.w3.org/1999/xlink" x="0px" y="0px" viewBox="8 -18 56 56"
	 enable-background="new 8 -18 56 56" xml:space="preserve">
<title>icon : plus</title>
<desc>Created with Sketch.</desc>
<g id="Page-1" sketch:type="MSPage">
	<g id="iPad-landscape---component-set-1" transform="translate(-596.000000, -5562.000000)" sketch:type="MSArtboardGroup">
		<g id="CP-09-product-listing" transform="translate(-14.000000, 5160.000000)" sketch:type="MSLayerGroup">
			<g id="Product-List-_x2B_-CTA" transform="translate(0.000000, 323.000000)" sketch:type="MSShapeGroup">
				<g id="Product-1---Quick-view" transform="translate(33.000000, 64.000000)">
					<path id="icon-:-plus" fill="#FFFFFF" d="M632.7,6.8c0.4-0.4,0.4-1.1,0-1.5c-0.4-0.4-1.1-0.4-1.5,0L613,23.5L594.8,5.3
						c-0.4-0.4-1.1-0.4-1.5,0c-0.4,0.4-0.4,1.1,0,1.5L611.5,25l-18.2,18.2c-0.4,0.4-0.4,1.1,0,1.5c0.2,0.2,0.5,0.3,0.7,0.3
						c0.3,0,0.5-0.1,0.7-0.3L613,26.5l18.2,18.2c0.2,0.2,0.5,0.3,0.7,0.3c0.3,0,0.5-0.1,0.7-0.3c0.4-0.4,0.4-1.1,0-1.5L614.5,25
						L632.7,6.8z"/>
				</g>
			</g>
		</g>
	</g>
</g>
</svg>
