<!-- Generator: Adobe Illustrator 18.1.1, SVG Export Plug-In  -->
<svg version="1.1"
	 xmlns="http://www.w3.org/2000/svg" xmlns:xlink="http://www.w3.org/1999/xlink" xmlns:a="http://ns.adobe.com/AdobeSVGViewerExtensions/3.0/"
	 x="0px" y="0px" width="24px" height="14px" viewBox="0 0 24 14" enable-background="new 0 0 24 14" xml:space="preserve">
<defs>
</defs>
<path fill-rule="evenodd" fill="#999999" clip-rule="evenodd" d="M23.7,1.6L12.8,13.5c0,0,0,0.1-0.1,0.2C12.5,13.9,12.2,14,12,14
	c-0.3,0-0.5-0.1-0.7-0.3c0,0,0-0.1-0.1-0.2L0.3,1.6c-0.4-0.4-0.4-1,0-1.3c0.4-0.4,1-0.4,1.3,0L12,11.6L22.4,0.3c0.4-0.4,1-0.4,1.3,0
	C24.1,0.7,24.1,1.3,23.7,1.6z"/>
</svg>
