<?xml version="1.0" encoding="UTF-8" standalone="no"?>
<svg width="14px" height="30px" viewBox="0 0 14 30" version="1.1" xmlns="http://www.w3.org/2000/svg" xmlns:xlink="http://www.w3.org/1999/xlink" xmlns:sketch="http://www.bohemiancoding.com/sketch/ns">
    <!-- Generator: Sketch 3.3.2 (12043) - http://www.bohemiancoding.com/sketch -->
    <title>icon : facebook</title>
    <desc>Created with Sketch.</desc>
    <defs></defs>
    <g id="Page-1" stroke="none" stroke-width="1" fill="none" fill-rule="evenodd" sketch:type="MSPage">
        <g id="iPad-Landscape---2048-x-1536" sketch:type="MSArtboardGroup" transform="translate(-915.000000, -2081.000000)" fill="#949494">
            <g id="C04.A.0-Global-footer" sketch:type="MSLayerGroup" transform="translate(0.000000, 1630.000000)">
                <g id="footer-:-global" transform="translate(0.000000, 98.000000)" sketch:type="MSShapeGroup">
                    <g id="Curve-mask" transform="translate(0.000000, 59.000000)">
                        <g id="Social-links" transform="translate(914.000000, 237.000000)">
                            <g id="icon-:-facebook" transform="translate(1.000000, 57.000000)">
                                <path d="M13.394818,15.00974 L9.19084592,15.00974 L9.19084592,29.9947336 L2.96212805,29.9947336 L2.96212805,15.00974 L0,15.00974 L0,9.71478723 L2.96212805,9.71478723 L2.96212805,6.28705335 C2.96212805,3.83417268 4.12673181,0 9.24783877,0 L13.8612595,0.0187471772 L13.8612595,5.15922317 L10.5129299,5.15922317 C9.96699846,5.15922317 9.19084592,5.43068229 9.19084592,6.60200592 L9.19084592,9.71478723 L13.9399996,9.71478723 L13.394818,15.00974"></path>
                            </g>
                        </g>
                    </g>
                </g>
            </g>
        </g>
    </g>
</svg>