<?xml version="1.0" encoding="UTF-8" standalone="no"?>
<svg width="38px" height="48px" viewBox="0 0 38 48" version="1.1" xmlns="http://www.w3.org/2000/svg" xmlns:xlink="http://www.w3.org/1999/xlink" xmlns:sketch="http://www.bohemiancoding.com/sketch/ns">
    <!-- Generator: sketchtool 3.4.3 (385) - http://www.bohemiancoding.com/sketch -->
    <title>icn : locked</title>
    <desc>Created with sketchtool.</desc>
    <defs></defs>
    <g id="Page-1" stroke="none" stroke-width="1" fill="none" fill-rule="evenodd" sketch:type="MSPage">
        <g id="CP-51---Checkout-form---TL" sketch:type="MSArtboardGroup" transform="translate(-907.000000, -9366.000000)" stroke="#FFFFFE" stroke-width="2" stroke-linecap="round" stroke-linejoin="round">
            <g id="CP_51-:-checkout-form" sketch:type="MSLayerGroup" transform="translate(364.000000, 928.000000)">
                <g id="payment-:-braintree" transform="translate(1.000000, 6887.000000)" sketch:type="MSShapeGroup">
                    <g id="cta-:-blue" transform="translate(325.000000, 1523.000000)">
                        <g id="locked" transform="translate(218.000000, 29.000000)">
                            <path d="M9.604,14.097 L9.604,8.062 C9.604,3.61 13.214,0 17.667,0 C22.12,0 25.729,3.61 25.729,8.062 L25.729,14.097 L9.604,14.097 Z M30.334,45.335 L5,45.335 C2.25,45.335 0,43.085 0,40.335 L0,20.002 C0,17.252 2.25,15.002 5,15.002 L30.334,15.002 C33.084,15.002 35.334,17.252 35.334,20.002 L35.334,40.335 C35.334,43.085 33.084,45.335 30.334,45.335 L30.334,45.335 Z M17.667,30.59 L17.667,36.28 L17.667,30.59 Z M20.917,27.306 C20.917,29.101 19.462,30.557 17.667,30.557 C15.872,30.557 14.417,29.101 14.417,27.306 C14.417,25.512 15.872,24.056 17.667,24.056 C19.462,24.056 20.917,25.512 20.917,27.306 L20.917,27.306 Z" id="icn-:-locked"></path>
                        </g>
                    </g>
                </g>
            </g>
        </g>
    </g>
</svg>