<?xml version="1.0" standalone="no"?>
<!DOCTYPE svg PUBLIC "-//W3C//DTD SVG 20010904//EN"
 "http://www.w3.org/TR/2001/REC-SVG-20010904/DTD/svg10.dtd">
<svg version="1.0" xmlns="http://www.w3.org/2000/svg"
 width="55.000000pt" height="58.000000pt" viewBox="0 0 55.000000 58.000000"
 preserveAspectRatio="xMidYMid meet">
<metadata>
Created by potrace 1.12, written by Peter Selinger 2001-2015
</metadata>
<g transform="translate(0.000000,58.000000) scale(0.100000,-0.100000)"
fill="#000000" stroke="none">
<path d="M0 290 l0 -290 275 0 275 0 0 290 0 290 -275 0 -275 0 0 -290z m331
201 c24 -24 29 -38 29 -75 0 -44 1 -46 29 -46 20 0 36 -9 51 -27 20 -25 21
-37 18 -145 -4 -157 2 -152 -181 -156 -133 -3 -144 -2 -170 18 -27 21 -27 22
-27 147 0 140 9 163 62 163 25 0 28 4 28 30 0 40 24 95 47 109 35 20 83 13
114 -18z"/>
<path d="M226 479 c-20 -16 -26 -29 -26 -60 l0 -39 65 0 65 0 0 38 c0 43 -6
55 -37 71 -30 15 -36 14 -67 -10z"/>
<path d="M116 334 c-20 -20 -23 -233 -4 -252 17 -17 289 -17 306 0 17 17 17
239 0 256 -8 8 -56 12 -149 12 -112 0 -141 -3 -153 -16z m184 -69 c13 -16 6
-65 -10 -65 -6 0 -10 -14 -10 -31 0 -38 -24 -35 -28 4 -2 14 -10 31 -18 37
-18 16 -18 35 2 54 20 20 48 20 64 1z"/>
<path d="M257 253 c-4 -3 -7 -12 -7 -20 0 -15 26 -18 34 -4 7 11 -18 33 -27
24z"/>
</g>
</svg>
