<?xml version="1.0" encoding="UTF-8" standalone="no"?>
<svg width="36px" height="36px" viewBox="0 0 36 36" version="1.1" xmlns="http://www.w3.org/2000/svg" xmlns:xlink="http://www.w3.org/1999/xlink" xmlns:sketch="http://www.bohemiancoding.com/sketch/ns">
    <!-- Generator: Sketch 3.3.2 (12043) - http://www.bohemiancoding.com/sketch -->
    <title>icn : search</title>
    <desc>Created with Sketch.</desc>
    <defs></defs>
    <g id="Page-1" stroke="none" stroke-width="1" fill="none" fill-rule="evenodd" sketch:type="MSPage">
        <g id="CP-04---Hero---iPad-Landscape---blue-expand-5---links" sketch:type="MSArtboardGroup" transform="translate(-1840.000000, -39.000000)" stroke="#666666" stroke-width="3" stroke-linecap="round" stroke-linejoin="round">
            <g id="CP-01-nav-:-global" sketch:type="MSLayerGroup" transform="translate(1.000000, -17.000000)">
                <g id="links" transform="translate(360.000000, 0.000000)" sketch:type="MSShapeGroup">
                    <g id="search-+-icon-:-search" transform="translate(1481.000000, 58.000000)">
                        <path d="M22.6610756,3.88805233 C27.8451453,9.07212209 27.8451453,17.4770058 22.6610756,22.6610756 C17.4770058,27.8451453 9.07212209,27.8451453 3.88805233,22.6610756 C-1.29601744,17.4770058 -1.29601744,9.07212209 3.88805233,3.88805233 C9.07212209,-1.29601744 17.4770058,-1.29601744 22.6610756,3.88805233 L22.6610756,3.88805233 Z M32.121657,32.121657 L22.7970058,22.7970058 L32.121657,32.121657 Z" id="icn-:-search"></path>
                    </g>
                </g>
            </g>
        </g>
    </g>
</svg>