<?xml version="1.0" encoding="utf-8"?>
<!-- Generator: Adobe Illustrator 18.1.1, SVG Export Plug-In . SVG Version: 6.00 Build 0)  -->
<svg version="1.1" id="Layer_1" xmlns:sketch="http://www.bohemiancoding.com/sketch/ns"
	 xmlns="http://www.w3.org/2000/svg" xmlns:xlink="http://www.w3.org/1999/xlink" x="0px" y="0px" viewBox="-11 9 22 12"
	 enable-background="new -11 9 22 12" xml:space="preserve">
<title>icon : arrow</title>
<desc>Created with Sketch.</desc>
<g id="Page-1" sketch:type="MSPage">
	
		<g id="T3-PL2_x26_3-iPhone-6---C-_x28_with-filters-expanded_x29_" transform="translate(-567.000000, -466.000000)" sketch:type="MSArtboardGroup">
		<g id="filters" transform="translate(-0.500000, 10.000000)" sketch:type="MSLayerGroup">
			<g id="sentence-builder" transform="translate(40.000000, 213.000000)" sketch:type="MSShapeGroup">
				<g id="results-and-collapse" transform="translate(123.000000, 233.000000)">
					<g id="cta-:-hide-filters" transform="translate(249.000000, 0.000000)">
						<path id="icon-:-arrow" fill="none" stroke-linecap="round" stroke-linejoin="round" d="
							M164.5,21l-9,7.8l-9-7.8"/>
					</g>
				</g>
			</g>
		</g>
	</g>
</g>
</svg>
