<?xml version="1.0" encoding="utf-8"?>
<!-- Generator: Adobe Illustrator 18.1.1, SVG Export Plug-In . SVG Version: 6.00 Build 0)  -->
<svg version="1.1" id="Layer_1" xmlns="http://www.w3.org/2000/svg" xmlns:xlink="http://www.w3.org/1999/xlink" x="0px" y="0px"
	 viewBox="0 0 228.7 160.9" enable-background="new 0 0 228.7 160.9" xml:space="preserve">
<linearGradient id="SVGID_1_" gradientUnits="userSpaceOnUse" x1="62.2442" y1="137.8115" x2="158.8557" y2="137.8115">
	<stop  offset="0" style="stop-color:#BC8E38"/>
	<stop  offset="0.2699" style="stop-color:#E0C586"/>
	<stop  offset="0.4908" style="stop-color:#FFE8B3"/>
	<stop  offset="0.7485" style="stop-color:#E0C586"/>
	<stop  offset="1" style="stop-color:#BC8E38"/>
</linearGradient>
<path fill="url(#SVGID_1_)" d="M111.8,117.9c-14.6,8.9-24.5,13-35,12.7l-0.7-0.1c-0.1,0-0.5-0.1-0.6,0.1c-0.2,0.4,1.5,1.4,1.5,1.4
	c0.7,0.5,8.5,5.2,18.4,6.7c5.3,0.8,9,0.7,11.5,0.2c2.3-0.5,2.4-0.2,2.6,0c0.2,0.3,0.2,0.9-1.6,1.6c-2.6,1-5,1.5-7.8,1.9
	c-11.1,1.6-27.4-0.1-34-1.6c-1.6-0.4-2.8-0.6-3.3-0.7c-0.1,0-0.3,0-0.4,0c-0.1,0-0.2,0.1-0.1,0.3c0.1,0.2,0.7,0.6,0.8,0.7
	c65.8,43.5,80.9,3.2,85.3-4.7c4.4-7.9,6.4-9.7,9.5-10.6c0.5-0.2,1-0.2,1-0.6c0-0.2-0.5-0.4-0.5-0.4l-2-1.4c-7-5.5-13.5-1.8-19.4,4.5
	c-5.9,6.3-7.4,5.6-6,3.4c6.1-9-0.5-13.9-0.5-13.9c-1.9-1.7-4.7-2.7-8.1-2.7C119.2,114.7,115.5,115.7,111.8,117.9"/>
<path fill="#003E7E" d="M122,29.7c-20.2,0-34.7,20-34.6,36.9c0,10.7,6.1,18.3,18.2,18.3c19.2,0,34.6-18.5,34.6-37.1
	C140,38.2,134.9,29.7,122,29.7z M106.3,82.2c-5.7,0-8.6-4.7-8.5-13.6c0.1-18.4,13.3-36.1,24.1-36.1c5.7,0,8.2,5.3,8.2,13.1
	C130.2,61.9,118.4,82.2,106.3,82.2z M228.3,36.8c-1.2-4.2-6.5-8.1-15.3-7.2c-21.3,2.1-34.7,24.1-30.9,41.5
	c1.3,5.7,5.3,13.9,18.4,13.9c13.1,0,19.7-9.6,20.1-10.2c2.7-4,2.1-6.3-1-2.7c-2.5,2.9-9.7,10.5-17.7,9.6
	c-7.7-0.9-10.6-10.2-9.6-19.7C222.7,56.7,230.7,44.9,228.3,36.8z M202.4,37.7c2.7-3,6.4-5.3,9.4-5.7c11.1-1.5,11.3,21.8-19.3,27.1
	C194.4,48.2,198.9,41.5,202.4,37.7z M35.9,0C14.6,0.1,7.4,12.6,7.4,15.8c0,1,0,1.7,0.6,1.1c0.7-0.7,2-3.3,4.7-5.6
	c6.2-5.4,21.6-11.2,39.1-5C69.1,12.6,78.5,30.6,72,51.5c-6.6,21.2-19.7,26.8-32.4,29c-12.6,2.3-26.9,1.1-26.9,1.1c0,0,0,0,0-0.1
	c2.9-3.1,8.8-16.2,15.4-35.3c7-20.2,13.1-27.9,19.3-33.1c2.1-1.8-3.7-0.7-5.5,0c-1.6,0.6-15.2,5.1-23.3,26.4
	C10.5,61,5,74.4,2.4,79.1c-2.6,4.7-3.8,5.9,0.1,5.9c3.9,0,0,0,0,0c19.9,0,29.3,0.1,36.9-0.3c14.8-0.9,42.8-6.6,45.7-37.7
	C88,16.7,57.7-0.1,35.9,0z M177.6,30.3c-0.8,0.4,0.5,2.9-0.7,10.5c-1.2,7.5-8.5,22.7-21.5,33.4c0,0,0,0,0,0c0.7-6,2.4-23.5-0.9-32.8
	c-3.1-8.6-12-10.3-12.2-10.3l0,0c0,0-0.9-0.2-0.6,0.8c1,3.7,4.1,7.2,4.6,23.1c0.5,15.9-1.9,29-0.5,30c1.3,1,11.7-4.9,23.7-19.6
	c11.8-14.5,13.1-23.5,13.3-26C182.9,33.6,178.5,29.9,177.6,30.3z"/>
</svg>
