<?xml version="1.0" encoding="UTF-8" standalone="no"?>
<svg width="34px" height="35px" viewBox="0 0 34 35" version="1.1" xmlns="http://www.w3.org/2000/svg" xmlns:xlink="http://www.w3.org/1999/xlink" xmlns:sketch="http://www.bohemiancoding.com/sketch/ns">
    <!-- Generator: Sketch 3.3.2 (12043) - http://www.bohemiancoding.com/sketch -->
    <title>Oval 1</title>
    <desc>Created with Sketch.</desc>
    <defs></defs>
    <g id="Page-1" stroke="none" stroke-width="1" fill="none" fill-rule="evenodd" sketch:type="MSPage">
        <g id="Sign-up-form---iPad-Landscape" sketch:type="MSArtboardGroup" transform="translate(-542.000000, -2529.906250)" fill="#333333">
            <g id="Form" sketch:type="MSLayerGroup" transform="translate(364.000000, 927.812500)">
                <g id="field-:-radio-buttons-" transform="translate(168.000000, 1593.000000)" sketch:type="MSShapeGroup">
                    <g id="field-:-english">
                        <circle id="Oval-1" cx="27" cy="27" r="17"></circle>
                    </g>
                </g>
            </g>
        </g>
    </g>
</svg>