<?xml version="1.0" encoding="utf-8"?>
<!-- Generator: Adobe Illustrator 18.1.0, SVG Export Plug-In . SVG Version: 6.00 Build 0)  -->
<svg version="1.1" id="Layer_1" xmlns="http://www.w3.org/2000/svg" xmlns:xlink="http://www.w3.org/1999/xlink" x="0px" y="0px"
	 viewBox="0 0 750 138" enable-background="new 0 0 750 138" xml:space="preserve">
<g>
	<linearGradient id="SVGID_1_" gradientUnits="userSpaceOnUse" x1="90.3162" y1="34.4643" x2="475.1602" y2="34.4643">
		<stop  offset="0" style="stop-color:#FFFFFF"/>
		<stop  offset="1" style="stop-color:#F2F2F2"/>
	</linearGradient>
	<path fill="url(#SVGID_1_)" d="M475.2,26.2C451.2,31.6,427,37.5,402.5,44C299.4,71,206.2,68.9,206.2,68.9
		c-64,0-115.9-13.1-115.9-34.6S146-1.7,208.3,0.2c64.8,2,108.8,10.1,190.3,21.4c0,0,26.7,3.2,70.6,4.6L475.2,26.2z"/>
	<linearGradient id="SVGID_2_" gradientUnits="userSpaceOnUse" x1="394.8234" y1="64.7073" x2="448.1355" y2="-338.9409">
		<stop  offset="0" style="stop-color:#FFFFFF"/>
		<stop  offset="1" style="stop-color:#E6E6E6"/>
	</linearGradient>
	<path fill="url(#SVGID_2_)" d="M980,138.1V0c0,0-303.9,0-304.6,0c0,0-92.9-2.1-195.8,24.9c-7.1,1.9-14.3,3.7-21.3,5.5V30
		c-16.6,3.9-33.3,8-50.2,12.4c-0.3,0.1-0.6,0.1-0.9,0.2v0c-1.6,0.4-3.2,0.8-4.8,1.2C299.5,70.8,206.5,68.7,206.5,68.7
		c-63.8,0-115.6-13.1-115.6-34.5c0-1.6,0.3-3.1,0.9-4.6h-287.2v108.5H980z"/>
	<linearGradient id="SVGID_3_" gradientUnits="userSpaceOnUse" x1="-0.7635" y1="93.016" x2="-40.5358" y2="-201.4236">
		<stop  offset="0" style="stop-color:#FFFFFF"/>
		<stop  offset="1" style="stop-color:#E6E6E6"/>
	</linearGradient>
	<path fill="url(#SVGID_3_)" d="M193.6,68.5C135.8,66.9,90.9,54.2,90.9,34.2c0-18.9,43.5-32.5,96.5-34.1h-382.9v137.9h389V68.5z"/>
</g>
</svg>
