{
  "responseHeader": {
    "status": "200",
    "messages": []
  },
  "data": {
    "randomNumber": "778",
    "articleListing": {
      "brandName": "whitelabel",
      "title": "About whitelabel",
      "cta": "Call to action",
      "pattern":"B",
      "isCategoryTitle": "true",
      "maxMobileCount": "3",
      "articles":[
        {
          "title":"Teaser Title",
          "url":"#ArticleUrl",
          "copyText":"Teaser Copy",
          "image":{
            "url":"/images-cms/article-listing/girl_nose_cream.enscale.full.high.jpg",
            "fileName":"",
            "isNotAdaptiveImage":false,
            "extension":"jpg",
            "altImage":"How often to wash hair",
            "title":"How often to wash hair",
            "path":"/images-cms/article-listing/girl_nose_cream"
          },
          "parent":{
            "title":"Parent Title",
            "url":"#ParentURL"
          },
          "articleCopy":"<p>Body Copy<br>\n</p>\n",
          "publishDate":null,
          "containertag":{
            "articleClick":{
              "action":"articleClick",
              "label":"How often to wash hair",
              "category":"other",
              "type":"trackEvent"
            },
            "relatedArticle":{
              "action":"relatedArticle",
              "label":"How often to wash hair",
              "category":"custom",
              "type":"trackEvent"
            },
            "mayLike":{
              "action":"mayLike",
              "label":"How often to wash hair",
              "category":"custom",
              "type":"trackEvent"
            }
          }
        },
        {
          "title":"Teaser Title",
          "url":"#ArticleUrl",
          "copyText":"Teaser Copy",
          "image":{
            "url":"/images-cms/article-listing/girl_nose_cream.enscale.full.high.jpg",
            "fileName":"",
            "isNotAdaptiveImage":false,
            "extension":"jpg",
            "altImage":"How often to wash hair",
            "title":"How often to wash hair",
            "path":"/images-cms/article-listing/girl_nose_cream"
          },
          "parent":{
            "title":"Parent Title",
            "url":"#ParentURL"
          },
          "articleCopy":"<p>Body Copy<br>\n</p>\n",
          "publishDate":null,
          "containertag":{
            "articleClick":{
              "action":"articleClick",
              "label":"How often to wash hair",
              "category":"other",
              "type":"trackEvent"
            },
            "relatedArticle":{
              "action":"relatedArticle",
              "label":"How often to wash hair",
              "category":"custom",
              "type":"trackEvent"
            },
            "mayLike":{
              "action":"mayLike",
              "label":"How often to wash hair",
              "category":"custom",
              "type":"trackEvent"
            }
          }
        },
        {
          "title":"Teaser Title",
          "url":"#ArticleUrl",
          "copyText":"Teaser Copy",
          "image":{
            "url":"/images-cms/article-listing/girl_nose_cream.enscale.full.high.jpg",
            "fileName":"",
            "isNotAdaptiveImage":false,
            "extension":"jpg",
            "altImage":"How often to wash hair",
            "title":"How often to wash hair",
            "path":"/images-cms/article-listing/girl_nose_cream"
          },
          "parent":{
            "title":"Parent Title",
            "url":"#ParentURL"
          },
          "articleCopy":"<p>Body Copy<br>\n</p>\n",
          "publishDate":null,
          "containertag":{
            "articleClick":{
              "action":"articleClick",
              "label":"How often to wash hair",
              "category":"other",
              "type":"trackEvent"
            },
            "relatedArticle":{
              "action":"relatedArticle",
              "label":"How often to wash hair",
              "category":"custom",
              "type":"trackEvent"
            },
            "mayLike":{
              "action":"mayLike",
              "label":"How often to wash hair",
              "category":"custom",
              "type":"trackEvent"
            }
          }
        },
        {
          "title":"Teaser Title",
          "url":"#ArticleUrl",
          "copyText":"Teaser Copy",
          "image":{
            "url":"/images-cms/article-listing/girl_nose_cream.enscale.full.high.jpg",
            "fileName":"",
            "isNotAdaptiveImage":false,
            "extension":"jpg",
            "altImage":"How often to wash hair",
            "title":"How often to wash hair",
            "path":"/images-cms/article-listing/girl_nose_cream"
          },
          "parent":{
            "title":"Parent Title",
            "url":"#ParentURL"
          },
          "articleCopy":"<p>Body Copy<br>\n</p>\n",
          "publishDate":null,
          "containertag":{
            "articleClick":{
              "action":"articleClick",
              "label":"How often to wash hair",
              "category":"other",
              "type":"trackEvent"
            },
            "relatedArticle":{
              "action":"relatedArticle",
              "label":"How often to wash hair",
              "category":"custom",
              "type":"trackEvent"
            },
            "mayLike":{
              "action":"mayLike",
              "label":"How often to wash hair",
              "category":"custom",
              "type":"trackEvent"
            }
          }
        },
        {
          "title":"Teaser Title",
          "url":"#ArticleUrl",
          "copyText":"Teaser Copy",
          "image":{
            "url":"/images-cms/article-listing/girl_nose_cream.enscale.full.high.jpg",
            "fileName":"",
            "isNotAdaptiveImage":false,
            "extension":"jpg",
            "altImage":"How often to wash hair",
            "title":"How often to wash hair",
            "path":"/images-cms/article-listing/girl_nose_cream"
          },
          "parent":{
            "title":"Parent Title",
            "url":"#ParentURL"
          },
          "articleCopy":"<p>Body Copy<br>\n</p>\n",
          "publishDate":null,
          "containertag":{
            "articleClick":{
              "action":"articleClick",
              "label":"How often to wash hair",
              "category":"other",
              "type":"trackEvent"
            },
            "relatedArticle":{
              "action":"relatedArticle",
              "label":"How often to wash hair",
              "category":"custom",
              "type":"trackEvent"
            },
            "mayLike":{
              "action":"mayLike",
              "label":"How often to wash hair",
              "category":"custom",
              "type":"trackEvent"
            }
          }
        },
        {
          "title":"Teaser Title",
          "url":"#ArticleUrl",
          "copyText":"Teaser Copy",
          "image":{
            "url":"/images-cms/article-listing/girl_nose_cream.enscale.full.high.jpg",
            "fileName":"",
            "isNotAdaptiveImage":false,
            "extension":"jpg",
            "altImage":"How often to wash hair",
            "title":"How often to wash hair",
            "path":"/images-cms/article-listing/girl_nose_cream"
          },
          "parent":{
            "title":"Parent Title",
            "url":"#ParentURL"
          },
          "articleCopy":"<p>Body Copy<br>\n</p>\n",
          "publishDate":null,
          "containertag":{
            "articleClick":{
              "action":"articleClick",
              "label":"How often to wash hair",
              "category":"other",
              "type":"trackEvent"
            },
            "relatedArticle":{
              "action":"relatedArticle",
              "label":"How often to wash hair",
              "category":"custom",
              "type":"trackEvent"
            },
            "mayLike":{
              "action":"mayLike",
              "label":"How often to wash hair",
              "category":"custom",
              "type":"trackEvent"
            }
          }
        },
        {
          "title":"Teaser Title",
          "url":"#ArticleUrl",
          "copyText":"Teaser Copy",
          "image":{
            "url":"/images-cms/article-listing/girl_nose_cream.enscale.full.high.jpg",
            "fileName":"",
            "isNotAdaptiveImage":false,
            "extension":"jpg",
            "altImage":"How often to wash hair",
            "title":"How often to wash hair",
            "path":"/images-cms/article-listing/girl_nose_cream"
          },
          "parent":{
            "title":"Parent Title",
            "url":"#ParentURL"
          },
          "articleCopy":"<p>Body Copy<br>\n</p>\n",
          "publishDate":null,
          "containertag":{
            "articleClick":{
              "action":"articleClick",
              "label":"How often to wash hair",
              "category":"other",
              "type":"trackEvent"
            },
            "relatedArticle":{
              "action":"relatedArticle",
              "label":"How often to wash hair",
              "category":"custom",
              "type":"trackEvent"
            },
            "mayLike":{
              "action":"mayLike",
              "label":"How often to wash hair",
              "category":"custom",
              "type":"trackEvent"
            }
          }
        },
        {
          "title":"Teaser Title",
          "url":"#ArticleUrl",
          "copyText":"Teaser Copy",
          "image":{
            "url":"/images-cms/article-listing/girl_nose_cream.enscale.full.high.jpg",
            "fileName":"",
            "isNotAdaptiveImage":false,
            "extension":"jpg",
            "altImage":"How often to wash hair",
            "title":"How often to wash hair",
            "path":"/images-cms/article-listing/girl_nose_cream"
          },
          "parent":{
            "title":"Parent Title",
            "url":"#ParentURL"
          },
          "articleCopy":"<p>Body Copy<br>\n</p>\n",
          "publishDate":null,
          "containertag":{
            "articleClick":{
              "action":"articleClick",
              "label":"How often to wash hair",
              "category":"other",
              "type":"trackEvent"
            },
            "relatedArticle":{
              "action":"relatedArticle",
              "label":"How often to wash hair",
              "category":"custom",
              "type":"trackEvent"
            },
            "mayLike":{
              "action":"mayLike",
              "label":"How often to wash hair",
              "category":"custom",
              "type":"trackEvent"
            }
          }
        },
        {
          "title":"Teaser Title",
          "url":"#ArticleUrl",
          "copyText":"Teaser Copy",
          "image":{
            "url":"/images-cms/article-listing/girl_nose_cream.enscale.full.high.jpg",
            "fileName":"",
            "isNotAdaptiveImage":false,
            "extension":"jpg",
            "altImage":"How often to wash hair",
            "title":"How often to wash hair",
            "path":"/images-cms/article-listing/girl_nose_cream"
          },
          "parent":{
            "title":"Parent Title",
            "url":"#ParentURL"
          },
          "articleCopy":"<p>Body Copy<br>\n</p>\n",
          "publishDate":null,
          "containertag":{
            "articleClick":{
              "action":"articleClick",
              "label":"How often to wash hair",
              "category":"other",
              "type":"trackEvent"
            },
            "relatedArticle":{
              "action":"relatedArticle",
              "label":"How often to wash hair",
              "category":"custom",
              "type":"trackEvent"
            },
            "mayLike":{
              "action":"mayLike",
              "label":"How often to wash hair",
              "category":"custom",
              "type":"trackEvent"
            }
          }
        },
        {
          "title":"Teaser Title",
          "url":"#ArticleUrl",
          "copyText":"Teaser Copy",
          "image":{
            "url":"/images-cms/article-listing/girl_nose_cream.enscale.full.high.jpg",
            "fileName":"",
            "isNotAdaptiveImage":false,
            "extension":"jpg",
            "altImage":"How often to wash hair",
            "title":"How often to wash hair",
            "path":"/images-cms/article-listing/girl_nose_cream"
          },
          "parent":{
            "title":"Parent Title",
            "url":"#ParentURL"
          },
          "articleCopy":"<p>Body Copy<br>\n</p>\n",
          "publishDate":null,
          "containertag":{
            "articleClick":{
              "action":"articleClick",
              "label":"How often to wash hair",
              "category":"other",
              "type":"trackEvent"
            },
            "relatedArticle":{
              "action":"relatedArticle",
              "label":"How often to wash hair",
              "category":"custom",
              "type":"trackEvent"
            },
            "mayLike":{
              "action":"mayLike",
              "label":"How often to wash hair",
              "category":"custom",
              "type":"trackEvent"
            }
          }
        },
        {
          "title":"Teaser Title",
          "url":"#ArticleUrl",
          "copyText":"Teaser Copy",
          "image":{
            "url":"/images-cms/article-listing/girl_nose_cream.enscale.full.high.jpg",
            "fileName":"",
            "isNotAdaptiveImage":false,
            "extension":"jpg",
            "altImage":"How often to wash hair",
            "title":"How often to wash hair",
            "path":"/images-cms/article-listing/girl_nose_cream"
          },
          "parent":{
            "title":"Parent Title",
            "url":"#ParentURL"
          },
          "articleCopy":"<p>Body Copy<br>\n</p>\n",
          "publishDate":null,
          "containertag":{
            "articleClick":{
              "action":"articleClick",
              "label":"How often to wash hair",
              "category":"other",
              "type":"trackEvent"
            },
            "relatedArticle":{
              "action":"relatedArticle",
              "label":"How often to wash hair",
              "category":"custom",
              "type":"trackEvent"
            },
            "mayLike":{
              "action":"mayLike",
              "label":"How often to wash hair",
              "category":"custom",
              "type":"trackEvent"
            }
          }
        },
        {
          "title":"Teaser Title",
          "url":"#ArticleUrl",
          "copyText":"Teaser Copy",
          "image":{
            "url":"/images-cms/article-listing/girl_nose_cream.enscale.full.high.jpg",
            "fileName":"",
            "isNotAdaptiveImage":false,
            "extension":"jpg",
            "altImage":"How often to wash hair",
            "title":"How often to wash hair",
            "path":"/images-cms/article-listing/girl_nose_cream"
          },
          "parent":{
            "title":"Parent Title",
            "url":"#ParentURL"
          },
          "articleCopy":"<p>Body Copy<br>\n</p>\n",
          "publishDate":null,
          "containertag":{
            "articleClick":{
              "action":"articleClick",
              "label":"How often to wash hair",
              "category":"other",
              "type":"trackEvent"
            },
            "relatedArticle":{
              "action":"relatedArticle",
              "label":"How often to wash hair",
              "category":"custom",
              "type":"trackEvent"
            },
            "mayLike":{
              "action":"mayLike",
              "label":"How often to wash hair",
              "category":"custom",
              "type":"trackEvent"
            }
          }
        },
        {
          "title":"Teaser Title",
          "url":"#ArticleUrl",
          "copyText":"Teaser Copy",
          "image":{
            "url":"/images-cms/article-listing/girl_nose_cream.enscale.full.high.jpg",
            "fileName":"",
            "isNotAdaptiveImage":false,
            "extension":"jpg",
            "altImage":"How often to wash hair",
            "title":"How often to wash hair",
            "path":"/images-cms/article-listing/girl_nose_cream"
          },
          "parent":{
            "title":"Parent Title",
            "url":"#ParentURL"
          },
          "articleCopy":"<p>Body Copy<br>\n</p>\n",
          "publishDate":null,
          "containertag":{
            "articleClick":{
              "action":"articleClick",
              "label":"How often to wash hair",
              "category":"other",
              "type":"trackEvent"
            },
            "relatedArticle":{
              "action":"relatedArticle",
              "label":"How often to wash hair",
              "category":"custom",
              "type":"trackEvent"
            },
            "mayLike":{
              "action":"mayLike",
              "label":"How often to wash hair",
              "category":"custom",
              "type":"trackEvent"
            }
          }
        }
      ],
      "static": {
        "moreLink": {
          "label": "see all",
          "url": "/data/article-listing-about-whitelabel-more.json",
          "containertag": {
            "category": "category",
            "action": "action",
            "information ": "information",
            "attr": "attr"
          }
        }
      }
    },
    "clientSideRendering": true,
    "viewType": "defaultView",
    "componentType": "articleListing",
    "isContainer": false
  }
}
