{
        
    "data": {
        "featuredProductRange": {
            "brandName": "whitelabel",
            "viewType": "banner-fluid",
            "anchorLinkNavigation":
            {
                "showAsNavigation":"true",
                "label":"featured Product Range",
                "id":"featuredProductRange327"
            },
            "theme" : "Light",
            "type":"auto",
            "productImageSize":"Big",
            "textPosition":"Right",
			"productImagePosition":"Right",
            "backgroundImage": {
                "extension": "jpg",
                "title":"background",
                "path": "/images-cms/product-feature/bg-plant",
                "alt":"background"
            },
            "productImage": {
                "extension": "png",
                "title":"background",
                "path": "/images-cms/product-feature/pr-derma-spa-uplifted-range",
                "altImage":"background"
            },
            "productName":"Product Name up to 70 characters",
            "productShortCopy":"Short Description up to 140 characters a ullamcorper parturient ut sed a maecenas consectetur ut cum cras dis nascetur parturient.",
            "cta": {
                "labelText": "find out more",
                "navigationURL": "#",
				"alt":"product page link",
				"openInWindow":"True",
                "containertag": {
                    "category": "category",
                    "action": "action",
                    "information": "information",
                    "attr": "attr"
                    }
               }
            },
        "path": "/content/unilever-iea/en_us/product-detail/_jcr_content/flexi_hero_par/featuredproductrange",
        "clientSideRendering": false,
        "randomNumber": "327",
        "viewType": "defaultView",
        "componentType": "featuredProductRange",
        "isContainer": false,
        "resourceType": "unilever-iea/components/featuredProductRange"
    },
    "responseHeader": {
        "status": "200",
        "messages": []
    }
}