{
    "responseHeader": {
        "status": "200",
        "messages": []
    },
    "data": {
        "randomNumber": "988",
        "form": {
            "sling:resourceType": "whitelabel/components/form/form",
            "randomNumber": "988",
            "failureMessage": "The form failed to submit\n",
            "successMessage": "Thank you for your submission.\n",
            "action": "static.html",
            "isAjax": true,
            "validation": true,
            "redirect": "/content/whitelabelwithadobe/en_us/panel1",
            "actionType": "store-content",
            "servletPath": "/bin/whitelabel/form/servlet",
            "isContainer": true,
            "formid": "_content_engagewithadobe_en_us_ankurtest_jcr_content_flexi_par_form",
            "title": "Contact form",
            "locale": "en-US",
            "entity": "contactus",
            "formElementsConfig": [
			{
			  "formElement": {
				"description": "Please do not supply us with this information if you are under the age of 13.",
				"viewType": "copy"
			  }
			},
			{
			  "formElement": {
				"description": "<span class='c-form-mandatory'>*</span>Fields marked with an asterisk are required",
				"viewType": "copy"
			  }
			},
			{
			  "formElement": {
				"name": "contactUs-inquiryType",
				"description": "Enquiry type",
				"label": "Enquiry type",
				"dropdownOptions": {
				  "Please select": "",
				  "Concern": "Product Concern",
				  "Question": "Product Question"
				},
				"hideTitle": false,
				"showMandatory":true,
				"defaultValue": "",
				"viewType": "select",
				"multiSelection": false,
				"rules": [
				  {
					"required": true,
					"msg": "Please provide appropriate input"
				  }
				]
			  }
			},
			{
				"formElement": {
					"name": "contact-comments",
					"description": "How can we help you? Enter your question/comments here",
					"errormsg":"Please enter at least 2 characters.",
					"multivalue": false,
					"inputLimit": 4000,
					"columns":"30",
					"rows":"7",
					"label": "How can we help you? Enter your question/comments here",
					"hideTitle": false,
					"showMandatory":true,
					"defaultValue": "",
					"viewType": "textarea",
					"rules": [
					  {
						"required": true,
						"msg": "Please enter your question/comments here"
					  }
					]
				}
			},
			
			{
				"formElement": {
					"headline":"Required Information",
					"viewType": "copy"
				}
			},
			{
				"formElement": {
					"name": "contact-email",
					"description": "Email address",
					"multivalue": false,
					"label": "Email address",
					"hideTitle": false,
					"showMandatory":false,
					"defaultValue": "",
					"viewType": "email",
					"subType": "email",
					"rules": [
					  {
						"required": false,
						"msg": "this field is required"
					  }
					]
				}
			},
			{
				"formElement": {
					"name": "contact-gender",
					"description": "Gender",
					"label": "Gender",
					"dropdownOptions": {
					  "Please select": "",
					   "Male": "male",
                        "Female": "female"
					},
					"hideTitle": false,
					"showMandatory":false,
					"defaultValue": "",
					"viewType": "select",
					"multiSelection": false,
					"rules": [
					  {
						"required": false,
						"msg": "Please provide appropriate input"
					  }
					]
				}
			},
			{
				"formElement": {
					"name": "contact-title",
					"description": "Title",
					"errormsg":"Please enter at least 2 characters.",
					"multivalue": false,
					"inputLimit": 2,
					"label": "Title",
					"hideTitle": false,
					"showMandatory":false,
					"defaultValue": "",
					"viewType": "text",
					"rules": [
					  {
						"required": false,
						"msg": "Please enter your first name"
					  }
					]
				}
			},
			{
				"formElement": {
					"name": "contact-givenName",
					"description": "First Name",
					"errormsg":"Please enter at least 2 characters.",
					"multivalue": false,
					"inputLimit": 2,
					"label": "First Name",
					"hideTitle": false,
					"showMandatory":false,
					"defaultValue": "",
					"viewType": "text",
					"rules": [
					  {
						"required": true,
						"msg": "Please enter your first name"
					  },
					  {
						"pattern": "%5B%5Cw%5C.%5Cs%5D+%24",
						"msg": "Valid alphabets only"
					  }
					]
				}
			},
			{
				"formElement": {
					"name": "contact-familyName",
					"description": "Last Name",
					"errormsg":"Please enter at least 2 characters.",
					"multivalue": false,
					"inputLimit": 2,
					"label": "Last Name",
					"hideTitle": false,
					"showMandatory":true,
					"defaultValue": "",
					"viewType": "text",
					"rules": [
					  {
						"required": true,
						"msg": "Please enter your first name"
					  },
					  {
						"pattern": "%5B%5Cw%5C.%5Cs%5D+%24",
						"msg": "Valid alphabets only"
					  }
					]
				}
			},
			{
				"formElement": {
					"name": "contact-country",
					"description": "Country",
					"errormsg":"Please enter at least 2 characters.",
					"multivalue": false,
					"inputLimit": 2,
					"label": "Country",
					"hideTitle": false,
					"showMandatory":false,
					"defaultValue": "",
					"viewType": "text",
					"rules": [
					  {
						"required": false,
						"msg": "Please enter your first name"
					  }
					]
				}
			},
			{
				"formElement": {
					"headline":"Product Details",
					"viewType": "copy"
				}
			},
			{
				"formElement": {
					"name": "contact-product",
					"description": "Product",
					"errormsg":"Please enter at least 2 characters.",
					"multivalue": false,
					"inputLimit": 2,
					"label": "Product",
					"hideTitle": false,
					"showMandatory":false,
					"defaultValue": "",
					"viewType": "text",
					"rules": [
					  {
						"required": false,
						"msg": "Please enter the product value"
					  }
					]
				}
			},
			{
				"formElement": {
					"name": "contact-lname",
					"description": "size",
					"errormsg":"Please enter at least 2 characters.",
					"multivalue": false,
					"inputLimit": 2,
					"label": "Size",
					"hideTitle": false,
					"showMandatory":true,
					"defaultValue": "",
					"viewType": "text",
					"rules": [
					  {
						"required": false,
						"msg": "Please enter your first name"
					  }
					]
				}
			},
			{
				"formElement": {
					"name": "contactUs-datePurchased",
					"description": "Date purchased",
					"errormsg":"Please enter at least 2 characters.",
					"multivalue": false,
					"inputLimit": 2,
					"label": "Date purchased",
					"hideTitle": false,
                    "dateFormat": "dd/mm/yyyy",
					"showMandatory":false,
					"defaultValue": "",
					"viewType": "text",
					"rules": [
					  {
						"required": false,
						"msg": "Please enter your first name"
					  }
					]
				}
			},
			{
				"formElement": {
					"name": "contactUs-upcCodeDetail",
					"description": "Bar code on product?",
					"label": "Bar code on product?",
					"dropdownOptions": {
					  "Please select": "",
					  "Yes": "Yes",
					  "No": "No"
					},
					"hideTitle": false,
					"showMandatory":false,
					"defaultValue": "",
					"viewType": "select",
					"multiSelection": false,
					"rules": [
					  {
						"required": false,
						"msg": "Please provide appropriate input"
					  }
					]
				}
			},
			{
				"formElement": {
					"name": "contactUs-upcCode",
					"description": "Bar code",
					"helpText": "The bar code is the number shown below the bars. In this example, the code is: 8712566479726",
					"errormsg":"Please enter at least 2 characters.",
					"multivalue": false,
					"inputLimit": 2,
					"label": "Bar code",
					"hideTitle": false,
					"showMandatory":false,
					"defaultValue": "",
					"viewType": "text",
					"rules": [
					  {
						"required": false,
						"msg": "Please enter your first name"
					  }
					]
				}
			},
			{
				"formElement": {
					"name": "contactUs-expiryDate",
					"description": "Expiry date / best before date",
					"errormsg":"Please enter at least 2 characters.",
					"multivalue": false,
					"inputLimit": 2,
					"label": "Expiry date / best before date",
					"hideTitle": false,
                    "dateFormat": "dd/mm/yyyy",
					"showMandatory":false,
					"defaultValue": "",
					"viewType": "text",
					"rules": [
					  {
						"required": false,
						"msg": "Please enter your first name"
					  }
					]
				}
			},
			{
				"formElement": {
					"name": "contactUs-manufacturingCodeDetail",
					"description": "Manufacturing code available?",
					"label": "Manufacturing code available?",
					"dropdownOptions": {
					  "Please select": "",
					  "Full": "Full",
					  "Not available": "Not available"
					},
					"hideTitle": false,
					"showMandatory":false,
					"defaultValue": "",
					"viewType": "select",
					"multiSelection": false,
					"rules": [
					  {
						"required": false,
						"msg": "Please provide appropriate input"
					  }
					]
				}
			},
			{
				"formElement": {
					"name": "contactUs-manufacturingCode",
					"description": "Manufacturing code",
					"helpText": " The bar code is the number shown below the bars. In this example, the code is: 8712566479726",
					"errormsg":"Please enter at least 2 characters.",
					"multivalue": false,
					"inputLimit": 2,
					"label": "Manufacturing code",
					"hideTitle": false,
					"showMandatory":false,
					"defaultValue": "",
					"viewType": "text",
					"rules": [
					  {
						"required": false,
						"msg": "Please enter your first name"
					  }
					]
				}
			},
			{
				"formElement": {
					"headline":"Personal Details",
					"viewType": "copy"
				}
			},
			{
				"formElement": {
					"name": "contact-streetAddress1",
					"description": "Address line 1",
					"errormsg":"Please enter at least 2 characters.",
					"multivalue": false,
					"inputLimit": 2,
					"label": "Address line 1",
					"hideTitle": false,
					"showMandatory":false,
					"defaultValue": "",
					"viewType": "text",
					"rules": [
					  {
						"required": false,
						"msg": "Please enter your first name"
					  }
					]
				}
			},
			{
				"formElement": {
					"name": "contact-streetAddress2",
					"description": "Address line 2",
					"errormsg":"Please enter at least 2 characters.",
					"multivalue": false,
					"inputLimit": 2,
					"label": "Address line 2",
					"hideTitle": false,
					"showMandatory":false,
					"defaultValue": "",
					"viewType": "text",
					"rules": [
					  {
						"required": false,
						"msg": "Please enter your first name"
					  }
					]
				}
			},
			{
				"formElement": {
					"name": "contact-locality",
					"description": "Town/City",
					"errormsg":"Please enter at least 2 characters.",
					"multivalue": false,
					"inputLimit": 2,
					"label": "Town/City",
					"hideTitle": false,
					"showMandatory":false,
					"defaultValue": "",
					"viewType": "text",
					"rules": [
					  {
						"required": false,
						"msg": "Please enter your first name"
					  }
					]
				}
			},
			{
				  "formElement": {
					"name": "contact-region",
					"description": "Country",
					"label": "Country",
					"dropdownOptions": {
					  "Please select": "",
					  "United Kingdom": "GB",
					  "Afghanistan": "AF",
					  "Åland Islands": "AX",
					  "Albania": "AL",
					  "Algeria": "DZ",
					  "American Samoa": "AS",
					  "Andorra": "AD",
					  "Angola": "AO",
					  "Anguilla": "AI",
					  "Antarctica": "AQ",
					  "Antigua and Barbuda": "AG",
					  "Argentina": "AR",
					  "Armenia": "AM",
					  "Aruba": "AW",
					  "Australia": "AU",
					  "Austria": "AT",
					  "Azerbaijan": "AZ",
					  "Bahamas": "BS",
					  "Bahrain": "BH",
					  "Bangladesh": "BD",
					  "Barbados": "BB",
					  "Belarus": "BY",
					  "Belgium": "BE",
					  "Belize": "BZ",
					  "Benin": "BJ",
					  "Bermuda": "BM",
					  "Bhutan": "BT",
					  "Bolivia, Plurinational State of": "BO",
					  "Bonaire, Sint Eustatius and Saba": "BQ",
					  "Bosnia and Herzegovina": "BA",
					  "Botswana": "BW",
					  "Bouvet Island": "BV",
					  "Brazil": "BR",
					  "British Indian Ocean Territory": "IO",
					  "Brunei Darussalam": "BN",
					  "Bulgaria": "BG",
					  "Burkina Faso": "BF",
					  "Burundi": "BI",
					  "Cambodia": "KH",
					  "Cameroon": "CM",
					  "Canada": "CA",
					  "Cabo Verde": "CV",
					  "Cayman Islands": "KY",
					  "Central African Republic": "CF",
					  "Chad": "TD",
					  "Chile": "CL",
					  "China": "CN",
					  "Christmas Island": "CX",
					  "Cocos (Keeling) Islands": "CC",
					  "Colombia": "CO",
					  "Comoros": "KM",
					  "Congo": "CG",
					  "Congo, the Democratic Republic of the": "CD",
					  "Cook Islands": "CK",
					  "Costa Rica": "CR",
					  "Côte d'Ivoire": "CI",
					  "Croatia": "HR",
					  "Cuba": "CU",
					  "Curaçao": "CW",
					  "Cyprus": "CY",
					  "Czech Republic": "CZ",
					  "Denmark": "DK",
					  "Djibouti": "DJ",
					  "Dominica": "DM",
					  "Dominican Republic": "DO",
					  "Ecuador": "EC",
					  "Egypt": "EG",
					  "El Salvador": "SV",
					  "Equatorial Guinea": "GQ",
					  "Eritrea": "ER",
					  "Estonia": "EE",
					  "Ethiopia": "ET",
					  "Falkland Islands (Malvinas)": "FK",
					  "Faroe Islands": "FO",
					  "Fiji": "FJ",
					  "Finland": "FI",
					  "France": "FR",
					  "French Guiana": "GF",
					  "French Polynesia": "PF",
					  "French Southern Territories": "TF",
					  "Gabon": "GA",
					  "Gambia": "GM",
					  "Georgia": "GE",
					  "Germany": "DE",
					  "Ghana": "GH",
					  "Gibraltar": "GI",
					  "Greece": "GR",
					  "Greenland": "GL",
					  "Grenada": "GD",
					  "Guadeloupe": "GP",
					  "Guam": "GU",
					  "Guatemala": "GT",
					  "Guernsey": "GG",
					  "Guinea": "GN",
					  "Guinea-Bissau": "GW",
					  "Guyana": "GY",
					  "Haiti": "HT",
					  "Heard Island and McDonald Islands": "HM",
					  "Holy See (Vatican City State)": "VA",
					  "Honduras": "HN",
					  "Hong Kong": "HK",
					  "Hungary": "HU",
					  "Iceland": "IS",
					  "India": "IN",
					  "Indonesia": "ID",
					  "Iran, Islamic Republic of": "IR",
					  "Iraq": "IQ",
					  "Ireland": "IE",
					  "Isle of Man": "IM",
					  "Israel": "IL",
					  "Italy": "IT",
					  "Jamaica": "JM",
					  "Japan": "JP",
					  "Jersey": "JE",
					  "Jordan": "JO",
					  "Kazakhstan": "KZ",
					  "Kenya": "KE",
					  "Kiribati": "KI",
					  "Korea, Democratic People's Republic of": "KP",
					  "Korea, Republic of": "KR",
					  "Kuwait": "KW",
					  "Kyrgyzstan": "KG",
					  "Lao People's Democratic Republic": "LA",
					  "Latvia": "LV",
					  "Lebanon": "LB",
					  "Lesotho": "LS",
					  "Liberia": "LR",
					  "Libya": "LY",
					  "Liechtenstein": "LI",
					  "Lithuania": "LT",
					  "Luxembourg": "LU",
					  "Macao": "MO",
					  "Macedonia, the former Yugoslav Republic of": "MK",
					  "Madagascar": "MG",
					  "Malawi": "MW",
					  "Malaysia": "MY",
					  "Maldives": "MV",
					  "Mali": "ML",
					  "Malta": "MT",
					  "Marshall Islands": "MH",
					  "Martinique": "MQ",
					  "Mauritania": "MR",
					  "Mauritius": "MU",
					  "Mayotte": "YT",
					  "Mexico": "MX",
					  "Micronesia, Federated States of": "FM",
					  "Moldova, Republic of": "MD",
					  "Monaco": "MC",
					  "Mongolia": "MN",
					  "Montenegro": "ME",
					  "Montserrat": "MS",
					  "Morocco": "MA",
					  "Mozambique": "MZ",
					  "Myanmar": "MM",
					  "Namibia": "NA",
					  "Nauru": "NR",
					  "Nepal": "NP",
					  "Netherlands": "NL",
					  "New Caledonia": "NC",
					  "New Zealand": "NZ",
					  "Nicaragua": "NI",
					  "Niger": "NE",
					  "Nigeria": "NG",
					  "Niue": "NU",
					  "Norfolk Island": "NF",
					  "Northern Mariana Islands": "MP",
					  "Norway": "NO",
					  "Oman": "OM",
					  "Pakistan": "PK",
					  "Palau": "PW",
					  "Palestine, State of": "PS",
					  "Panama": "PA",
					  "Papua New Guinea": "PG",
					  "Paraguay": "PY",
					  "Peru": "PE",
					  "Philippines": "PH",
					  "Pitcairn": "PN",
					  "Poland": "PL",
					  "Portugal": "PT",
					  "Puerto Rico": "PR",
					  "Qatar": "QA",
					  "Réunion": "RE",
					  "Romania": "RO",
					  "Russian Federation": "RU",
					  "Rwanda": "RW",
					  "Saint Barthélemy": "BL",
					  "Saint Helena, Ascension and Tristan da Cunha": "SH",
					  "Saint Kitts and Nevis": "KN",
					  "Saint Lucia": "LC",
					  "Saint Martin (French part)": "MF",
					  "Saint Pierre and Miquelon": "PM",
					  "Saint Vincent and the Grenadines": "VC",
					  "Samoa": "WS",
					  "San Marino": "SM",
					  "Sao Tome and Principe": "ST",
					  "Saudi Arabia": "SA",
					  "Senegal": "SN",
					  "Serbia": "RS",
					  "Seychelles": "SC",
					  "Sierra Leone": "SL",
					  "Singapore": "SG",
					  "Sint Maarten (Dutch part)": "SX",
					  "Slovakia": "SK",
					  "Slovenia": "SI",
					  "Solomon Islands": "SB",
					  "Somalia": "SO",
					  "South Africa": "ZA",
					  "South Georgia and the South Sandwich Islands": "GS",
					  "South Sudan": "SS",
					  "Spain": "ES",
					  "Sri Lanka": "LK",
					  "Sudan": "SD",
					  "Suriname": "SR",
					  "Svalbard and Jan Mayen": "SJ",
					  "Swaziland": "SZ",
					  "Sweden": "SE",
					  "Switzerland": "CH",
					  "Syrian Arab Republic": "SY",
					  "Taiwan, Province of China": "TW",
					  "Tajikistan": "TJ",
					  "Tanzania, United Republic of": "TZ",
					  "Thailand": "TH",
					  "Timor-Leste": "TL",
					  "Togo": "TG",
					  "Tokelau": "TK",
					  "Tonga": "TO",
					  "Trinidad and Tobago": "TT",
					  "Tunisia": "TN",
					  "Turkey": "TR",
					  "Turkmenistan": "TM",
					  "Turks and Caicos Islands": "TC",
					  "Tuvalu": "TV",
					  "Uganda": "UG",
					  "Ukraine": "UA",
					  "United Arab Emirates": "AE",
					  "United Kingdom": "GB",
					  "United States": "US",
					  "United States Minor Outlying Islands": "UM",
					  "Uruguay": "UY",
					  "Uzbekistan": "UZ",
					  "Vanuatu": "VU",
					  "Venezuela, Bolivarian Republic of": "VE",
					  "Viet Nam": "VN",
					  "Virgin Islands, British": "VG",
					  "Virgin Islands, U.S.": "VI",
					  "Wallis and Futuna": "WF",
					  "Western Sahara": "EH",
					  "Yemen": "YE",
					  "Zambia": "ZM",
					  "Zimbabwe": "ZW"
					},
					"hideTitle": false,
					"showMandatory":false,
					"defaultValue": "",
					"viewType": "select",
					"multiSelection": false,
					"rules": [
					  {
						"required": false,
						"msg": "Please provide appropriate input"
					  }
					]
				  }
				},
			{
				"formElement": {
					"name": "contact-postalCode",
					"description": "Postcode",
					"errormsg":"Please enter at least 2 characters.",
					"multivalue": false,
					"inputLimit": 2,
					"label": "Postcode",
					"hideTitle": false,
					"showMandatory":false,
					"defaultValue": "",
					"viewType": "text",
					"rules": [
					  {
						"required": false,
						"msg": "Please enter your first name"
					  }
					]
				}
			},
			{
				"formElement": {
					"name": "contact-phoneNumbers-value",
					"description": "Contact number",
					"errormsg":"Please enter at least 2 characters.",
					"multivalue": false,
					"inputLimit": 2,
					"label": "Contact number",
					"hideTitle": false,
					"showMandatory":false,
					"defaultValue": "",
					"viewType": "text",
					"subType": "tel",
					"rules": [
					  {
						"required": false,
						"msg": "Please enter your first name"
					  }
					]
				}
			},
			{
			  "formElement": {
				"headline":"Privacy policy & opt-ins",
				"description": "<p>Unilever is committed to protecting your privacy and ensuring that your personal information is protected. For more information please visit our <a href='#'>Privacy Policy</a> and  <a href='#'>Terms of Use.</a></p><p>Lorem ipsum dolor sit amet, consectetur adipiscing elit. Aenean euismod bibendum laoreet. Proin gravida dolor sit amet lacus accumsan et viverra justo commodo. Proin sodales pulvinar tempor.</p>",
				"viewType": "copy"
			  }
			},
			{
			  "formElement": {
				"name": "optIn-onlineBrand",
				"description": "",
				"label": "Please tick the box to receive exciting news, offers and competitions ONLINE about whitelabel.",
				"hideTitle": false,
				"showMandatory":false,
				"defaultValue": "checked",
				"viewType": "checkbox",
				"rules": [
				  {
					"required": false,
					"msg": "Please provide a valid trait"
				  }
				]
			  }
			},
			{
			  "formElement": {
				"name": "optIn-onlineAll",
				"description": "",
				"label": "Please tick the box to receive exciting news, offers and competitions ONLINE about other Unilever UK Ltd brands or services.",
				"hideTitle": false,
				"showMandatory":false,
				"defaultValue": "checked",
				"viewType": "checkbox",
				"rules": [
				  {
					"required": false,
					"msg": "Please provide a valid trait"
				  }
				]
			  }
			},
			{
			  "formElement": {
				"name": "agree",
				"description": "",
				"label": "Please tick the box to receive news, offers and competitions by Post about other Unilever UK Ltd brands or services.",
				"hideTitle": false,
				"showMandatory":false,
				"defaultValue": "checked",
				"viewType": "checkbox",
				"rules": [
				  {
					"required": false,
					"msg": "Please provide a valid trait"
				  }
				]
			  }
			},
			{
			  "formElement": {
				"name": "agree",
				"description": "",
				"label": "Please tick the box if you would also like to receive news and offers via SMS about whitelabel.",
				"hideTitle": false,
				"showMandatory":false,
				"defaultValue": "checked",
				"viewType": "checkbox",
				"rules": [
				  {
					"required": false,
					"msg": "Please provide a valid trait"
				  }
				]
			  }
			},
				
			{
			  "formElement": {
				"description": "<p>If you wish to receive information by post, please ensure you have entered your address</p>",
				"viewType": "copy"
			  }
			},
				
			{
			  "formElement": {
				"name": "agree",
				"description": "",
				"label": "Please tick the box if you would also like to receive news and offers via SMS about whitelabel",
				"hideTitle": false,
				"showMandatory":false,
				"defaultValue": "checked",
				"viewType": "checkbox",
				"rules": [
				  {
					"required": false,
					"msg": "Please provide a valid trait"
				  }
				]
			  }
			},
			{
			  "formElement": {
				"name": "agree",
				"description": "",
				"label": "Please tick the box if you would also like to receive news and offers via SMS about other Unilever UK Ltd brands or services.",
				"hideTitle": false,
				"showMandatory":false,
				"defaultValue": "checked",
				"viewType": "checkbox",
				"rules": [
				  {
					"required": false,
					"msg": "Please provide a valid trait"
				  }
				]
			  }
			},
			{
			  "formElement": {
				"description": "<p>If you wish to receive information by SMS, please ensure you have entered your mobile number</p>",
				"viewType": "copy"
			  }
		    },
		    {
		      "formElement": {
		      	"name": "contact-form-image",
				"description": "Form file upload description",
				"market": "en_gb",
				"brandName": "whitelabel",
				"sizeConstraint": {
					"sizeLimit": "4",
					"sizeLimiterrorMsg": "Uploaded Image size is bigger than provided limit"
				},
				"rules": [
                    {
                        "msg": "please upload the image before submit",
                        "required": "true"
                    }
                ],
				"viewType": "file",
				"componentName": "formcopy",
				"servletPath": "data/form-file-size.json"
		      }
		    }],
            "formEndConfig": {
                "sling:resourceType": "engagednow/components/form/end",
                "name": "submit it",
                "resetName": "reset fields",
                "jcr:description": "this is a form"
            }
        },
        "path": "/content/engagewithadobe/en_us/ankurtest/jcr:content/flexi_par/form",
        "viewType": "defaultView",
        "componentType": "form",
        "isContainer": true
    }
}
