{
    "data": {
        "componentType": "formcheckbox",
        "path": "/uk/secure/contactus/_jcr_content/flexi_hero_par/form/form_par/formcheckbox",
        "formcheckbox": {
            "cq:lastRolledout": 1446207402990,
            "clientSideRendering": false,
            "randomNumber": "3243",
            "name": "optIn-onlineBrand",
            "description": "Please tick the box to receive exciting news, offers and competitions ONLINE about whitelabel.",
            "clientSideComponentName": "formcopy",
            "isContainer": true,
            "componentName": "formcopy",
            "cq:lastRolledoutBy": "admin"
        },
        "clientSideRendering": false,
        "randomNumber": "3243",
        "viewType": "defaultView",
        "isContainer": true,
        "resourceType": "whitelabel/components/unilever-forms/formcheckbox"
    }
}