{
    "data": {
        "path": "/uk/secure/contactus/_jcr_content/flexi_hero_par/form/form_par/bodycopy_1728",
        "componentType": "bodyCopy",
        "ajaxURL": "/uk/secure/contactus/_jcr_content/flexi_hero_par/form/form_par/bodycopy_1728.data.ajax.json",
        "bodyCopy": {
            "market": "en_gb",
            "publishDate": null,
            "description": "<div class=\"c-control-label \">Please do not supply us with this information if you are under the age of 13.</div>\n<div class=\"c-control-label\"><span class=\"c-form-mandatory\">*</span> Fields marked with an asterisk are required</div>\n",
            "brandName": "whitelabel",
            "componentName": "bodyCopy"
        },
        "clientSideRendering": false,
        "viewType": "defaultView",
        "randomNumber": "127",
        "isContainer": false,
        "resourceType": "whitelabel/components/bodyCopy"
    }
}