{
    "responseHeader": {
        "status": "200",
        "messages": []
    },
    "data": {
        "hero": {
            "brandName": "whitelabel",
            "type" : "video",
            "instanceType": "takeover",
            "isTakeOverContentActive": "false",
            "video" : {
                "id" : "KQT6wgwzxSA",
                "previewImageUrl": {
                    "path": "/images-cms/hero/hero",
                    "title": "image title",
                    "alt": "",
                    "extension": "jpg",
                    "fileName": "01",
                    "previewImageUrl": "/images-cms/hero/hero.enscale.01.full.png"
                }
            },
            "headline": "Hero headline goes here",
            "introCopy": "Lorem ipsum dolor sit amet, ac rutrum erat nibh nisl, porttitor ut aliquam quis. Erat nibh nisl, porttitor ut aliquam quis .",
            "mainCopy": "Lorem ipsum dolor sit amet, ac rutrum erat nibh nisl, porttitor ut aliquam quis. Erat nibh nisl, porttitor ut aliquam quis .Lorem ipsum dolor sit amet, ac rutrum erat nibh nisl, porttitor ut aliquam quis. Erat nibh nisl, porttitor ut aliquam quis .",
            "isReadMoreEnable": "false",
            "label": {
                "readMore": "Read more",
                "readLess": "Show less"
            }
        },
        "randomNumber": "575",
        "path": "/content/test1/_jcr_content/flexi_hero_par/hero_new",
        "clientSideRendering": false,
        "viewType": "defaultView",
        "componentType": "hero_new",
        "isContainer": false,
        "resourceType": "unilever-iea/components/hero_new",
        "brandName": "whitelabel"
    }
}
