{
    "responseHeader": {
        "status": "200",
        "messages": []
    },
    "data": {
        "hero": {
            "brandName": "whitelabel",
            "instanceType": "takeover",
            "introCopy": "Enter intro copy of the product",
            "isReadMoreEnable": "false",
            "isTakeOverContentActive": "true",
            "type": "imageType",
            "image": {
                "fileName": "01",
                "extension": "jpg",
                "alt": "",
                "title": "",
                "path": "/images-cms/hero/hero",
                "imageUrl": "/images-cms/hero/hero.enscale.01.full.jpg"
            },
            "headline": "Welcome to D2 Platform",
            "introCopy": "Lorem ipsum dolor sit amet, ac rutrum erat nibh nisl, porttitor ut aliquam quis. Erat nibh nisl, porttitor ut aliquam quis .",
            "mainCopy": "Lorem ipsum dolor sit amet, ac rutrum erat nibh nisl, porttitor ut aliquam quis. Erat nibh nisl, porttitor ut aliquam quis .",
            "isReadMoreEnable": "true",
            "label": {
                "readMore": "Read more",
                "readLess": "Show less"
            }
        },
        "randomNumber": "125",
        "path": "/content/Unilever-Iea/whitelabel/us/fr/test/_jcr_content/flexi_hero_par/hero",
        "clientSideRendering": false,
        "viewType": "hero",
        "brandName": "whitelabel",
        "componentType": "hero",
        "isContainer": false,
        "resourceType": "unilever-iea/components/hero"
    }
}