{
  "responseHeader": {
    "status": "200",
    "messages": []
  },
  "data": {
    "randomNumber": "778",
    "articleListing": {
    "Mode": "manual",
    "context": "context-text",
    "description": "description text",
      "brandName": "whitelabel",
      "title": "Whitelabel-Campaigns",
      "cta": "Call to action",
      "pattern":"A",
      "isCategoryTitle": "true",
      "maxMobileCount": "3",
      "seeMore": {
        "label": "Read more",
        "url": "http://localhost:4502/uk/home/stories/campaigns.html"
      },
      "displayCount": "8",
      "articles":[
        {
          "title":"Teaser Title",
          "url":"#ArticleUrl",
          "copyText":"Teaser Copy",
          "contentType": "Article",
          "author": "",
          "flags": [
            {"name":"need",
            "title":"need"}
        ],
          "image":{
            "url":"/images-cms/article-listing/girl_nose_cream.enscale.full.high.jpg",
            "fileName":"",
            "isNotAdaptiveImage":false,
            "extension":"jpg",
            "altImage":"Legacy",
            "title":"Legacy",
            "path":"/images-cms/article-listing/girl_nose_cream"
          },
          "parent":{
            "title":"Parent Title",
            "url":"#ParentUrl"
          },
          "articleCopy":"<p>Body Copy</p>\n",
          "publishDate":"",
          "containertag":{
            "articleClick":{
              "action":"articleClick",
              "label":"Legacy",
              "category":"other",
              "type":"trackEvent"
            },
            "relatedArticle":{
              "action":"relatedArticle",
              "label":"Legacy",
              "category":"custom",
              "type":"trackEvent"
            },
            "mayLike":{
              "action":"mayLike",
              "label":"Legacy",
              "category":"custom",
              "type":"trackEvent"
            }
          }
        },
        {
          "title":"Teaser Title",
          "url":"#ArticleUrl",
          "copyText":"Teaser Copy",
            "contentType": "Article",
          "author": "author name",
          "flags": [
            {"name":"need",
            "title":"need"}
            ],
          "image":{
            "url":"/images-cms/article-listing/girl_nose_cream.enscale.full.high.jpg",
            "fileName":"",
            "isNotAdaptiveImage":false,
            "extension":"jpg",
            "altImage":"Legacy",
            "title":"Legacy",
            "path":"/images-cms/article-listing/girl_nose_cream"
          },
          "parent":{
            "title":"Parent Title",
            "url":"#ParentUrl"
          },
          "articleCopy":"<p>Body Copy</p>\n",
          "publishDate":"20-jan-2016",
          "containertag":{
            "articleClick":{
              "action":"articleClick",
              "label":"Legacy",
              "category":"other",
              "type":"trackEvent"
            },
            "relatedArticle":{
              "action":"relatedArticle",
              "label":"Legacy",
              "category":"custom",
              "type":"trackEvent"
            },
            "mayLike":{
              "action":"mayLike",
              "label":"Legacy",
              "category":"custom",
              "type":"trackEvent"
            }
          }
        },
        {
          "title":"Teaser Title",
          "url":"#ArticleUrl",
          "copyText":"Teaser Copy",
             "contentType": "Article",
          "author": "author name",
          "flags": [
            {"name":"need",
            "title":"need"}
            ],
          "image":{
            "url":"/images-cms/article-listing/girl_nose_cream.enscale.full.high.jpg",
            "fileName":"",
            "isNotAdaptiveImage":false,
            "extension":"jpg",
            "altImage":"Legacy",
            "title":"Legacy",
            "path":"/images-cms/article-listing/girl_nose_cream"
          },
          "parent":{
            "title":"Parent Title",
            "url":"#ParentUrl"
          },
          "articleCopy":"<p>Body Copy</p>\n",
          "publishDate":"20-jan-2016",
          "containertag":{
            "articleClick":{
              "action":"articleClick",
              "label":"Legacy",
              "category":"other",
              "type":"trackEvent"
            },
            "relatedArticle":{
              "action":"relatedArticle",
              "label":"Legacy",
              "category":"custom",
              "type":"trackEvent"
            },
            "mayLike":{
              "action":"mayLike",
              "label":"Legacy",
              "category":"custom",
              "type":"trackEvent"
            }
          }
        },
        {
          "title":"Teaser Title",
          "url":"#ArticleUrl",
          "copyText":"Teaser Copy",
             "contentType": "Article",
          "author": "author name",
          "flags": [
            {"name":"need",
            "title":"need"}
            ],
          "image":{
            "url":"/images-cms/article-listing/girl_nose_cream.enscale.full.high.jpg",
            "fileName":"",
            "isNotAdaptiveImage":false,
            "extension":"jpg",
            "altImage":"Legacy",
            "title":"Legacy",
            "path":"/images-cms/article-listing/girl_nose_cream"
          },
          "parent":{
            "title":"Parent Title",
            "url":"#ParentUrl"
          },
          "articleCopy":"<p>Body Copy</p>\n",
          "publishDate":"20-jan-2016",
          "containertag":{
            "articleClick":{
              "action":"articleClick",
              "label":"Legacy",
              "category":"other",
              "type":"trackEvent"
            },
            "relatedArticle":{
              "action":"relatedArticle",
              "label":"Legacy",
              "category":"custom",
              "type":"trackEvent"
            },
            "mayLike":{
              "action":"mayLike",
              "label":"Legacy",
              "category":"custom",
              "type":"trackEvent"
            }
          }
        },
        {
          "title":"Teaser Title",
          "url":"#ArticleUrl",
          "copyText":"Teaser Copy",
            "contentType": "Article",
          "author": "author name",
          "flags": [
            {"name":"need",
            "title":"need"}
          ],
          "image":{
            "url":"/images-cms/article-listing/girl_nose_cream.enscale.full.high.jpg",
            "fileName":"",
            "isNotAdaptiveImage":false,
            "extension":"jpg",
            "altImage":"Legacy",
            "title":"Legacy",
            "path":"/images-cms/article-listing/girl_nose_cream"
          },
          "parent":{
            "title":"Parent Title",
            "url":"#ParentUrl"
          },
          "articleCopy":"<p>Body Copy</p>\n",
          "publishDate":"20-jan-2016",
          "containertag":{
            "articleClick":{
              "action":"articleClick",
              "label":"Legacy",
              "category":"other",
              "type":"trackEvent"
            },
            "relatedArticle":{
              "action":"relatedArticle",
              "label":"Legacy",
              "category":"custom",
              "type":"trackEvent"
            },
            "mayLike":{
              "action":"mayLike",
              "label":"Legacy",
              "category":"custom",
              "type":"trackEvent"
            }
          }
        },
        {
          "title":"Teaser Title",
          "url":"#ArticleUrl",
          "copyText":"Teaser Copy",
            "contentType": "Article",
          "author": "author name",
          "flags": [
            {"name":"need",
            "title":"need"}
            ],
          "image":{
            "url":"/images-cms/article-listing/girl_nose_cream.enscale.full.high.jpg",
            "fileName":"",
            "isNotAdaptiveImage":false,
            "extension":"jpg",
            "altImage":"Legacy",
            "title":"Legacy",
            "path":"/images-cms/article-listing/girl_nose_cream"
          },
          "parent":{
            "title":"Parent Title",
            "url":"#ParentUrl"
          },
          "articleCopy":"<p>Body Copy</p>\n",
          "publishDate":"20-jan-2016",
          "containertag":{
            "articleClick":{
              "action":"articleClick",
              "label":"Legacy",
              "category":"other",
              "type":"trackEvent"
            },
            "relatedArticle":{
              "action":"relatedArticle",
              "label":"Legacy",
              "category":"custom",
              "type":"trackEvent"
            },
            "mayLike":{
              "action":"mayLike",
              "label":"Legacy",
              "category":"custom",
              "type":"trackEvent"
            }
          }
        },
        {
          "title":"Teaser Title",
          "url":"#ArticleUrl",
          "copyText":"Teaser Copy",
             "contentType": "Article",
          "author": "author name",
          "flags": [
            {"name":"need",
            "title":"need"}
            ],
          "image":{
            "url":"/images-cms/article-listing/girl_nose_cream.enscale.full.high.jpg",
            "fileName":"",
            "isNotAdaptiveImage":false,
            "extension":"jpg",
            "altImage":"Legacy",
            "title":"Legacy",
            "path":"/images-cms/article-listing/girl_nose_cream"
          },
          "parent":{
            "title":"Parent Title",
            "url":"#ParentUrl"
          },
          "articleCopy":"<p>Body Copy</p>\n",
          "publishDate":"20-jan-2016",
          "containertag":{
            "articleClick":{
              "action":"articleClick",
              "label":"Legacy",
              "category":"other",
              "type":"trackEvent"
            },
            "relatedArticle":{
              "action":"relatedArticle",
              "label":"Legacy",
              "category":"custom",
              "type":"trackEvent"
            },
            "mayLike":{
              "action":"mayLike",
              "label":"Legacy",
              "category":"custom",
              "type":"trackEvent"
            }
          }
        },
        {
          "title":"Teaser Title",
          "url":"#ArticleUrl",
          "copyText":"Teaser Copy",
            "contentType": "Article",
          "author": "author name",
          "flags": [
            {"name":"need",
            "title":"need"}
            ],
          "image":{
            "url":"/images-cms/article-listing/girl_nose_cream.enscale.full.high.jpg",
            "fileName":"",
            "isNotAdaptiveImage":false,
            "extension":"jpg",
            "altImage":"Legacy",
            "title":"Legacy",
            "path":"/images-cms/article-listing/girl_nose_cream"
          },
          "parent":{
            "title":"Parent Title",
            "url":"#ParentUrl"
          },
          "articleCopy":"<p>Body Copy</p>\n",
          "publishDate":"20-jan-2016",
          "containertag":{
            "articleClick":{
              "action":"articleClick",
              "label":"Legacy",
              "category":"other",
              "type":"trackEvent"
            },
            "relatedArticle":{
              "action":"relatedArticle",
              "label":"Legacy",
              "category":"custom",
              "type":"trackEvent"
            },
            "mayLike":{
              "action":"mayLike",
              "label":"Legacy",
              "category":"custom",
              "type":"trackEvent"
            }
          }
        }
      ],
      "static": {
        "moreLink": {
          "label": "see all",
          "url": "/data/article-listing-campaign-more.json",
          "containertag": {
            "category": "category",
            "action": "action",
            "information ": "information",
            "attr": "attr"
          }
        }
      }
    },
    "clientSideRendering": true,
    "viewType": "defaultView",
    "componentType": "articleListing",
    "isContainer": false
  }
}
