{
    "data": {
        "bodyCopySteps": {
			"brandName": "whitelabel",
			"anchorLinkNavigation": {
                "showAsNavigation":true,
                "label":"Body Copy Steps",
                "id":"body copy steps3278"
            },
            "isImageRequired": true, 
			"steps": [
				{	
					"step": "1",
					"headline": "Lorem ipsum dolor sit amet.",
					"description": "TLorem ipsum dolor sit amet, ac rutrum erat nibh nisl, porttitor ut aliquam quis. Erat nibh nisl, porttitor ut aliquam quis .",
					"image": {
						"fileName": "01",
						"extension": "jpg",
						"title": "",
						"path": "/images-cms/body-copy-steps/body-copy-steps",
						"altImage": "Image alt text",
						"url": "/images-cms/body-copy-steps/image.enscale.01.full.high.jpg"
					}
				},
				{
					"step": "2",
					"headline": "Lorem ipsum dolor sit amet",
					"description": "Lorem ipsum dolor sit amet, ac rutrum erat nibh nisl, porttitor ut aliquam quis. Erat nibh nisl, porttitor ut aliquam quis .",
					"image": {
						"fileName": "01",
						"extension": "jpg",
						"title": "",
						"path": "/images-cms/body-copy-steps/body-copy-steps",
						"altImage": "Image alt text",
						"url": "/images-cms/body-copy-steps/image.enscale.01.full.high.jpg"
					}
				},
				{	
					"step": "3",
					"headline": "Lorem ipsum dolor sit amet:",
					"description": "Lorem ipsum dolor sit amet, ac rutrum erat nibh nisl, porttitor ut aliquam quis. Erat nibh nisl, porttitor ut aliquam quis .",
					"image": {
						"fileName": "01",
						"extension": "jpg",
						"title": "",
						"path": "/images-cms/body-copy-steps/body-copy-steps",
						"altImage": "Image alt text",
						"url": "/images-cms/body-copy-steps/image.enscale.01.full.high.jpg"
					}
				},
				{	
					"step": "4",
					"headline": "Lorem ipsum dolor sit amet",
					"description": "Lorem ipsum dolor sit amet, ac rutrum erat nibh nisl, porttitor ut aliquam quis. Erat nibh nisl, porttitor ut aliquam quis .",
					"image": {
						"fileName": "01",
						"extension": "jpg",
						"title": "",
						"path": "/images-cms/body-copy-steps/body-copy-steps",
						"altImage": "Image alt text",
						"url": "/images-cms/body-copy-steps/image.enscale.01.full.high.jpg"
					}
				},
				{	
					"step": "5",
					"headline": "Lorem ipsum dolor sit amet.",
					"description": "Lorem ipsum dolor sit amet, ac rutrum erat nibh nisl, porttitor ut aliquam quis. Erat nibh nisl, porttitor ut aliquam quis .",
					"image": {
						"fileName": "01",
						"extension": "jpg",
						"title": "",
						"path": "/images-cms/body-copy-steps/body-copy-steps",
						"altImage": "Image alt text",
						"url": "/images-cms/body-copy-steps/image.enscale.01.full.high.jpg"
					}
				},
				{	
					"step": "6",
					"headline": "Lorem ipsum dolor sit amet.",
					"description": "Lorem ipsum dolor sit amet, ac rutrum erat nibh nisl, porttitor ut aliquam quis. Erat nibh nisl, porttitor ut aliquam quis .",
					"image": {
						"fileName": "01",
						"extension": "jpg",
						"title": "",
						"path": "/images-cms/body-copy-steps/body-copy-steps",
						"altImage": "Image alt text",
						"url": "/images-cms/body-copy-steps/image.enscale.01.full.high.jpg"
					}
				},
				{	
					"step": "7",
					"headline": "Lorem ipsum dolor sit amet:",
					"description": "Lorem ipsum dolor sit amet, ac rutrum erat nibh nisl, porttitor ut aliquam quis. Erat nibh nisl, porttitor ut aliquam quis .",
					"image": {
						"fileName": "01",
						"extension": "jpg",
						"title": "",
						"path": "/images-cms/body-copy-steps/body-copy-steps",
						"altImage": "Image alt text",
						"url": "/images-cms/body-copy-steps/image.enscale.01.full.high.jpg"
					}
				}
			]
        },
        "viewType": "defaultView",
        "componentType": "bodyCopySteps",
        "isContainer": false
    }
}
