{
    "responseHeader": {
        "status": "200",
        "messages": []
    },
    "data": {
        "cookiePolicy": {
            "brandName": "whitelabel",
            "title": "Cookies on this site",
            "description": "Unilever uses cookies to give you the best experience online and to provide anonymised, aggregated site usage data.  You can find out what cookies we use, what they do and how you can disable them in our <a href='#cookie-policy.html'>Cookie Policy</a>. By browsing  <a href='#our-sites.html'>our sites</a>, you consent to the use of cookies. By closing this message, you consent to our use of cookies on this device in accordance with our cookie policy unless you have disabled them.",
            "closeText": "close"
        },
        "clientSideRendering": false,
        "randomNumber": "3278",
        "viewType": "defaultView",
        "componentType": "cookiePolicy",
        "isContainer": false,
        "resourceType": "unilever-iea/components/cookiePolicy"
    }
}
