{
  "data": {
    "path": "/uk/test_01dec/_jcr_content/footerpar/featuredcategory",
    "componentType": "featuredCategory",
    "ajaxURL": "/uk/test_01dec/_jcr_content/footerpar/featuredcategory.data.ajax.json",
    "clientSideRendering": false,
    "viewType": "defaultView",
    "randomNumber": "943",
    "isContainer": false,
    "featuredCategory": {
      "market": "en_gb",
      "cta": {
        "labelText": "Read more",
        "navigationURL": "http://localhost:4502/uk/home/stories/about-whitelabel/our-vision.html"
      },
      "brandName": "whitelabel",
      "pageType": "lifestyle",
      "teaserCopy": "Discover our vision for making beauty a source of confidence",
      "backgroundImage": {
        "url": "http://localhost:4502/content/dam/whitelabel/Hero.jpg",
        "fileName": "",
        "isNotAdaptiveImage": false,
        "extension": "jpg",
        "altImage": "Hero",
        "title": "Hero",
        "path": "/images-cms/featured-category/bg-paper"
      },
      "imagePosition": "Left",
      "componentName": "featuredCategory",
      "teaserImage": {
        "url": "whitelabel",
        "fileName": "",
        "isNotAdaptiveImage": false,
        "extension": "png",
        "teaserImageAltText": "Our vision",
        "title": "Our vision",
        "path": "/images-cms/featured-category/pr-pure-care-dry-oil-from-above"
      },
      "teaserTitle": "Our vision"
    },
    "resourceType": "unilever-iea/components/featuredCategory"
  },
  "responseHeader": {
    "messages": [],
    "status": "200"
  }
}