{
    "data": {
        "path": "/content/whitelabel/en_gb/home/_jcr_content/headerpar/globalnavigation",
        "componentType": "globalNavigation",
        "globalNavigation": {
            "market": "en_gb",
            "search": {
                "searchInput": {
                    "label": "search",
                    "formName": "Global Search",
                    "placeHolder": "Type something here...",
                    "requestServlet": "data/suggestionhandler.json",
                    "target": "t9_search.html"
                },
                "logo": {
                    "fileReference": "images-cms/logo/whitelabel-icon.png",
                    "alttext": "Search",
                    "fileName": "whitelabel-icon",
                    "extension": "png"
                },
                "headline": "Hello, what are you looking for?",
                "dropDownLabel": {
                    "inArticles": "in articles",
                    "inProducts": "in products",
                    "inEverything": "in everything"
                }
            },
            "brandName": "whitelabel",
            "back": "back",
            "componentName": "",
            "level1": [
                {
                    "custom": true,
                    "browseAll": "Browse all",
                    "label": "Why Dirt Is Good",
                    "level2": [
                        {
                            "label": "Find something for your skin",
                            "browseAll": "Browse all",
                            "level3": [
                                {
                                    "label": "Skin Firming Cream",
                                    "url": "/content/whitelabel/en_gb/home/skin-care/skin-firming-cream.html",
                                    "openInNewWindow": "No"
                                },
                                {
                                    "label": "Glowing Skin",
                                    "url": "/content/whitelabel/en_gb/home/skin-care/glowing-skin.html",
                                    "openInNewWindow": "No"
                                },
                                {
                                    "label": "Anti Aging Cream Products",
                                    "url": "/content/whitelabel/en_gb/home/skin-care/anti-aging-cream-products.html",
                                    "openInNewWindow": "No"
                                },
                                {
                                    "label": "Dry Skin Care",
                                    "url": "/content/whitelabel/en_gb/home/skin-care/dry-skin-care.html",
                                    "openInNewWindow": "No"
                                }
                            ]
                        },
                        {
                            "label": "Find something for your hair",
                            "browseAll": "Browse all",
                            "level3": [
                                {
                                    "label": "Dry Hair Treatment",
                                    "url": "/content/whitelabel/en_gb/home/hair-care/dry-hair-treatment.html",
                                    "openInNewWindow": "No"
                                },
                                {
                                    "label": "Damaged Hair Repair",
                                    "url": "/content/whitelabel/en_gb/home/hair-care/damaged-hair-repair.html",
                                    "openInNewWindow": "No"
                                },
                                {
                                    "label": "Frizzy Hair Products",
                                    "url": "/content/whitelabel/en_gb/home/hair-care/frizzy-hair-products.html",
                                    "openInNewWindow": "No"
                                },
                                {
                                    "label": "Curly Hair Products",
                                    "url": "/content/whitelabel/en_gb/home/hair-care/curly-hair-products.html",
                                    "openInNewWindow": "No"
                                },
                                {
                                    "label": "Hair Volume",
                                    "url": "/content/whitelabel/en_gb/home/hair-care/hair-volume.html",
                                    "openInNewWindow": "No"
                                }
                            ]
                        }
                    ]
                },
                {
                    "label": "Get Ideas",
                    "browseAll": "Browse all",
                    "url": "/content/whitelabel/en_gb/home/whitelabel-stories.html",
                    "level2": [
                        {
                            "label": "Find something for your skin",
                            "browseAll": "Browse all",
                            "label": "Product Landing 01",
                            "url": "/content/whitelabel/en_gb/home/washing-and-bathing.html"
                        },
                        {
                            "label": "Find something for your hair",
                            "browseAll": "Browse all",
                            "label": "Product Landing 02",
                            "url": "/content/whitelabel/en_gb/home/skin-care.html",

                            "level3": [
                                {
                                    "browseAll": "Browse all",
                                    "label": "Product Category 01",
                                    "url": "/content/whitelabel/en_gb/home/skin-care/body-cream.html",
                                    "level4": [
                                        {
                                            "label": "Product Detail 01",
                                            "url": "/content/whitelabel/en_gb/home/skin-care/body-cream/dermaspa-body-cream-goodness.html"
                                        },
                                        {
                                            "label": "Product Detail 02",
                                            "url": "/content/whitelabel/en_gb/home/skin-care/body-cream/silky-body-cream.html"
                                        },
                                        {
                                            "label": "Product Detail 03",
                                            "url": "/content/whitelabel/en_gb/home/skin-care/body-cream/body-butter-pro_age.html"
                                        }
                                    ]
                                },
                                {
                                    "browseAll": "Browse all",
                                    "label": "Product Category 02",
                                    "url": "/content/whitelabel/en_gb/home/skin-care/body-cream.html",
                                    "level4": [
                                        {
                                            "label": "Product Detail 01",
                                            "url": "/content/whitelabel/en_gb/home/skin-care/body-cream/dermaspa-body-cream-goodness.html"
                                        },
                                        {
                                            "label": "Product Detail 02",
                                            "url": "/content/whitelabel/en_gb/home/skin-care/body-cream/silky-body-cream.html"
                                        },
                                        {
                                            "label": "Product Detail 03",
                                            "url": "/content/whitelabel/en_gb/home/skin-care/body-cream/body-butter-pro_age.html"
                                        }
                                    ]
                                }
                            ]
                        },
                        {
                            "browseAll": "Browse all",
                            "label": "Product Landing 03",
                            "url": "#",
                            "level3": [
                                {
                                    "browseAll": "Browse all",
                                    "label": "Product Detail 01",
                                    "url": "#"
                                },
                                {
                                    "browseAll": "Browse all",
                                    "label": "Product Detail 02",
                                    "url": "#"
                                },
                                {
                                    "browseAll": "Browse all",
                                    "label": "Product Detail 03",
                                    "url": "#"
                                }
                            ]
                        },
                        {
                            "browseAll": "Browse all",
                            "label": "Product Landing 04",
                            "url": "/content/whitelabel/en_gb/home/hair-care.html",
                            "level3": [
                                {
                                    "browseAll": "Browse all",
                                    "label": "Product Detail 01",
                                    "url": "#"
                                },
                                {
                                    "browseAll": "Browse all",
                                    "label": "Product Detail 02",
                                    "url": "#"
                                },
                                {
                                    "browseAll": "Browse all",
                                    "label": "Product Detail 03",
                                    "url": "#"
                                }
                            ]
                        }
                    ]
                }
            ],
            "separator": "or",
            "mainLogo": {
                "alttext": "Alt text",
                "extension": "jpg",
                "target": "index.html",
                "fileName": "Brand name",
                "target" :"/",
                "fileReference": "images-cms/logo/brand-logo.png",
                "imageUrl": "/content/dam/geometrixx/portraits/scott_reynolds.jpg"
            }
        },
        "ajaxURL": "/content/whitelabel/en_gb/home/jcr:content/headerpar/globalnavigation.data.ajax.json",
        "clientSideRendering": false,
        "viewType": "defaultView",
        "randomNumber": "684",
        "isContainer": false,
        "resourceType": "whitelabel/components/globalNavigation"
    }
}
