{
    "responseHeader": {
        "status": "200",
        "messages": []
    },
    "data": {
        "randomNumber": "186",
        "navigation": {
            "navigationLabel": [
                {
                    "navigationLabel": "Why Dirt Is Good",
                    "navigationURL": "/new_why-dirt-good.html",
                    "flyOutMenuPath": ""
                },
                {
                    "navigationLabel": "Get Ideas",
                    "navigationURL": "/new_get-ideas.html",
                    "flyOutMenuPath": ""
                }
            ]
        },
        "path": "/content/iea/en_us/_jcr_content/headerpar/columncontrol/container_par_2/navigation",
        "clientSideRendering": true,
        "viewType": "digView",
        "componentType": "navigation",
        "isContainer": true
    }
}
