{
	"responseHeader": {
	"messages": [],
	"status": "200"
	},
	"data": {
	"path": "/uk/home/rangeTest/_jcr_content/flexi_hero_par/productrange",
	"componentType": "productRange",
	"ajaxURL": "/uk/home/rangeTest/_jcr_content/flexi_hero_par/productrange.data.ajax.json",
	"clientSideRendering": false,
	"productCrossell": {
	  "market": "en_gb",
	  "brandName": "dove",
	  "componentName": "productCrossell",
	  "title": "Crossell Component",
	  "productList": [
	    {
	      	"title": "Advanced Hair Series Pure Care Dry Oil Shampoo",
	      	"description": "For touchable softness and radiant shine, Dove Advanced Hair Series Pure Dry Oil Shampoo nourishes your hair leaving it looking silky soft.",
	      	"productID": "8712561493031",
	      	"currencySymbol": "£",
		  	"personalisedPrice":"2.77",
	      	"personalizableLabel" : "personalizable",
        	"enableCustomizationBadges": false,
        	"isCustomizableProduct" :true,
        	"isNewProduct": "new",
        	"giftConfigurator": {
				"customisedDeliveryPrice": "10.0",
				"encryptedDeliveryPrice": "o0WGbvgyCk3Rpn34KJmU1g==",
				"encryptedWrappingPrice": "DoXUlW4tzpCA2AfM+nJpwQ==",
				"customisedWrappingPrice": "1.0",
				"deliveryTooltip": "We aim to deliver at choosen address",
				"giftWraps": [],
				"encryptedPrice": "6X6ZRvGIDpFleXGf05L0Pg==",
				"deliveryConditionsCopy": "Free Standard Uk Delivery Included",
				"customisedPrice": "21.0"
			},
	      "ratings": {
	        "entityType": "product",
	        "identifierValue": "8712561493031",
	        "viewType": "rating",
	        "identifierType": "EAN",
	        "uniqueId": "8712561493031"
	      },
	      "productsDetail": [
	        {
	          "unit": "250ml",
	          "images": [
	            {
	              	"extension": "png",
                    "title": "sddf",
                    "altImage": "",
                    "isNotAdaptiveImage": "false",
                    "fileName": "01",
                    "path": "/images-cms/product-listing/product",
					"zoomImage": {
						"path": "http://localhost:4502/content/dam/unilever/dove/global/pack_shot/front/hair_care/wash_and_care/dove_ahs_spoo_250mlpureoil/Dove_Advanced_Hair_Series_Pure_Care_Shampoo_250ml_FO_8712561493031.png",
						"fileName": "",
						"extension": "png",
						"isNotAdaptiveImage": "false",
						"title": "Dove Pure Care Dry Oil Shampoo 250ml",
						"url": "http://localhost:4502/content/dam/unilever/dove/global/pack_shot/front/hair_care/wash_and_care/dove_ahs_spoo_250mlpureoil/Dove_Advanced_Hair_Series_Pure_Care_Shampoo_250ml_FO_8712561493031.png.ulenscale.985x985.png",
						"altImage": "Dove Pure Care Dry Oil Shampoo 250ml"
					},
	              "thumbImage": {
	                "path": "http://localhost:4502/content/dam/unilever/dove/global/pack_shot/front/hair_care/wash_and_care/dove_ahs_spoo_250mlpureoil/Dove_Advanced_Hair_Series_Pure_Care_Shampoo_250ml_FO_8712561493031.png",
	                "fileName": "",
	                "extension": "png",
	                "isNotAdaptiveImage": "false",
	                "title": "Dove Pure Care Dry Oil Shampoo 250ml",
	               "url": "http://localhost:4502/content/dam/unilever/dove/global/pack_shot/front/hair_care/wash_and_care/dove_ahs_spoo_250mlpureoil/Dove_Advanced_Hair_Series_Pure_Care_Shampoo_250ml_FO_8712561493031.png.thumb.100.140.png",
	                "altImage": "Dove Pure Care Dry Oil Shampoo 250ml"
	              }
	            }
	          ],
	          "price": "£5.99",
	          "productSize": "Tall",
	          "smartProductId": "100446",
	          "retail": "RRP",
	          "skuid": "8712561493031"
	        }
	      ],
	      "containertag": {
	        "productLoad": {
	          "productID": "8712561493031",
	          "primaryCategory": "Hair care",
	          "productVariations": "250ml",
	          "action": "productInfo",
	          "label": "Advanced Hair Series Pure Care Dry Oil Shampoo",
	          "category": "other",
	          "type": "trackEvent"
	        },
	        "productClick": {
	          "action": "productClick",
	          "attributes": {
	            "nonInteraction": "1"
	          },
	          "label": {
	            "attributes": {
	              "productVariations": "250ml",
	              "listPosition": ""
	            },
	            "category": {
	              "primaryCategory": "Hair care"
	            },
	            "productInfo": {
	              "quantity": "250ml",
	              "productID": "8712561493031",
	              "price": "5.99",
	              "brand": "dove",
	              "productName": "Advanced Hair Series Pure Care Dry Oil Shampoo"
	            }
	          },
	          "category": "custom",
	          "type": "productclick"
	        },
	        "productQuickView": {
	          "action": "productQuickView",
	          "attributes": {
	            "nonInteraction": "1"
	          },
	          "label": {
	            "attributes": {
	              "productVariations": "250ml",
	              "listPosition": ""
	            },
	            "category": {
	              "primaryCategory": "Hair care"
	            },
	            "productInfo": {
	              "quantity": "250ml",
	              "productID": "8712561493031",
	              "price": "5.99",
	              "brand": "dove",
	              "productName": "Advanced Hair Series Pure Care Dry Oil Shampoo"
	            }
	          },
	          "category": "custom",
	          "type": "productQuickView"
	        },
	        "productImpression": {
	          "action": "productImpression",
	          "attributes": {
	            "nonInteraction": "1"
	          },
	          "label": {
	            "attributes": {
	              "productVariations": "250ml",
	              "listPosition": ""
	            },
	            "category": {
	              "primaryCategory": "Hair care"
	            },
	            "productInfo": {
	              "quantity": "250ml",
	              "productID": "8712561493031",
	              "price": "5.99",
	              "brand": "dove",
	              "productName": "Advanced Hair Series Pure Care Dry Oil Shampoo"
	            }
	          },
	          "category": "custom",
	          "type": "productImpression"
	        },
	        "shopNow": {
	          "productID": "8712561493031",
	          "primaryCategory": "Hair care",
	          "productVariations": "250ml",
	          "action": "shopNow",
	          "attributes": {
	            "nonInteraction": "1"
	          },
	          "label": {
	            "attributes": {
	              "productVariations": "250ml",
	              "listPosition": ""
	            },
	            "category": {
	              "primaryCategory": "Hair care"
	            },
	            "productInfo": {
	              "quantity": "250ml",
	              "productID": "8712561493031",
	              "price": "5.99",
	              "brand": "dove",
	              "productName": "Advanced Hair Series Pure Care Dry Oil Shampoo"
	            }
	          },
	          "category": "custom",
	          "type": "shopNow"
	        },
	        "ratingreview": {
	          "action": "ratingreview",
	          "label": "Advanced Hair Series Pure Care Dry Oil Shampoo",
	          "category": "other",
	          "type": "trackEvent"
	        },
	        "dropdown": {
	          "action": "dropdown",
	          "label": "dropdown",
	          "category": "custom",
	          "type": "trackEvent"
	        },
	        "zoom": {
	          "productID": "8712561493031",
	          "primaryCategory": "Hair care",
	          "productVariations": "250ml",
	          "action": "widgets",
	          "label": "zoom",
	          "category": "custom",
	          "type": "trackEvent"
	        }
	      },
	      "textLink": {
	        "label": "Find Out More",
	        "url": "http://localhost:4502/uk/home/hair-care/shampoo/advanced-hair-series-pure-care-dry-oil-shampoo.html"
	      },
	      "productTag": [
	        {
	          "path": "/etc/tags/unilever/dove/content/process/created",
	          "name": "created",
	          "id": "unilever:dove/content/process/created",
	          "title": "created"
	        },
	        {
	          "path": "/etc/tags/unilever/dove/product/type/hair/shampoo",
	          "name": "shampoo",
	          "id": "unilever:dove/product/type/hair/shampoo",
	          "title": "shampoo"
	        },
	        {
	          "path": "/etc/tags/unilever/dove/content/purpose/core/product",
	          "name": "product",
	          "id": "unilever:dove/content/purpose/core/product",
	          "title": "product"
	        },
	        {
	          "path": "/etc/tags/unilever/dove/product/benefit/cross-category/moisturising",
	          "name": "moisturising",
	          "id": "unilever:dove/product/benefit/cross-category/moisturising",
	          "title": "moisturising"
	        },
	        {
	          "path": "/etc/tags/unilever/dove/content/frequency/evergreen",
	          "name": "evergreen",
	          "id": "unilever:dove/content/frequency/evergreen",
	          "title": "evergreen"
	        },
	        {
	          "path": "/etc/tags/unilever/dove/product/benefit/hair/nourishing",
	          "name": "nourishing",
	          "id": "unilever:dove/product/benefit/hair/nourishing",
	          "title": "nourishing hair"
	        },
	        {
	          "path": "/etc/tags/unilever/dove/content/brand/dove-women",
	          "name": "dove-women",
	          "id": "unilever:dove/content/brand/dove-women",
	          "title": "Dove Women"
	        },
	        {
	          "path": "/etc/tags/unilever/dove/product/collection/hair/advanced-hair-series/pure-care-dry-oil",
	          "name": "pure-care-dry-oil",
	          "id": "unilever:dove/product/collection/hair/advanced-hair-series/pure-care-dry-oil",
	         "title": "Pure Care Dry Oil"
	        },
	        {
	          "path": "/etc/tags/unilever/dove/product/ingredient/macadamia-oil",
	          "name": "macadamia-oil",
	          "id": "unilever:dove/product/ingredient/macadamia-oil",
	          "title": "macadamia oil"
	        },
	        {
	          "path": "/etc/tags/unilever/dove/product/benefit/hair/softening",
	          "name": "softening",
	          "id": "unilever:dove/product/benefit/hair/softening",
	          "title": "hair softening"
	        }
	      ],
	      "quickViewLabel": "quick view"
	    },
	    {
	      "title": "Advanced Hair Series Pure Care Dry Oil Conditioner",
	      "description": "For intense hair nourishment, Dove Advanced Hair Series Pure Care Dry Oil Conditioner helps to add shine and make hair feel smooth and soft.",
	      "productID": "8712561493703",
	      "currencySymbol": "£",
		  "personalisedPrice":"2.77",
	      "personalizableLabel" : "personalizable",
        	"enableCustomizationBadges": true,
        	"isCustomizableProduct" :true,
        	"giftConfigurator": {
				"customisedDeliveryPrice": "10.0",
				"encryptedDeliveryPrice": "o0WGbvgyCk3Rpn34KJmU1g==",
				"encryptedWrappingPrice": "DoXUlW4tzpCA2AfM+nJpwQ==",
				"customisedWrappingPrice": "1.0",
				"deliveryTooltip": "We aim to deliver at choosen address",
				"giftWraps": [],
				"encryptedPrice": "6X6ZRvGIDpFleXGf05L0Pg==",
				"deliveryConditionsCopy": "Free Standard Uk Delivery Included",
				"customisedPrice": "21.0"
			},
	      "ratings": {
	        "entityType": "product",
	        "identifierValue": "8712561493703",
	        "viewType": "rating",
	        "identifierType": "EAN",
	        "uniqueId": "8712561493703"
	      },
	      "productsDetail": [
	        {
	          "unit": "250ml",
	          "images": [
	            {
	              	"extension": "png",
                    "title": "sddf",
                    "altImage": "",
                    "isNotAdaptiveImage": "false",
                    "fileName": "01",
                    "path": "/images-cms/product-listing/product",
	              "zoomImage": {
	                "path": "http://localhost:4502/content/dam/unilever/dove/global/pack_shot/front/hair_care/wash_and_care/dove_ahs_cond_250mlpureoil/Dove_Advanced_Hair_Series_Pure_Care_Conditioner_250ml_FO_8712561493703.png",
	                "fileName": "",
	                "extension": "png",
	                "isNotAdaptiveImage": "false",
	                "title": "Dove Pure Care Dry Oil Conditioner 250ml",
	                "url": "http://localhost:4502/content/dam/unilever/dove/global/pack_shot/front/hair_care/wash_and_care/dove_ahs_cond_250mlpureoil/Dove_Advanced_Hair_Series_Pure_Care_Conditioner_250ml_FO_8712561493703.png.ulenscale.985x985.png",
	                "altImage": "Dove Pure Care Dry Oil Conditioner 250ml"
	              },
	              "thumbImage": {
	                "path": "http://localhost:4502/content/dam/unilever/dove/global/pack_shot/front/hair_care/wash_and_care/dove_ahs_cond_250mlpureoil/Dove_Advanced_Hair_Series_Pure_Care_Conditioner_250ml_FO_8712561493703.png",
	                "fileName": "",
	                "extension": "png",
	                "isNotAdaptiveImage": "false",
	                "title": "Dove Pure Care Dry Oil Conditioner 250ml",
	                "url": "http://localhost:4502/content/dam/unilever/dove/global/pack_shot/front/hair_care/wash_and_care/dove_ahs_cond_250mlpureoil/Dove_Advanced_Hair_Series_Pure_Care_Conditioner_250ml_FO_8712561493703.png.thumb.100.140.png",
	                "altImage": "Dove Pure Care Dry Oil Conditioner 250ml"
	              }
	            }
	          ],
	          "price": "£5.99",
	          "productSize": "Tall",
	          "smartProductId": "100443",
	          "retail": "RRP",
	          "skuid": "8712561493703"
	        }
	      ],
	      "containertag": {
	        "productLoad": {
	          "productID": "8712561493703",
	          "primaryCategory": "Hair care",
	          "productVariations": "250ml",
	          "action": "productInfo",
	          "label": "Advanced Hair Series Pure Care Dry Oil Conditioner",
	          "category": "other",
	          "type": "trackEvent"
	        },
	        "productClick": {
	          "action": "productClick",
	          "attributes": {
	            "nonInteraction": "1"
	          },
	          "label": {
	            "attributes": {
	              "productVariations": "250ml",
	              "listPosition": ""
	            },
	            "category": {
	              "primaryCategory": "Hair care"
	            },
	            "productInfo": {
	              "quantity": "250ml",
	              "productID": "8712561493703",
	              "price": "5.99",
	              "brand": "dove",
	              "productName": "Advanced Hair Series Pure Care Dry Oil Conditioner"
	            }
	          },
	          "category": "custom",
	          "type": "productclick"
	        },
	        "productQuickView": {
	          "action": "productQuickView",
	          "attributes": {
	            "nonInteraction": "1"
	          },
	          "label": {
	            "attributes": {
	              "productVariations": "250ml",
	              "listPosition": ""
	            },
	            "category": {
	              "primaryCategory": "Hair care"
	            },
	            "productInfo": {
	              "quantity": "250ml",
	              "productID": "8712561493703",
	              "price": "5.99",
	              "brand": "dove",
	              "productName": "Advanced Hair Series Pure Care Dry Oil Conditioner"
	            }
	          },
	          "category": "custom",
	          "type": "productQuickView"
	        },
	        "productImpression": {
	          "action": "productImpression",
	          "attributes": {
	            "nonInteraction": "1"
	          },
	          "label": {
	            "attributes": {
	              "productVariations": "250ml",
	              "listPosition": ""
	            },
	            "category": {
	              "primaryCategory": "Hair care"
	            },
	            "productInfo": {
	              "quantity": "250ml",
	              "productID": "8712561493703",
	              "price": "5.99",
	              "brand": "dove",
	              "productName": "Advanced Hair Series Pure Care Dry Oil Conditioner"
	            }
	          },
	          "category": "custom",
	          "type": "productImpression"
	        },
	        "shopNow": {
	          "productID": "8712561493703",
	          "primaryCategory": "Hair care",
	          "productVariations": "250ml",
	          "action": "shopNow",
	          "attributes": {
	            "nonInteraction": "1"
	          },
	          "label": {
	            "attributes": {
	              "productVariations": "250ml",
	              "listPosition": ""
	            },
	            "category": {
	              "primaryCategory": "Hair care"
	            },
	            "productInfo": {
	              "quantity": "250ml",
	              "productID": "8712561493703",
	              "price": "5.99",
	              "brand": "dove",
	              "productName": "Advanced Hair Series Pure Care Dry Oil Conditioner"
	            }
	          },
	          "category": "custom",
	          "type": "shopNow"
	        },
	        "ratingreview": {
	          "action": "ratingreview",
	          "label": "Advanced Hair Series Pure Care Dry Oil Conditioner",
	          "category": "other",
	          "type": "trackEvent"
	        },
	        "dropdown": {
	          "action": "dropdown",
	          "label": "dropdown",
	          "category": "custom",
	          "type": "trackEvent"
	        },
	        "zoom": {
	          "productID": "8712561493703",
	          "primaryCategory": "Hair care",
	          "productVariations": "250ml",
	          "action": "widgets",
	          "label": "zoom",
	          "category": "custom",
	          "type": "trackEvent"
	        }
	      },
	      "textLink": {
	        "label": "Find Out More",
	        "url": "http://localhost:4502/uk/home/hair-care/conditioner/advanced-hair-series-pure-care-dry-oil-conditioner.html"
	      },
	      "productTag": [
	        {
	          "path": "/etc/tags/unilever/dove/content/process/created",
	          "name": "created",
	          "id": "unilever:dove/content/process/created",
	          "title": "created"
	        },
	        {
	          "path": "/etc/tags/unilever/dove/content/purpose/core/product",
	          "name": "product",
	          "id": "unilever:dove/content/purpose/core/product",
	          "title": "product"
	        },
	        {
	          "path": "/etc/tags/unilever/dove/product/benefit/cross-category/moisturising",
	          "name": "moisturising",
	          "id": "unilever:dove/product/benefit/cross-category/moisturising",
	          "title": "moisturising"
	        },
	        {
	          "path": "/etc/tags/unilever/dove/product/need/hair/dry",
	          "name": "dry",
	          "id": "unilever:dove/product/need/hair/dry",
	          "title": "dry hair"
	        },
	        {
	          "path": "/etc/tags/unilever/dove/content/frequency/evergreen",
	          "name": "evergreen",
	          "id": "unilever:dove/content/frequency/evergreen",
	          "title": "evergreen"
	        },
	        {
	          "path": "/etc/tags/unilever/dove/product/benefit/hair/nourishing",
	          "name": "nourishing",
	          "id": "unilever:dove/product/benefit/hair/nourishing",
	          "title": "nourishing hair"
	        },
	        {
	          "path": "/etc/tags/unilever/dove/content/brand/dove-women",
	          "name": "dove-women",
	          "id": "unilever:dove/content/brand/dove-women",
	          "title": "Dove Women"
	        },
	        {
	          "path": "/etc/tags/unilever/dove/product/collection/hair/advanced-hair-series/pure-care-dry-oil",
	          "name": "pure-care-dry-oil",
	          "id": "unilever:dove/product/collection/hair/advanced-hair-series/pure-care-dry-oil",
	          "title": "Pure Care Dry Oil"
	        },
	        {
	          "path": "/etc/tags/unilever/dove/product/ingredient/macadamia-oil",
	          "name": "macadamia-oil",
	          "id": "unilever:dove/product/ingredient/macadamia-oil",
	          "title": "macadamia oil"
	        },
	        {
	         "path": "/etc/tags/unilever/dove/product/benefit/hair/softening",
	          "name": "softening",
	          "id": "unilever:dove/product/benefit/hair/softening",
	          "title": "hair softening"
	        },
	       {
	          "path": "/etc/tags/unilever/dove/product/type/hair/conditioner",
	          "name": "conditioner",
	          "id": "unilever:dove/product/type/hair/conditioner",
	          "title": "conditioner"
	        }
	      ],
	      "quickViewLabel": "quick view"
	    },
	    {
	      "title": "Advanced Hair Series Pure Care Dry Oil Conditioner",
	      "description": "For intense hair nourishment, Dove Advanced Hair Series Pure Care Dry Oil Conditioner helps to add shine and make hair feel smooth and soft.",
	      "productID": "8712561493703",
	      "currencySymbol": "£",
		  "personalisedPrice":"2.77",
	      "personalizableLabel" : "personalizable",
        	"enableCustomizationBadges": true,
       	 	"isCustomizableProduct" :true,
       	 	"giftConfigurator": {
				"customisedDeliveryPrice": "10.0",
				"encryptedDeliveryPrice": "o0WGbvgyCk3Rpn34KJmU1g==",
				"encryptedWrappingPrice": "DoXUlW4tzpCA2AfM+nJpwQ==",
				"customisedWrappingPrice": "1.0",
				"deliveryTooltip": "We aim to deliver at choosen address",
				"giftWraps": [],
				"encryptedPrice": "6X6ZRvGIDpFleXGf05L0Pg==",
				"deliveryConditionsCopy": "Free Standard Uk Delivery Included",
				"customisedPrice": "21.0"
			},
	      "ratings": {
	        "entityType": "product",
	        "identifierValue": "8712561493703",
	        "viewType": "rating",
	        "identifierType": "EAN",
	        "uniqueId": "8712561493703"
	      },
	      "productsDetail": [
	        {
	          "unit": "250ml",
	          "images": [
	            {
	              	"extension": "png",
                    "title": "sddf",
                    "altImage": "",
                    "isNotAdaptiveImage": "false",
                    "fileName": "01",
                    "path": "/images-cms/product-listing/product",
	              "zoomImage": {
	                "path": "http://localhost:4502/content/dam/unilever/dove/global/pack_shot/front/hair_care/wash_and_care/dove_ahs_cond_250mlpureoil/Dove_Advanced_Hair_Series_Pure_Care_Conditioner_250ml_FO_8712561493703.png",
	                "fileName": "",
	                "extension": "png",
	                "isNotAdaptiveImage": "false",
	                "title": "Dove Pure Care Dry Oil Conditioner 250ml",
	                "url": "http://localhost:4502/content/dam/unilever/dove/global/pack_shot/front/hair_care/wash_and_care/dove_ahs_cond_250mlpureoil/Dove_Advanced_Hair_Series_Pure_Care_Conditioner_250ml_FO_8712561493703.png.ulenscale.985x985.png",
	                "altImage": "Dove Pure Care Dry Oil Conditioner 250ml"
	              },
	              "thumbImage": {
	                "path": "http://localhost:4502/content/dam/unilever/dove/global/pack_shot/front/hair_care/wash_and_care/dove_ahs_cond_250mlpureoil/Dove_Advanced_Hair_Series_Pure_Care_Conditioner_250ml_FO_8712561493703.png",
	                "fileName": "",
	                "extension": "png",
	                "isNotAdaptiveImage": "false",
	                "title": "Dove Pure Care Dry Oil Conditioner 250ml",
	                "url": "http://localhost:4502/content/dam/unilever/dove/global/pack_shot/front/hair_care/wash_and_care/dove_ahs_cond_250mlpureoil/Dove_Advanced_Hair_Series_Pure_Care_Conditioner_250ml_FO_8712561493703.png.thumb.100.140.png",
	                "altImage": "Dove Pure Care Dry Oil Conditioner 250ml"
	              }
	            }
	          ],
	          "price": "£5.99",
	          "productSize": "Tall",
	          "smartProductId": "100443",
	          "retail": "RRP",
	          "skuid": "8712561493703"
	        }
	      ],
	      "containertag": {
	        "productLoad": {
	          "productID": "8712561493703",
	          "primaryCategory": "Hair care",
	          "productVariations": "250ml",
	          "action": "productInfo",
	          "label": "Advanced Hair Series Pure Care Dry Oil Conditioner",
	          "category": "other",
	          "type": "trackEvent"
	        },
	        "productClick": {
	          "action": "productClick",
	          "attributes": {
	            "nonInteraction": "1"
	          },
	          "label": {
	            "attributes": {
	              "productVariations": "250ml",
	              "listPosition": ""
	            },
	            "category": {
	              "primaryCategory": "Hair care"
	            },
	            "productInfo": {
	              "quantity": "250ml",
	              "productID": "8712561493703",
	              "price": "5.99",
	              "brand": "dove",
	              "productName": "Advanced Hair Series Pure Care Dry Oil Conditioner"
	            }
	          },
	          "category": "custom",
	          "type": "productclick"
	        },
	        "productQuickView": {
	          "action": "productQuickView",
	          "attributes": {
	            "nonInteraction": "1"
	          },
	          "label": {
	            "attributes": {
	              "productVariations": "250ml",
	              "listPosition": ""
	            },
	            "category": {
	              "primaryCategory": "Hair care"
	            },
	            "productInfo": {
	              "quantity": "250ml",
	              "productID": "8712561493703",
	              "price": "5.99",
	              "brand": "dove",
	              "productName": "Advanced Hair Series Pure Care Dry Oil Conditioner"
	            }
	          },
	          "category": "custom",
	          "type": "productQuickView"
	        },
	        "productImpression": {
	          "action": "productImpression",
	          "attributes": {
	            "nonInteraction": "1"
	          },
	          "label": {
	            "attributes": {
	              "productVariations": "250ml",
	              "listPosition": ""
	            },
	            "category": {
	              "primaryCategory": "Hair care"
	            },
	            "productInfo": {
	              "quantity": "250ml",
	              "productID": "8712561493703",
	              "price": "5.99",
	              "brand": "dove",
	              "productName": "Advanced Hair Series Pure Care Dry Oil Conditioner"
	            }
	          },
	          "category": "custom",
	          "type": "productImpression"
	        },
	        "shopNow": {
	          "productID": "8712561493703",
	          "primaryCategory": "Hair care",
	          "productVariations": "250ml",
	          "action": "shopNow",
	          "attributes": {
	            "nonInteraction": "1"
	          },
	          "label": {
	            "attributes": {
	              "productVariations": "250ml",
	              "listPosition": ""
	            },
	            "category": {
	              "primaryCategory": "Hair care"
	            },
	            "productInfo": {
	              "quantity": "250ml",
	              "productID": "8712561493703",
	              "price": "5.99",
	              "brand": "dove",
	              "productName": "Advanced Hair Series Pure Care Dry Oil Conditioner"
	            }
	          },
	          "category": "custom",
	          "type": "shopNow"
	        },
	        "ratingreview": {
	          "action": "ratingreview",
	          "label": "Advanced Hair Series Pure Care Dry Oil Conditioner",
	          "category": "other",
	          "type": "trackEvent"
	        },
	        "dropdown": {
	          "action": "dropdown",
	          "label": "dropdown",
	          "category": "custom",
	          "type": "trackEvent"
	        },
	        "zoom": {
	          "productID": "8712561493703",
	          "primaryCategory": "Hair care",
	          "productVariations": "250ml",
	          "action": "widgets",
	          "label": "zoom",
	          "category": "custom",
	          "type": "trackEvent"
	        }
	      },
	      "textLink": {
	        "label": "Customisable",
	        "url": "http://localhost:4502/uk/home/hair-care/conditioner/advanced-hair-series-pure-care-dry-oil-conditioner.html"
	      },
	      "productTag": [
	        {
	          "path": "/etc/tags/unilever/dove/content/process/created",
	          "name": "created",
	          "id": "unilever:dove/content/process/created",
	          "title": "created"
	        },
	        {
	          "path": "/etc/tags/unilever/dove/content/purpose/core/product",
	          "name": "product",
	          "id": "unilever:dove/content/purpose/core/product",
	          "title": "product"
	        },
	        {
	          "path": "/etc/tags/unilever/dove/product/benefit/cross-category/moisturising",
	          "name": "moisturising",
	          "id": "unilever:dove/product/benefit/cross-category/moisturising",
	          "title": "moisturising"
	        },
	        {
	          "path": "/etc/tags/unilever/dove/product/need/hair/dry",
	          "name": "dry",
	          "id": "unilever:dove/product/need/hair/dry",
	          "title": "dry hair"
	        },
	        {
	          "path": "/etc/tags/unilever/dove/content/frequency/evergreen",
	          "name": "evergreen",
	          "id": "unilever:dove/content/frequency/evergreen",
	          "title": "evergreen"
	        },
	        {
	          "path": "/etc/tags/unilever/dove/product/benefit/hair/nourishing",
	          "name": "nourishing",
	          "id": "unilever:dove/product/benefit/hair/nourishing",
	          "title": "nourishing hair"
	        },
	        {
	          "path": "/etc/tags/unilever/dove/content/brand/dove-women",
	          "name": "dove-women",
	          "id": "unilever:dove/content/brand/dove-women",
	          "title": "Dove Women"
	        },
	        {
	          "path": "/etc/tags/unilever/dove/product/collection/hair/advanced-hair-series/pure-care-dry-oil",
	          "name": "pure-care-dry-oil",
	          "id": "unilever:dove/product/collection/hair/advanced-hair-series/pure-care-dry-oil",
	          "title": "Pure Care Dry Oil"
	        },
	        {
	          "path": "/etc/tags/unilever/dove/product/ingredient/macadamia-oil",
	          "name": "macadamia-oil",
	          "id": "unilever:dove/product/ingredient/macadamia-oil",
	          "title": "macadamia oil"
	        },
	        {
	         "path": "/etc/tags/unilever/dove/product/benefit/hair/softening",
	          "name": "softening",
	          "id": "unilever:dove/product/benefit/hair/softening",
	          "title": "hair softening"
	        },
	       {
	          "path": "/etc/tags/unilever/dove/product/type/hair/conditioner",
	          "name": "conditioner",
	          "id": "unilever:dove/product/type/hair/conditioner",
	          "title": "conditioner"
	        }
	      ],
	      "quickViewLabel": "quick view"
	    }
	  ],
	  "textLink": {
	    "label": "Customisable",
	    "url": "http://localhost:4502/uk/home/collections/advanced-hair-care-series/youthful-vitality.html"
	  }
	},
	"viewType": "defaultView",
	"randomNumber": "789",
	"isContainer": false,
	"resourceType": "unilever-iea/components/productRange"
	}
}