{ 
   "data":{ 
      "path":"/content/whitelabel/en_in/flexi0/_jcr_content/flexi_hero_par/calloutbutton",
      "componentType":"callOutButton",
      "callOutButton": { 
         "market":"en_in",
         "viewType":"checkout",
         "brandName":"whitelabel",
         "ctaText":"Secure checkout",
         "shortCopy":"we accept payments by",
         "componentName":"callOutButton",
         "url":"tx1_payment-form.html"
      },
      "ajaxURL":"/content/whitelabel/en_in/flexi0/_jcr_content/flexi_hero_par/calloutbutton.data.ajax.json",
      "clientSideRendering":false,
      "viewType":"defaultView",
      "randomNumber":"147",
      "isContainer":false,
      "resourceType":"unilever-iea/components/callOutButton"
   },
   "responseHeader": { 
      "messages":[ 
 
      ],
      "status":"200"
   }
}
