{
    "data": {
        "randomNumber": "757",
        "path": "/content/iea/en_us/surbhi/_jcr_content/flexi_hero_par/video",
        "clientSideRendering": false,
        "viewType": "youtube",
        "componentType": "video",
        "isContainer": true,
        "video": {
            "loopPlayback": false,
            "audio": true,
            "showControls": true,
            "videoId": "eN9XX-dd0LQ",
            "thumbnailUrl": "/images-cms/video/home-hero.jpg",
            "viewType": "youtube",
            "isContainer": false,
            "autoplay": true,
            "displayOption": "Overlay",
            "videoSubHeadline": "Free The Kids",
            "videoDescription": "We were shocked to discover that kids these days spend less time outdoors than maximum security prisoners."
        }
    }
}
